﻿"NW1 Bloomsbury, London (0 miles)"
"W1T Bloomsbury, London (0.1 miles)"
"WC1E Bloomsbury, London (0.1 miles)"
"WC1H Bloomsbury, London (0.1 miles)"
"WC1B Holborn and Covent Garden, London (0.1 miles)"
"WC2B Holborn and Covent Garden, London (0.1 miles)"
"WC1A Holborn and Covent Garden, London (0.1 miles)"
"SE1 Prince's, London (0.2 miles)"
"WC1V Holborn and Covent Garden, London (0.2 miles)"
"N19 St George's, London (0.2 miles)"
"WC1A Bloomsbury, London (0.3 miles)"
"WC2H Holborn and Covent Garden, London (0.3 miles)"
"WC1N King's Cross, London (0.3 miles)"
"WC99 London, London (0.3 miles)"
"WC1 London, London (0.3 miles)"
"WC1N Holborn and Covent Garden, London (0.3 miles)"
"WC1R Holborn and Covent Garden, London (0.3 miles)"
"WC2A Holborn and Covent Garden, London (0.4 miles)"
"WC1X Holborn and Covent Garden, London (0.4 miles)"
"WC1V Farringdon Without, London (0.5 miles)"
"WC1N Bloomsbury, London (0.5 miles)"
"WC2A Farringdon Without, London (0.5 miles)"
"WC1B Bloomsbury, London (0.5 miles)"
"WC2H West End, London (0.5 miles)"
"WC1X King's Cross, London (0.5 miles)"
"EC4A Farringdon Without, London (0.6 miles)"
"W1E London, London (0.6 miles)"
"EC1R Holborn and Covent Garden, London (0.6 miles)"
"EC1N Farringdon Without, London (0.6 miles)"
"EC1N Holborn and Covent Garden, London (0.7 miles)"
"EC1P Holborn and Covent Garden, London (0.7 miles)"
"EC4Y Farringdon Without, London (0.7 miles)"
"EC50 Clerkenwell, London (0.7 miles)"
"EC1M Holborn and Covent Garden, London (0.8 miles)"
"EC4A Farringdon Within, London (0.8 miles)"
"EC4P Temple Church, London (0.8 miles)"
"WC1H King's Cross, London (0.9 miles)"
"N1C London, London (0.9 miles)"
"W1W West End, London (0.9 miles)"
"W1B West End, London (0.9 miles)"
"N1 King's Cross, London (0.9 miles)"
"EC1A Farringdon Without, London (0.9 miles)"
"EC4M Farringdon Within, London (0.9 miles)"
"EC4V Farringdon Within, London (1 miles)"
"WC2 London, London (1 miles)"
"EC4 London, London (1 miles)"
"EC4V Clerkenwell, London (1 miles)"
"WC1X Clerkenwell, London (1 miles)"
"EC1A Clerkenwell, London (1 miles)"
"EC3N Clerkenwell, London (1 miles)"
"EC1V Clerkenwell, London (1 miles)"
"EC1R Clerkenwell, London (1 miles)"
"N1 Clerkenwell, London (1 miles)"
"EC1M Clerkenwell, London (1 miles)"
"NW3 Hampstead Town, London (1.1 miles)"
"W1G West End, London (1.1 miles)"
"W1C West End, London (1.1 miles)"
"W1U West End, London (1.1 miles)"
"W1K West End, London (1.1 miles)"
"W1S West End, London (1.1 miles)"
"W1T West End, London (1.1 miles)"
"W1J West End, London (1.1 miles)"
"W1F West End, London (1.1 miles)"
"W1D West End, London (1.1 miles)"
"W1A West End, London (1.1 miles)"
"W1J St James's, London (1.1 miles)"
"EC1A Farringdon Within, London (1.1 miles)"
"N1 Barnsbury, London (1.1 miles)"
"N7 Barnsbury, London (1.1 miles)"
"W1D St James's, London (1.1 miles)"
"SW1E St James's, London (1.1 miles)"
"WC2B St James's, London (1.1 miles)"
"SW1Y St James's, London (1.1 miles)"
"WC2R St James's, London (1.1 miles)"
"EC4A St James's, London (1.1 miles)"
"WC2H St James's, London (1.1 miles)"
"WC2N St James's, London (1.1 miles)"
"WC2E St James's, London (1.1 miles)"
"WC2A St James's, London (1.1 miles)"
"SW1A St James's, London (1.1 miles)"
"EC4Y St James's, London (1.1 miles)"
"SW1P St James's, London (1.1 miles)"
"SW1W St James's, London (1.1 miles)"
"SW1W Churchill, London (1.1 miles)"
"EC1M Farringdon Within, London (1.1 miles)"
"EC1M Farringdon Without, London (1.1 miles)"
"EC3M Bridge & Bridge Without, London (1.1 miles)"
"EC3V Bridge & Bridge Without, London (1.1 miles)"
"EC1A Cheap, London (1.2 miles)"
"N1 St Pancras and Somers Town, London (1.2 miles)"
"EC2V Aldersgate, London (1.2 miles)"
"EC2Y Aldersgate, London (1.2 miles)"
"EC1A Aldersgate, London (1.2 miles)"
"EC4M Castle Baynard, London (1.2 miles)"
"EC1N Castle Baynard, London (1.2 miles)"
"EC4Y Castle Baynard, London (1.2 miles)"
"EC4V Castle Baynard, London (1.2 miles)"
"EC4A Castle Baynard, London (1.2 miles)"
"NW1 St Pancras and Somers Town, London (1.2 miles)"
"NW26 Grosvenor Square, London (1.2 miles)"
"W1M London, London (1.3 miles)"
"W1 London, London (1.3 miles)"
"EC2V Cripplegate, London (1.3 miles)"
"EC1M Cripplegate, London (1.3 miles)"
"EC2Y Cripplegate, London (1.3 miles)"
"EC1Y Cripplegate, London (1.3 miles)"
"EC3M Tower, London (1.3 miles)"
"EC3R Tower, London (1.3 miles)"
"EC2V Cheap, London (1.3 miles)"
"EC4V Bread Street, London (1.4 miles)"
"EC2V Bread Street, London (1.4 miles)"
"EC4M Bread Street, London (1.4 miles)"
"EC1A Bread Street, London (1.4 miles)"
"SW1H St James's, London (1.4 miles)"
"EC4V Vintry, London (1.4 miles)"
"EC4M Cordwainer, London (1.4 miles)"
"W1W Marylebone High Street, London (1.4 miles)"
"NW1 Marylebone High Street, London (1.4 miles)"
"W1C Marylebone High Street, London (1.4 miles)"
"W1A Marylebone High Street, London (1.4 miles)"
"W1B Marylebone High Street, London (1.4 miles)"
"W1H Marylebone High Street, London (1.4 miles)"
"W1G Marylebone High Street, London (1.4 miles)"
"W1T Marylebone High Street, London (1.4 miles)"
"W1U Marylebone High Street, London (1.4 miles)"
"EC4V Queenhithe, London (1.4 miles)"
"EC4N Vintry, London (1.4 miles)"
"EC4N Cordwainer, London (1.4 miles)"
"EC2V Cordwainer, London (1.5 miles)"
"EC4R Vintry, London (1.5 miles)"
"EC3N Tower, London (1.5 miles)"
"NW1W Regents Park, London (1.5 miles)"
"W9 Regent's Park, London (1.5 miles)"
"EC2R Cheap, London (1.5 miles)"
"SE1 Cathedrals, London (1.5 miles)"
"EC2R Cordwainer, London (1.5 miles)"
"EC1Y Coleman Street, London (1.6 miles)"
"EC2V Coleman Street, London (1.6 miles)"
"EC2Y Coleman Street, London (1.6 miles)"
"EC2M Coleman Street, London (1.6 miles)"
"EC2R Coleman Street, London (1.6 miles)"
"EC4N Dowgate, London (1.6 miles)"
"EC4R Dowgate, London (1.6 miles)"
"NW1 Cantelowes, London (1.6 miles)"
"EC2R Walbrook, London (1.6 miles)"
"EC4N Walbrook, London (1.6 miles)"
"EC3V Walbrook, London (1.6 miles)"
"EC2N Walbrook, London (1.6 miles)"
"SE11 Prince's, London (1.6 miles)"
"EC1M Bunhill, London (1.6 miles)"
"EC2A Bunhill, London (1.6 miles)"
"EC1A Bunhill, London (1.6 miles)"
"EC2P Bunhill, London (1.6 miles)"
"EC2Y Bunhill, London (1.6 miles)"
"EC1Y Bunhill, London (1.6 miles)"
"EC2M Bunhill, London (1.6 miles)"
"EC1V Bunhill, London (1.6 miles)"
"EC2Y Bassishaw, London (1.6 miles)"
"EC2R Bassishaw, London (1.6 miles)"
"EC2V Bassishaw, London (1.6 miles)"
"EC2P Bassishaw, London (1.6 miles)"
"EC4N Langbourn, London (1.6 miles)"
"N1 St Peter's, London (1.6 miles)"
"EC1V St Peter's, London (1.6 miles)"
"SW1E Warwick, London (1.6 miles)"
"SW1W Warwick, London (1.6 miles)"
"W1U Bryanston and Dorset Square, London (1.7 miles)"
"EC4N Candlewick, London (1.7 miles)"
"W1C Bryanston and Dorset Square, London (1.7 miles)"
"W1K Knightsbridge and Belgravia, London (1.7 miles)"
"NW1 King's Cross, London (1.7 miles)"
"N1P Islington, London (1.7 miles)"
"EC4R Candlewick, London (1.7 miles)"
"NW1 Regent's Park, London (1.7 miles)"
"EC2M Cornhill, London (1.7 miles)"
"EC2N Cornhill, London (1.7 miles)"
"EC2R Cornhill, London (1.7 miles)"
"EC3V Cornhill, London (1.7 miles)"
"EC3V Candlewick, London (1.7 miles)"
"EC3R Candlewick, London (1.7 miles)"
"EC3V Langbourn, London (1.7 miles)"
"EC3R Bridge & Bridge Without, London (1.7 miles)"
"EC4R Bridge & Bridge Without, London (1.7 miles)"
"SW1P Vincent Square, London (1.8 miles)"
"SW1V Vincent Square, London (1.8 miles)"
"SW1E Vincent Square, London (1.8 miles)"
"SE1 Bishop's, London (1.8 miles)"
"SE11 Bishop's, London (1.8 miles)"
"EC3M Candlewick, London (1.8 miles)"
"N1 Caledonian, London (1.8 miles)"
"N7 Caledonian, London (1.8 miles)"
"EC2N Broad Street, London (1.8 miles)"
"EC2M Broad Street, London (1.8 miles)"
"EC2R Broad Street, London (1.8 miles)"
"SE11 Cathedrals, London (1.8 miles)"
"W1H Bryanston and Dorset Square, London (1.9 miles)"
"EC3P Lime Street, London (1.9 miles)"
"EC3 London, London (1.9 miles)"
"SW1X Knightsbridge and Belgravia, London (1.9 miles)"
"EC3M Billingsgate, London (1.9 miles)"
"NW1 Bryanston and Dorset Square, London (1.9 miles)"
"EC3A Lime Street, London (1.9 miles)"
"EC3V Lime Street, London (1.9 miles)"
"EC3M Lime Street, London (1.9 miles)"
"EC2N Lime Street, London (1.9 miles)"
"EC3M Langbourn, London (1.9 miles)"
"NW1 Camden Town with Primrose Hill, London (2 miles)"
"EC2P Bishopsgate, London (2 miles)"
"EC2A Bishopsgate, London (2 miles)"
"EC2M Bishopsgate, London (2 miles)"
"EC2N Bishopsgate, London (2 miles)"
"EC3A Bishopsgate, London (2 miles)"
"SW1V Tachbrook, London (2 miles)"
"W2 Bryanston and Dorset Square, London (2 miles)"
"EC3R Billingsgate, London (2 miles)"
"SE5 Newington, London (2 miles)"
"SE1 Newington, London (2 miles)"
"SE15 Newington, London (2 miles)"
"SE11 Newington, London (2 miles)"
"SW1V Warwick, London (2 miles)"
"EC2M Spitalfields and Banglatown, London (2.1 miles)"
"N7 Cantelowes, London (2.1 miles)"
"SW1W Knightsbridge and Belgravia, London (2.1 miles)"
"EC1 London, London (2.1 miles)"
"N5 St Mary's, London (2.1 miles)"
"N7 St Mary's, London (2.2 miles)"
"EC3P Aldgate, London (2.2 miles)"
"EC3M Aldgate, London (2.2 miles)"
"NW8 Camden Town with Primrose Hill, London (2.2 miles)"
"E1 Bishopsgate, London (2.2 miles)"
"N1 St Mary's, London (2.2 miles)"
"EC3A Aldgate, London (2.3 miles)"
"EC2 London, London (2.3 miles)"
"E1 Aldgate, London (2.3 miles)"
"EC3N Aldgate, London (2.3 miles)"
"E1 Tower, London (2.3 miles)"
"NW1 Church Street, London (2.3 miles)"
"NW8 Church Street, London (2.3 miles)"
"W2 Church Street, London (2.3 miles)"
"N7 St George's, London (2.3 miles)"
"E1 Spitalfields and Banglatown, London (2.3 miles)"
"EC3N Portsoken, London (2.3 miles)"
"EC3A Portsoken, London (2.3 miles)"
"E1 Portsoken, London (2.3 miles)"
"SW1X Hans Town, London (2.3 miles)"
"SW3 Knightsbridge and Belgravia, London (2.3 miles)"
"SW1W Hans Town, London (2.3 miles)"
"SW1V Churchill, London (2.3 miles)"
"EC3N St Katharine's and Wapping, London (2.3 miles)"
"E1 Whitechapel, London (2.4 miles)"
"NW3 Camden Town with Primrose Hill, London (2.4 miles)"
"NW8 Regent's Park, London (2.4 miles)"
"W2 Knightsbridge and Belgravia, London (2.4 miles)"
"SE1 South Bermondsey, London (2.4 miles)"
"W2 Westbourne, London (2.5 miles)"
"SW9 Oval, London (2.5 miles)"
"SW8 Oval, London (2.5 miles)"
"SE11 Oval, London (2.5 miles)"
"SE5 Oval, London (2.5 miles)"
"E2 Haggerston, London (2.5 miles)"
"W2 Lancaster Gate, London (2.5 miles)"
"N1 Canonbury, London (2.5 miles)"
"N7 Holloway, London (2.5 miles)"
"E77 Whitechapel, London (2.5 miles)"
"SW7 Knightsbridge and Belgravia, London (2.6 miles)"
"SE1 East Walworth, London (2.6 miles)"
"SE5 East Walworth, London (2.6 miles)"
"SE17 East Walworth, London (2.6 miles)"
"SE15 East Walworth, London (2.6 miles)"
"EC1V Hoxton, London (2.6 miles)"
"N1 Hoxton, London (2.6 miles)"
"SE1 Grange, London (2.6 miles)"
"SW95 Queenstown, London (2.6 miles)"
"N7 Highbury West, London (2.6 miles)"
"N1 Highbury East, London (2.6 miles)"
"N16 Highbury East, London (2.6 miles)"
"N5 Highbury West, London (2.6 miles)"
"N4 Highbury West, London (2.6 miles)"
"N5 Highbury East, London (2.6 miles)"
"N7 Highbury East, London (2.6 miles)"
"E8 De Beauvoir, London (2.6 miles)"
"SE1P Bermondsey, London (2.6 miles)"
"N1 De Beauvoir, London (2.6 miles)"
"E2 De Beauvoir, London (2.6 miles)"
"E1 St Katharine's and Wapping, London (2.6 miles)"
"W2 Bayswater, London (2.6 miles)"
"W2 Hyde Park, London (2.6 miles)"
"W11 Bayswater, London (2.6 miles)"
"SW3 Royal Hospital, London (2.6 miles)"
"SW1W Royal Hospital, London (2.6 miles)"
"SE16 Grange, London (2.7 miles)"
"SW2 St Leonard's, London (2.7 miles)"
"EC2A Haggerston, London (2.7 miles)"
"E8 Haggerston, London (2.7 miles)"
"N1 Haggerston, London (2.7 miles)"
"EC2M Haggerston, London (2.7 miles)"
"EC1V Haggerston, London (2.7 miles)"
"E1 Haggerston, London (2.7 miles)"
"W9 Little Venice, London (2.7 miles)"
"W2 Little Venice, London (2.7 miles)"
"SE17 Newington, London (2.7 miles)"
"SW3 Brompton, London (2.7 miles)"
"SW1X Brompton, London (2.7 miles)"
"SW7 Brompton, London (2.7 miles)"
"SE17 Faraday, London (2.7 miles)"
"SW3 Hans Town, London (2.7 miles)"
"NW5 Cantelowes, London (2.7 miles)"
"NW3 Haverstock, London (2.7 miles)"
"NW1 Haverstock, London (2.7 miles)"
"NW5 Haverstock, London (2.7 miles)"
"N5 Brownswood, London (2.8 miles)"
"N7 Tollington, London (2.8 miles)"
"E98 St Katharine's and Wapping, London (2.8 miles)"
"SW9 Vassall, London (2.8 miles)"
"SW99 Vassall, London (2.8 miles)"
"SE5 Vassall, London (2.8 miles)"
"SE5 Faraday, London (2.8 miles)"
"E1W Shadwell, London (2.9 miles)"
"E8 Hackney, London (2.9 miles)"
"W9 Westbourne, London (2.9 miles)"
"E8 Queensbridge, London (2.9 miles)"
"E1W St Katharine's and Wapping, London (2.9 miles)"
"N1 Dalston, London (2.9 miles)"
"E8 Dalston, London (2.9 miles)"
"E2 Weavers, London (2.9 miles)"
"E1 Weavers, London (2.9 miles)"
"N16 Dalston, London (2.9 miles)"
"NW5 Gospel Oak, London (3 miles)"
"NW3 Gospel Oak, London (3 miles)"
"E8 Mildmay, London (3 miles)"
"N16 Mildmay, London (3 miles)"
"N5 Mildmay, London (3 miles)"
"N1 Mildmay, London (3 miles)"
"SW7 Queen's Gate, London (3 miles)"
"W8 Queen's Gate, London (3 miles)"
"SE1 Chaucer, London (3 miles)"
"SW9 Stockwell, London (3 miles)"
"SW4 Stockwell, London (3 miles)"
"N19 Kentish Town, London (3 miles)"
"NW1 Kentish Town, London (3 miles)"
"N7 Kentish Town, London (3 miles)"
"NW8 Swiss Cottage, London (3 miles)"
"NW6 Swiss Cottage, London (3 miles)"
"NW3 Swiss Cottage, London (3 miles)"
"NW5 Kentish Town, London (3 miles)"
"N4 Tollington, London (3.1 miles)"
"N19 Tollington, London (3.1 miles)"
"NW5 Junction, London (3.1 miles)"
"N19 Junction, London (3.1 miles)"
"N7 Junction, London (3.1 miles)"
"N81 Hornsey, London (3.1 miles)"
"N6 Junction, London (3.1 miles)"
"SW11 Queenstown, London (3.1 miles)"
"SW8 Queenstown, London (3.1 miles)"
"SE16 South Bermondsey, London (3.1 miles)"
"NW6 Abbey Road, London (3.1 miles)"
"NW8 Abbey Road, London (3.1 miles)"
"SW8 Stockwell, London (3.1 miles)"
"W9 Abbey Road, London (3.1 miles)"
"SW8 Larkhall, London (3.1 miles)"
"SW4 Larkhall, London (3.1 miles)"
"SW9 Larkhall, London (3.1 miles)"
"E14 Shadwell, London (3.1 miles)"
"E1 Shadwell, London (3.1 miles)"
"N16 Clissold, London (3.2 miles)"
"SE5 Camberwell Green, London (3.2 miles)"
"E1 Bethnal Green South, London (3.3 miles)"
"E2 Bethnal Green North, London (3.3 miles)"
"E2 Bethnal Green South, London (3.3 miles)"
"E8 Bethnal Green North, London (3.3 miles)"
"N5 Clissold, London (3.3 miles)"
"NW3 Belsize, London (3.3 miles)"
"W9 Maida Vale, London (3.3 miles)"
"NW6 Maida Vale, London (3.3 miles)"
"SE16 Riverside, London (3.3 miles)"
"SE1 Riverside, London (3.3 miles)"
"SE5 Brunswick Park, London (3.3 miles)"
"SE5 South Camberwell, London (3.4 miles)"
"SE15 Brunswick Park, London (3.4 miles)"
"SW11 St Mary's Park, London (3.4 miles)"
"SE8 Surrey Docks, London (3.5 miles)"
"SE16 Surrey Docks, London (3.5 miles)"
"N7 Finsbury Park, London (3.5 miles)"
"SW5 Courtfield, London (3.5 miles)"
"W11 Westbourne, London (3.5 miles)"
"SW3 Courtfield, London (3.5 miles)"
"SW10 Courtfield, London (3.5 miles)"
"SW7 Courtfield, London (3.5 miles)"
"SE16 New Cross, London (3.5 miles)"
"N4 Finsbury Park, London (3.5 miles)"
"W11 Pembridge, London (3.5 miles)"
"W2 Pembridge, London (3.5 miles)"
"W11 Campden, London (3.5 miles)"
"W8 Campden, London (3.5 miles)"
"W2 Campden, London (3.5 miles)"
"SW10 Stanley, London (3.6 miles)"
"SW3 Stanley, London (3.6 miles)"
"NW3 Frognal and Fitzjohns, London (3.6 miles)"
"E8 Chatham, London (3.7 miles)"
"SE5 Coldharbour, London (3.7 miles)"
"SE24 Coldharbour, London (3.7 miles)"
"SW9 Coldharbour, London (3.7 miles)"
"SW2 Coldharbour, London (3.7 miles)"
"SW5 Abingdon, London (3.7 miles)"
"W8 Abingdon, London (3.7 miles)"
"E1 St Dunstan's and Stepney Green, London (3.7 miles)"
"SW10 Redcliffe, London (3.7 miles)"
"SW5 Redcliffe, London (3.7 miles)"
"SW10 Cremorne, London (3.7 miles)"
"SW3 Cremorne, London (3.7 miles)"
"SW5 Earl's Court, London (3.7 miles)"
"W11 Colville, London (3.7 miles)"
"W10 Colville, London (3.7 miles)"
"N19 Hillrise, London (3.7 miles)"
"N4 Brownswood, London (3.7 miles)"
"NW3 Highgate, London (3.8 miles)"
"N19 Highgate, London (3.8 miles)"
"NW5 Highgate, London (3.8 miles)"
"N10 Highgate, London (3.8 miles)"
"SW4 Ferndale, London (3.8 miles)"
"SW2 Ferndale, London (3.8 miles)"
"SW9 Ferndale, London (3.8 miles)"
"N6 Highgate, London (3.8 miles)"
"N16 Hackney Downs, London (3.8 miles)"
"E5 Hackney Downs, London (3.8 miles)"
"SE16 Livesey, London (3.8 miles)"
"SE1 Livesey, London (3.8 miles)"
"SE15 Livesey, London (3.8 miles)"
"N4 Hillrise, London (3.8 miles)"
"N16 Lordship, London (3.8 miles)"
"N4 Lordship, London (3.8 miles)"
"SE5 The Lane, London (3.8 miles)"
"E2 Mile End and Globe Town, London (3.8 miles)"
"E1 Mile End and Globe Town, London (3.8 miles)"
"SW4 Clapham Town, London (3.8 miles)"
"SW8 Clapham Town, London (3.8 miles)"
"SW4 Clapham Common, London (3.8 miles)"
"W9 Harrow Road, London (3.8 miles)"
"N16 Stoke Newington, London (3.8 miles)"
"W8 Holland, London (3.9 miles)"
"N4 Stroud Green, London (3.9 miles)"
"SW18 Latchmere, London (3.9 miles)"
"SW11 Latchmere, London (3.9 miles)"
"N8 Hillrise, London (3.9 miles)"
"E5 Chatham, London (3.9 miles)"
"E9 Chatham, London (3.9 miles)"
"NW6 Harrow Road, London (3.9 miles)"
"W10 Harrow Road, London (3.9 miles)"
"SE15 New Cross, London (3.9 miles)"
"SE15 South Camberwell, London (3.9 miles)"
"SE5 Village, London (3.9 miles)"
"SE5 Peckham, London (4 miles)"
"E8 Victoria, London (4 miles)"
"E9 Victoria, London (4 miles)"
"W9 Kilburn, London (4 miles)"
"NW8 Kilburn, London (4 miles)"
"E14 St Dunstan's and Stepney Green, London (4 miles)"
"W11 Golborne, London (4 miles)"
"W9 Golborne, London (4 miles)"
"W10 Golborne, London (4 miles)"
"SE15 Peckham, London (4 miles)"
"E14 Mile End East, London (4 miles)"
"E3 Mile End East, London (4 miles)"
"NW6 West Hampstead, London (4 miles)"
"W9 Queen's Park, London (4.1 miles)"
"W9 Queens Park, London (4.1 miles)"
"NW6 Kilburn, London (4.1 miles)"
"W14 Abingdon, London (4.1 miles)"
"N6 Fortis Green, London (4.2 miles)"
"E3 St Dunstan's and Stepney Green, London (4.2 miles)"
"SW10 Sands End, London (4.2 miles)"
"SW6 Sands End, London (4.2 miles)"
"W10 Norland, London (4.2 miles)"
"W11 Norland, London (4.2 miles)"
"W12 Norland, London (4.2 miles)"
"E9 Wick, London (4.2 miles)"
"NW3 West Hampstead, London (4.2 miles)"
"W14 Addison, London (4.2 miles)"
"W6 Addison, London (4.2 miles)"
"E5 Cazenove, London (4.2 miles)"
"N16 Cazenove, London (4.2 miles)"
"NW2 Fortune Green, London (4.3 miles)"
"NW3 Fortune Green, London (4.3 miles)"
"NW6 Fortune Green, London (4.3 miles)"
"N8 Hornsey, London (4.3 miles)"
"N4 New River, London (4.3 miles)"
"N16 New River, London (4.3 miles)"
"E5 New River, London (4.3 miles)"
"N15 New River, London (4.3 miles)"
"SE24 Herne Hill, London (4.3 miles)"
"SE16 Rotherhithe, London (4.3 miles)"
"W10 St Charles, London (4.3 miles)"
"NW10 Queens Park, London (4.3 miles)"
"NW6 Queens Park, London (4.3 miles)"
"W10 Queen's Park, London (4.3 miles)"
"SE8 Rotherhithe, London (4.3 miles)"
"SW6 Fulham Broadway, London (4.3 miles)"
"W10 Queens Park, London (4.3 miles)"
"SW9 Herne Hill, London (4.3 miles)"
"SE5 Herne Hill, London (4.3 miles)"
"SW2 Herne Hill, London (4.3 miles)"
"W14 Holland, London (4.3 miles)"
"W11 Holland, London (4.3 miles)"
"W14 North End, London (4.3 miles)"
"SW6 North End, London (4.3 miles)"
"W11 Notting Barns, London (4.3 miles)"
"E14 Limehouse, London (4.4 miles)"
"SW6 Parsons Green and Walham, London (4.4 miles)"
"SE24 Village, London (4.4 miles)"
"SW2 Brixton Hill, London (4.4 miles)"
"N4 Harringay, London (4.4 miles)"
"W14 Avonmore and Brook Green, London (4.4 miles)"
"SW12 Clapham Common, London (4.5 miles)"
"SW4 Brixton Hill, London (4.5 miles)"
"SE24 South Camberwell, London (4.5 miles)"
"E5 Hackney, London (4.5 miles)"
"NW6 Brondesbury Park, London (4.5 miles)"
"NW2 Brondesbury Park, London (4.5 miles)"
"W10 Notting Barns, London (4.5 miles)"
"N8 Stroud Green, London (4.5 miles)"
"W12 Addison, London (4.6 miles)"
"NW3 Childs Hill, London (4.6 miles)"
"SE15 The Lane, London (4.6 miles)"
"NW2 Mapesbury, London (4.6 miles)"
"NW6 Mapesbury, London (4.6 miles)"
"SW12 Northcote, London (4.6 miles)"
"SW11 Northcote, London (4.6 miles)"
"SW4 Northcote, London (4.6 miles)"
"E5 Springfield, London (4.6 miles)"
"N16 Springfield, London (4.6 miles)"
"N15 Springfield, London (4.6 miles)"
"E5 King's Park, London (4.7 miles)"
"W11 Shepherd's Bush Green, London (4.7 miles)"
"W10 Shepherd's Bush Green, London (4.7 miles)"
"W12 Shepherd's Bush Green, London (4.7 miles)"
"SW11 Wandsworth Common, London (4.7 miles)"
"NW2 Childs Hill, London (4.7 miles)"
"SE14 Evelyn, London (4.7 miles)"
"SE16 Evelyn, London (4.7 miles)"
"N15 St Ann's, London (4.7 miles)"
"N4 St Ann's, London (4.7 miles)"
"SE22 Peckham Rye, London (4.7 miles)"
"E9 Bow East, London (4.7 miles)"
"E3 Bow East, London (4.7 miles)"
"E3 Bow West, London (4.7 miles)"
"E9 Bow West, London (4.7 miles)"
"E15 Bow East, London (4.7 miles)"
"SW6 Town, London (4.7 miles)"
"SE21 Village, London (4.7 miles)"
"N15 Harringay, London (4.8 miles)"
"SW12 Balham, London (4.8 miles)"
"NW10 Brondesbury Park, London (4.8 miles)"
"W6 Avonmore and Brook Green, London (4.8 miles)"
"N4 Crouch End, London (4.8 miles)"
"N6 Crouch End, London (4.8 miles)"
"SW11 Balham, London (4.8 miles)"
"SW4 Balham, London (4.8 miles)"
"N10 East Finchley, London (4.8 miles)"
"N6 East Finchley, London (4.8 miles)"
"SE8 Evelyn, London (4.9 miles)"
"N8 Crouch End, London (4.9 miles)"
"SE15 Nunhead, London (4.9 miles)"
"N15 Tottenham Green, London (4.9 miles)"
"SW12 Nightingale, London (4.9 miles)"
"SW17 Nightingale, London (4.9 miles)"
"SE14 Nunhead, London (4.9 miles)"
"SE4 Nunhead, London (4.9 miles)"
"N2 East Finchley, London (4.9 miles)"
"E9 King's Park, London (4.9 miles)"
"SE15 Peckham Rye, London (4.9 miles)"
"SE23 Peckham Rye, London (4.9 miles)"
"SE4 Peckham Rye, London (4.9 miles)"
"SW6 Munster, London (4.9 miles)"
"SW4 Thornton, London (5 miles)"
"SW18 Wandsworth Common, London (5 miles)"
"SW17 Wandsworth Common, London (5 miles)"
"SE14 Telegraph Hill, London (5 miles)"
"SE4 Telegraph Hill, London (5 miles)"
"SE15 Telegraph Hill, London (5 miles)"
"SW2 Streatham Hill, London (5 miles)"
"N8 Muswell Hill, London (5 miles)"
"SW12 Streatham Hill, London (5 miles)"
"SE27 Streatham Hill, London (5 miles)"
"N8 Harringay, London (5 miles)"
"NW2 Willesden Green, London (5 miles)"
"SW4 Shaftesbury, London (5 miles)"
"SW11 Shaftesbury, London (5 miles)"
"SW8 Shaftesbury, London (5 miles)"
"NW2 Golders Green, London (5.1 miles)"
"SE14 New Cross, London (5.1 miles)"
"NW11 Golders Green, London (5.1 miles)"
"W6 Hammersmith Broadway, London (5.1 miles)"
"W10 College Park and Old Oak, London (5.1 miles)"
"SE8 Greenwich West, London (5.1 miles)"
"SE8 New Cross, London (5.1 miles)"
"SE8 Lewisham, London (5.1 miles)"
"SE22 South Camberwell, London (5.1 miles)"
"E14 East India and Lansbury, London (5.1 miles)"
"N22 West Green, London (5.2 miles)"
"N17 West Green, London (5.2 miles)"
"N22 Alexandra, London (5.2 miles)"
"NW3 Garden Suburb, London (5.2 miles)"
"N2 Garden Suburb, London (5.2 miles)"
"NW11 Garden Suburb, London (5.2 miles)"
"SW18 Fairfield, London (5.2 miles)"
"SW11 Fairfield, London (5.2 miles)"
"N15 West Green, London (5.2 miles)"
"W12 East Acton, London (5.2 miles)"
"SW16 Streatham Hill, London (5.2 miles)"
"N2 Fortis Green, London (5.2 miles)"
"SW2 Thornton, London (5.2 miles)"
"SW12 Thornton, London (5.2 miles)"
"W12 College Park and Old Oak, London (5.2 miles)"
"SE22 Village, London (5.3 miles)"
"N10 Fortis Green, London (5.3 miles)"
"SW2 Tulse Hill, London (5.3 miles)"
"E3 East India and Lansbury, London (5.3 miles)"
"SW18 Thamesfield, London (5.3 miles)"
"W12 Hammersmith Broadway, London (5.3 miles)"
"SW12 Bedford, London (5.3 miles)"
"SW17 Bedford, London (5.3 miles)"
"SW16 Bedford, London (5.3 miles)"
"E3 Stratford and New Town, London (5.4 miles)"
"E3 Bromley-by-Bow, London (5.4 miles)"
"SW6 Palace Riverside, London (5.4 miles)"
"NW10 College Park and Old Oak, London (5.4 miles)"
"NW10 Willesden Green, London (5.4 miles)"
"SE22 East Dulwich, London (5.4 miles)"
"NW11 West Hendon, London (5.4 miles)"
"NW11 Hendon, London (5.4 miles)"
"E15 King's Park, London (5.4 miles)"
"SE21 College, London (5.4 miles)"
"E14 Millwall, London (5.4 miles)"
"SE21 Thurlow Park, London (5.5 miles)"
"SE24 Thurlow Park, London (5.5 miles)"
"SE27 Thurlow Park, London (5.5 miles)"
"SW2 Thurlow Park, London (5.5 miles)"
"N4 Seven Sisters, London (5.5 miles)"
"N15 Seven Sisters, London (5.5 miles)"
"E14 Blackwall and Cubitt Town, London (5.5 miles)"
"N6 Hillrise, London (5.5 miles)"
"W12 Wormholt and White City, London (5.5 miles)"
"SE4 Ladywell, London (5.6 miles)"
"W6 Ravenscourt Park, London (5.6 miles)"
"N22 Muswell Hill, London (5.7 miles)"
"N22 Noel Park, London (5.7 miles)"
"N8 Noel Park, London (5.7 miles)"
"SE22 The Lane, London (5.7 miles)"
"N10 Muswell Hill, London (5.7 miles)"
"SE22 College, London (5.7 miles)"
"W12 Ravenscourt Park, London (5.7 miles)"
"W4 Ravenscourt Park, London (5.7 miles)"
"E5 Lea Bridge, London (5.7 miles)"
"W12 Askew, London (5.7 miles)"
"W3 Askew, London (5.7 miles)"
"N17 Woodside, London (5.7 miles)"
"SW15 Thamesfield, London (5.8 miles)"
"SW15 East Putney, London (5.8 miles)"
"SW18 East Putney, London (5.8 miles)"
"SW15 West Putney, London (5.8 miles)"
"SE4 Brockley, London (5.8 miles)"
"NW10 Kensal Green, London (5.8 miles)"
"SE8 Brockley, London (5.8 miles)"
"SE14 Brockley, London (5.8 miles)"
"SE13 Brockley, London (5.8 miles)"
"SW18 Earlsfield, London (5.8 miles)"
"N17 Tottenham Hale, London (5.8 miles)"
"N11 Coppetts, London (5.9 miles)"
"W3 Wormholt and White City, London (5.9 miles)"
"N10 Coppetts, London (5.9 miles)"
"SW17 Earlsfield, London (5.9 miles)"
"SW18 Southfields, London (5.9 miles)"
"E17 Lea Bridge, London (5.9 miles)"
"E10 Lea Bridge, London (5.9 miles)"
"NW10 Harlesden, London (5.9 miles)"
"NW11 Childs Hill, London (5.9 miles)"
"E15 Stratford and New Town, London (5.9 miles)"
"E17 Markhouse, London (5.9 miles)"
"SE23 College, London (5.9 miles)"
"N17 Tottenham Green, London (5.9 miles)"
"E10 Forest, London (5.9 miles)"
"N17 Bruce Grove, London (5.9 miles)"
"N15 Bruce Grove, London (5.9 miles)"
"SW16 Streatham Wells, London (5.9 miles)"
"W3 College Park and Old Oak, London (6 miles)"
"N17 Higham Hill, London (6 miles)"
"E15 Wick, London (6 miles)"
"SE4 Crofton Park, London (6 miles)"
"N20 Coppetts, London (6 miles)"
"SE23 Crofton Park, London (6 miles)"
"N10 Alexandra, London (6 miles)"
"N11 Alexandra, London (6 miles)"
"SW15 West Hill, London (6 miles)"
"SW18 West Hill, London (6 miles)"
"SW19 West Hill, London (6 miles)"
"N22 Woodside, London (6.1 miles)"
"CR4 Streatham South, Mitcham (6.1 miles)"
"SW16 Streatham South, London (6.1 miles)"
"N22 Bounds Green, London (6.1 miles)"
"E10 Leyton, London (6.1 miles)"
"SE23 Forest Hill, London (6.1 miles)"
"N11 Bounds Green, London (6.1 miles)"
"SE26 Forest Hill, London (6.1 miles)"
"N9 Bounds Green, London (6.2 miles)"
"E3 Canning Town North, London (6.2 miles)"
"SE10 Greenwich West, London (6.2 miles)"
"SE10 Blackheath, London (6.2 miles)"
"NW10 Dudden Hill, London (6.2 miles)"
"NW2 Dudden Hill, London (6.2 miles)"
"SE6 Crofton Park, London (6.2 miles)"
"NW2 Dollis Hill, London (6.2 miles)"
"SW16 Knight's Hill, London (6.2 miles)"
"SE27 Knight's Hill, London (6.2 miles)"
"SE19 Knight's Hill, London (6.2 miles)"
"SW17 Tooting, London (6.3 miles)"
"E13 West Ham, London (6.3 miles)"
"E15 West Ham, London (6.3 miles)"
"N22 White Hart Lane, London (6.3 miles)"
"N12 Coppetts, London (6.3 miles)"
"SE26 College, London (6.3 miles)"
"SW18 St Mary's Park, London (6.4 miles)"
"E17 High Street, London (6.4 miles)"
"NW10 Stonebridge, London (6.4 miles)"
"NW10 East Acton, London (6.4 miles)"
"NW10 Alperton, London (6.4 miles)"
"SE13 Ladywell, London (6.4 miles)"
"SW17 Graveney, London (6.4 miles)"
"NW2 West Hendon, London (6.4 miles)"
"NW9 West Hendon, London (6.5 miles)"
"N17 White Hart Lane, London (6.5 miles)"
"N13 White Hart Lane, London (6.5 miles)"
"N18 Bowes, London (6.5 miles)"
"W4 Southfield, London (6.5 miles)"
"W3 Southfield, London (6.5 miles)"
"E5 Leabridge, London (6.5 miles)"
"SW6 Fulham Reach, London (6.6 miles)"
"W6 Fulham Reach, London (6.6 miles)"
"W14 Fulham Reach, London (6.6 miles)"
"N3 Mill Hill, London (6.6 miles)"
"SE26 Perry Vale, London (6.6 miles)"
"SE23 Perry Vale, London (6.6 miles)"
"SW15 Mortlake and Barnes Common, London (6.6 miles)"
"SE6 Perry Vale, London (6.6 miles)"
"W4 Chiswick, London (6.6 miles)"
"W6 Chiswick, London (6.6 miles)"
"TW8 Chiswick, Brentford (6.6 miles)"
"SW16 Graveney, London (6.6 miles)"
"E15 Cathall, London (6.6 miles)"
"E11 Cathall, London (6.6 miles)"
"SW13 Barnes, London (6.6 miles)"
"N12 West Finchley, London (6.6 miles)"
"E11 Leytonstone, London (6.6 miles)"
"SW18 Wimbledon Park, London (6.6 miles)"
"SW19 Wimbledon Park, London (6.6 miles)"
"SW17 Wimbledon Park, London (6.6 miles)"
"N13 Bowes, London (6.7 miles)"
"SE19 College, London (6.7 miles)"
"N11 Bowes, London (6.7 miles)"
"N22 Bowes, London (6.7 miles)"
"E17 Hoe Street, London (6.7 miles)"
"E10 Hoe Street, London (6.7 miles)"
"SE13 Greenwich West, London (6.7 miles)"
"SE13 Lee Green, London (6.7 miles)"
"SE13 Blackheath, London (6.7 miles)"
"E11 Grove Green, London (6.7 miles)"
"SE19 Gipsy Hill, London (6.7 miles)"
"E10 Grove Green, London (6.7 miles)"
"E17 William Morris, London (6.7 miles)"
"SE27 Gipsy Hill, London (6.7 miles)"
"SE21 Gipsy Hill, London (6.7 miles)"
"N18 Northumberland Park, London (6.7 miles)"
"N20 Woodhouse, London (6.7 miles)"
"N3 Woodhouse, London (6.7 miles)"
"N12 Woodhouse, London (6.7 miles)"
"N17 Northumberland Park, London (6.7 miles)"
"SW13 Mortlake and Barnes Common, London (6.7 miles)"
"N11 Brunswick Park, London (6.8 miles)"
"SE7 Peninsula, London (6.8 miles)"
"SE10 Peninsula, London (6.8 miles)"
"E17 Higham Hill, London (6.8 miles)"
"E17 Forest, London (6.8 miles)"
"EN1 Grange, Enfield (6.8 miles)"
"E7 Cann Hall, London (6.8 miles)"
"E15 Cann Hall, London (6.8 miles)"
"NW4 Mill Hill, London (6.8 miles)"
"NW4 West Hendon, London (6.8 miles)"
"SW16 Furzedown, London (6.8 miles)"
"NW2 Welsh Harp, London (6.9 miles)"
"SE6 Rushey Green, London (6.9 miles)"
"SE13 Rushey Green, London (6.9 miles)"
"SE3 Blackheath, London (6.9 miles)"
"W3 Turnham Green, London (6.9 miles)"
"SE6 Catford South, London (6.9 miles)"
"NW10 Welsh Harp, London (6.9 miles)"
"W4 Turnham Green, London (7 miles)"
"E18 Church End, London (7 miles)"
"N18 Palmers Green, London (7 miles)"
"N21 Palmers Green, London (7 miles)"
"NW4 Hendon, London (7 miles)"
"N13 Palmers Green, London (7 miles)"
"SW16 St Leonard's, London (7 miles)"
"SE13 Lewisham, London (7 miles)"
"E13 East Ham South, London (7 miles)"
"SE19 Crystal Palace, London (7 miles)"
"E6 Custom House, London (7 miles)"
"SE20 Crystal Palace, London (7 miles)"
"N17 Upper Edmonton, London (7 miles)"
"SE26 Crystal Palace, London (7 miles)"
"N13 Upper Edmonton, London (7 miles)"
"SW15 Roehampton, London (7 miles)"
"N13 Bush Hill Park, London (7 miles)"
"N3 West Finchley, London (7 miles)"
"SE19 Thornton Heath, London (7.1 miles)"
"E13 Plaistow North, London (7.1 miles)"
"E16 Plaistow South, London (7.1 miles)"
"E13 Plaistow South, London (7.1 miles)"
"E15 Plaistow North, London (7.1 miles)"
"SE26 Sydenham, London (7.1 miles)"
"N3 Finchley Church End, London (7.1 miles)"
"NW7 Finchley Church End, London (7.1 miles)"
"NW4 Finchley Church End, London (7.1 miles)"
"N12 Mill Hill, London (7.1 miles)"
"W3 Acton, London (7.1 miles)"
"W3 East Acton, London (7.1 miles)"
"W3 South Acton, London (7.1 miles)"
"W5 South Acton, London (7.1 miles)"
"E13 Boleyn, London (7.2 miles)"
"SW17 Furzedown, London (7.2 miles)"
"SE3 Blackheath Westcombe, London (7.2 miles)"
"SE10 Blackheath Westcombe, London (7.2 miles)"
"N18 Edmonton Green, London (7.2 miles)"
"E16 Custom House, London (7.2 miles)"
"SW16 Norbury, London (7.2 miles)"
"SE18 Woolwich Riverside, London (7.2 miles)"
"SE7 Woolwich Riverside, London (7.2 miles)"
"SE19 Norbury, London (7.2 miles)"
"N18 Upper Edmonton, London (7.2 miles)"
"E11 Cann Hall, London (7.3 miles)"
"SE19 Upper Norwood, London (7.3 miles)"
"SW16 Upper Norwood, London (7.3 miles)"
"SE25 Upper Norwood, London (7.3 miles)"
"NW10 Tokyngton, London (7.3 miles)"
"HA9 Tokyngton, Wembley (7.3 miles)"
"E15 Forest Gate South, London (7.3 miles)"
"E15 Forest Gate North, London (7.3 miles)"
"E7 Forest Gate North, London (7.3 miles)"
"E7 Forest Gate South, London (7.3 miles)"
"SW20 Lower Morden, London (7.3 miles)"
"E7 East Ham North, London (7.4 miles)"
"E17 Wood Street, London (7.4 miles)"
"E11 Wood Street, London (7.4 miles)"
"HA3 Barnhill, Harrow (7.4 miles)"
"NW9 Barnhill, London (7.4 miles)"
"HA9 Barnhill, Wembley (7.4 miles)"
"SW19 Colliers Wood, London (7.4 miles)"
"SW17 Colliers Wood, London (7.4 miles)"
"SW14 Mortlake and Barnes Common, London (7.4 miles)"
"SW19 Trinity, London (7.5 miles)"
"E17 Chapel End, London (7.5 miles)"
"N9 Bush Hill Park, London (7.5 miles)"
"E16 Canning Town North, London (7.5 miles)"
"E13 Canning Town South, London (7.5 miles)"
"E16 Canning Town South, London (7.5 miles)"
"E13 Canning Town North, London (7.5 miles)"
"E15 Canning Town North, London (7.5 miles)"
"NW9 Welsh Harp, London (7.5 miles)"
"E13 Green Street West, London (7.5 miles)"
"E7 Green Street West, London (7.5 miles)"
"E7 Green Street East, London (7.5 miles)"
"E6 Green Street East, London (7.5 miles)"
"E13 Green Street East, London (7.5 miles)"
"E11 Forest, London (7.5 miles)"
"SE3 Middle Park and Sutcliffe, London (7.5 miles)"
"SW14 East Sheen, London (7.5 miles)"
"N20 Brunswick Park, London (7.5 miles)"
"SW15 East Sheen, London (7.5 miles)"
"SW16 Longthornton, London (7.5 miles)"
"N9 Haselbury, London (7.6 miles)"
"N18 Haselbury, London (7.6 miles)"
"SE6 Lewisham, London (7.6 miles)"
"SE6 Downham, London (7.6 miles)"
"SE26 Penge and Cator, London (7.6 miles)"
"SE3 Eltham West, London (7.6 miles)"
"SW14 North Richmond, London (7.6 miles)"
"SW19 Abbey, London (7.6 miles)"
"N17 High Street, London (7.7 miles)"
"W3 Ealing Common, London (7.8 miles)"
"SE20 Penge and Cator, London (7.8 miles)"
"E6 Boleyn, London (7.8 miles)"
"N20 Oakleigh, London (7.8 miles)"
"CR7 Thornton Heath, Thornton Heath (7.8 miles)"
"W3 Hanger Hill, London (7.8 miles)"
"SE7 Charlton, London (7.9 miles)"
"SE3 Charlton, London (7.9 miles)"
"SW19 Lavender Fields, London (7.9 miles)"
"CR4 Mitcham, Mitcham (7.9 miles)"
"N11 Southgate Green, London (7.9 miles)"
"N14 Southgate Green, London (7.9 miles)"
"N21 Southgate, London (7.9 miles)"
"N13 Southgate Green, London (7.9 miles)"
"N14 Southgate, London (7.9 miles)"
"E4 Chapel End, London (7.9 miles)"
"N9 Edmonton Green, London (7.9 miles)"
"NW10 Hanger Hill, London (7.9 miles)"
"W5 Hanger Hill, London (7.9 miles)"
"NW9 Burnt Oak, London (8 miles)"
"E18 Snaresbrook, London (8 miles)"
"SW19 Village, London (8.1 miles)"
"E11 Snaresbrook, London (8.1 miles)"
"SE26 Copers Cope, London (8.1 miles)"
"TW9 Kew, Richmond (8.1 miles)"
"SW20 Dundonald, London (8.1 miles)"
"SW19 Dundonald, London (8.1 miles)"
"W5 Ealing Common, London (8.1 miles)"
"SE7 Kidbrooke with Hornfair, London (8.1 miles)"
"SW19 Hillside, London (8.1 miles)"
"SW20 Hillside, London (8.1 miles)"
"SE6 Bellingham, London (8.1 miles)"
"E7 Wanstead, London (8.1 miles)"
"E12 Wanstead, London (8.1 miles)"
"E11 Wanstead, London (8.2 miles)"
"SE23 Bellingham, London (8.2 miles)"
"SE26 Bellingham, London (8.2 miles)"
"E4 Valley, London (8.2 miles)"
"N13 Winchmore Hill, London (8.2 miles)"
"SE12 Whitefoot, London (8.2 miles)"
"SE6 Whitefoot, London (8.2 miles)"
"N21 Winchmore Hill, London (8.2 miles)"
"SW19 Cricket Green, London (8.3 miles)"
"SE3 Kidbrooke with Hornfair, London (8.3 miles)"
"SW19 Merton Park, London (8.3 miles)"
"NW9 Fryent, London (8.3 miles)"
"SW20 Merton Park, London (8.3 miles)"
"N21 Bush Hill Park, London (8.3 miles)"
"NW7 Colindale, London (8.3 miles)"
"NW9 Colindale, London (8.3 miles)"
"N14 Brunswick Park, London (8.4 miles)"
"N14 East Barnet, London (8.4 miles)"
"SE12 Middle Park and Sutcliffe, London (8.4 miles)"
"N9 Jubilee, London (8.4 miles)"
"SE25 Thornton Heath, London (8.4 miles)"
"SE12 Blackheath, London (8.4 miles)"
"SE25 South Norwood, London (8.4 miles)"
"SE19 South Norwood, London (8.4 miles)"
"SE20 Clock House, London (8.4 miles)"
"SW16 Bensham Manor, London (8.4 miles)"
"HA0 Alperton, Wembley (8.5 miles)"
"N21 Grange, London (8.5 miles)"
"SE18 Kidbrooke with Hornfair, London (8.5 miles)"
"E4 Larkswood, London (8.5 miles)"
"E12 East Ham North, London (8.5 miles)"
"NW7 Totteridge, London (8.5 miles)"
"N12 Totteridge, London (8.5 miles)"
"N3 Totteridge, London (8.5 miles)"
"E4 Hale End and Highams Park, London (8.5 miles)"
"E17 Hale End and Highams Park, London (8.5 miles)"
"N9 Lower Edmonton, London (8.6 miles)"
"SE12 Lee Green, London (8.6 miles)"
"N20 Totteridge, London (8.6 miles)"
"E6 East Ham South, London (8.6 miles)"
"E6 East Ham North, London (8.6 miles)"
"NW10 Wembley, London (8.6 miles)"
"E6 Beckton, London (8.6 miles)"
"E16 Beckton, London (8.6 miles)"
"HA0 Sudbury, Wembley (8.6 miles)"
"SE18 Woolwich Common, London (8.7 miles)"
"E7 Manor Park, London (8.7 miles)"
"E12 Manor Park, London (8.7 miles)"
"EN1 Jubilee, Enfield (8.7 miles)"
"E12 Little Ilford, London (8.7 miles)"
"TW9 Richmond, Richmond (8.7 miles)"
"SE12 Downham, London (8.7 miles)"
"SE12 Lewisham, London (8.8 miles)"
"E6 Wall End, London (8.8 miles)"
"NW7 Edgware, London (8.8 miles)"
"NW7 Underhill, London (8.8 miles)"
"NW7 Burnt Oak, London (8.8 miles)"
"N21 Highlands, London (8.8 miles)"
"W5 Walpole, London (8.8 miles)"
"EN1 Bush Hill Park, Enfield (8.8 miles)"
"HA3 Preston, Harrow (8.8 miles)"
"HA9 Preston, Wembley (8.8 miles)"
"SW20 Village, London (8.8 miles)"
"HA9 Wembley, Wembley (8.9 miles)"
"SM4 Morden, Morden (8.9 miles)"
"NW7 Mill Hill, London (8.9 miles)"
"SE25 Selhurst, London (8.9 miles)"
"SE9 Kidbrooke with Hornfair, London (8.9 miles)"
"SE9 Middle Park and Sutcliffe, London (8.9 miles)"
"HA0 North Greenford, Wembley (8.9 miles)"
"E6 East Ham, London (9 miles)"
"W7 Walpole, London (9 miles)"
"W13 Walpole, London (9 miles)"
"EN2 Grange, Enfield (9 miles)"
"HA0 Wembley, Wembley (9 miles)"
"EN4 East Barnet, Barnet (9 miles)"
"W5 Brentford, London (9 miles)"
"W4 Brentford, London (9 miles)"
"W3 Brentford, London (9 miles)"
"SE12 Grove Park, London (9 miles)"
"SW20 West Barnes, London (9 miles)"
"SE9 Grove Park, London (9 miles)"
"EN2 Highlands, Enfield (9.1 miles)"
"SM4 Wandle Valley, Morden (9.1 miles)"
"SW20 Raynes Park, London (9.1 miles)"
"SW19 Raynes Park, London (9.1 miles)"
"SW20 Cannon Hill, London (9.1 miles)"
"SE18 Shooters Hill, London (9.1 miles)"
"TW8 Brentford, Brentford (9.1 miles)"
"SW20 Coombe Hill, London (9.1 miles)"
"EN4 New Barnet, Barnet (9.2 miles)"
"E4 Hatch Lane, London (9.2 miles)"
"E16 Royal Docks, London (9.2 miles)"
"TW8 Northfield, Brentford (9.2 miles)"
"W13 Northfield, London (9.2 miles)"
"W5 Northfield, London (9.2 miles)"
"CR4 Mitcham Junction, Mitcham (9.2 miles)"
"EN4 Cockfosters, Barnet (9.2 miles)"
"BR3 Beckenham, Beckenham (9.2 miles)"
"SE25 Ashburton, London (9.3 miles)"
"HA8 Queensbury, Edgware (9.3 miles)"
"E4 Endlebury, London (9.3 miles)"
"HA3 Queensbury, Harrow (9.3 miles)"
"HA7 Queensbury, Stanmore (9.3 miles)"
"NW9 Queensbury, London (9.3 miles)"
"CR44 Beddington North, Croydon (9.3 miles)"
"W13 Cleveland, London (9.3 miles)"
"W5 Cleveland, London (9.3 miles)"
"SW15 Coombe Hill, London (9.4 miles)"
"SE25 Woodside, London (9.4 miles)"
"SM4 St Helier, Morden (9.4 miles)"
"IG11 Abbey, Barking (9.4 miles)"
"N9 Ponders End, London (9.4 miles)"
"N14 Ponders End, London (9.4 miles)"
"EN3 Ponders End, Enfield (9.4 miles)"
"HA8 Burnt Oak, Edgware (9.4 miles)"
"EN4 Barnet, Barnet (9.4 miles)"
"NW7 Hale, London (9.4 miles)"
"HA8 Hale, Edgware (9.4 miles)"
"SM5 Wandle Valley, Carshalton (9.5 miles)"
"IG4 Ilford, Ilford (9.5 miles)"
"CR4 Wandle Valley, Mitcham (9.5 miles)"
"W13 Ealing Broadway, London (9.5 miles)"
"W5 Ealing Broadway, London (9.5 miles)"
"EN2 Cockfosters, Enfield (9.5 miles)"
"N14 Cockfosters, London (9.5 miles)"
"W7 Elthorne, London (9.6 miles)"
"W13 Elthorne, London (9.6 miles)"
"EN1 Southbury, Enfield (9.6 miles)"
"EN3 Southbury, Enfield (9.6 miles)"
"SM6 Wandle Valley, Wallington (9.6 miles)"
"IG11 Gascoigne, Barking (9.6 miles)"
"TW8 Osterley and Spring Grove, Brentford (9.6 miles)"
"EN5 New Barnet, Barnet (9.7 miles)"
"EN2 Town, Enfield (9.7 miles)"
"W7 Northfield, London (9.7 miles)"
"HA0 Perivale, Wembley (9.7 miles)"
"HA8 Edgware, Edgware (9.7 miles)"
"SE9 Eltham West, London (9.7 miles)"
"SE9 Eltham North, London (9.7 miles)"
"SE9 Eltham South, London (9.7 miles)"
"SM6 Hackbridge, Wallington (9.7 miles)"
"E4 Chingford Green, London (9.7 miles)"
"E4 Higham Hill, London (9.7 miles)"
"EN1 Town, Enfield (9.8 miles)"
"HA9 Sudbury, Wembley (9.8 miles)"
"SE18 Glyndon, London (9.8 miles)"
"SE9 Mottingham and Chislehurst North, London (9.8 miles)"
"W7 Cleveland, London (9.8 miles)"
"IG1 Ilford, Ilford (9.9 miles)"
"HA8 Canons, Edgware (9.9 miles)"
"CR0 Beddington, Croydon (9.9 miles)"
"CR9 Beddington South, Croydon (9.9 miles)"
"CR0 Beddington North, Croydon (9.9 miles)"
"SM6 Beddington South, Wallington (9.9 miles)"
"CR0 Beddington South, Croydon (9.9 miles)"
"CR9 Beddington North, Croydon (9.9 miles)"
"SM6 Beddington North, Wallington (9.9 miles)"
"HA3 Northwick Park, Harrow (9.9 miles)"
"HA1 Northwick Park, Harrow (9.9 miles)"
"HA9 Northwick Park, Wembley (9.9 miles)"
"HA0 Northwick Park, Wembley (9.9 miles)"
"IG8 Woodford Green, Woodford Green (9.9 miles)"
"NW9 Kenton, London (9.9 miles)"
"NW9 Kenton East, London (9.9 miles)"
"HA7 Kenton East, Stanmore (9.9 miles)"
"HA3 Kenton West, Harrow (9.9 miles)"
"HA3 Kenton East, Harrow (9.9 miles)"
"TW8 Syon, Brentford (10 miles)"
"TW7 Syon, Isleworth (10 miles)"
"EN1 Chase, Enfield (10 miles)"
"IG2 Ilford, Ilford (10.1 miles)"
"HA3 Kenton, Harrow (10.1 miles)"
"SM5 Carshalton, Carshalton (10.1 miles)"
"SE28 Plumstead, London (10.1 miles)"
"SE2 Plumstead, London (10.1 miles)"
"SE18 Plumstead, London (10.1 miles)"
"SE2 Thamesmead East, London (10.2 miles)"
"SE28 Thamesmead East, London (10.2 miles)"
"IG5 Ilford, Ilford (10.2 miles)"
"SM1 Stonecot, Sutton (10.2 miles)"
"SM3 Stonecot, Sutton (10.2 miles)"
"KT3 New Malden, New Malden (10.2 miles)"
"UB6 North Greenford, Greenford (10.2 miles)"
"EN5 High Barnet, Barnet (10.2 miles)"
"TW10 Richmond, Richmond (10.2 miles)"
"EN5 Arkley, Barnet (10.3 miles)"
"RM9 River, Dagenham (10.3 miles)"
"RM10 River, Dagenham (10.3 miles)"
"UB6 Greenford Green, Greenford (10.4 miles)"
"EN2 Chase, Enfield (10.4 miles)"
"CR8 Beddington South, Kenley / Purley (10.4 miles)"
"SE9 Falconwood and Welling, London (10.4 miles)"
"SM5 The Wrythe, Carshalton (10.4 miles)"
"EN3 Brimsdown, Enfield (10.4 miles)"
"KT2 Kingston Upon Thames, Kingston Upon Thames (10.5 miles)"
"TW10 Ham, Richmond (10.5 miles)"
"TW7 Hounslow, Isleworth (10.5 miles)"
"TW7 Hounslow South, Isleworth (10.5 miles)"
"CR90 Croydon, Croydon (10.5 miles)"
"TW1 Twickenham Riverside, Twickenham (10.5 miles)"
"KT2 Ham. Petersham and Richmond Riverside, Kingston Upon Thames (10.5 miles)"
"TW11 Ham. Petersham and Richmond Riverside, Teddington (10.5 miles)"
"W7 Hobbayne, London (10.5 miles)"
"EN2 The Ridgeway, Enfield (10.5 miles)"
"RM9 Eastbury, Dagenham (10.5 miles)"
"IG11 Eastbury, Barking (10.5 miles)"
"EN3 Enfield Highway, Enfield (10.5 miles)"
"TW1 South Twickenham, Twickenham (10.5 miles)"
"TW1 Isleworth, Twickenham (10.5 miles)"
"TW7 Osterley and Spring Grove, Isleworth (10.5 miles)"
"IG11 Barking, Barking (10.5 miles)"
"SE28 Thamesmead Moorings, London (10.6 miles)"
"HA5 Cavendish, Pinner (10.6 miles)"
"SM1 The Wrythe, Sutton (10.6 miles)"
"SM1 St Helier, Sutton (10.6 miles)"
"UB6 Perivale, Greenford (10.6 miles)"
"SM1 Sutton North, Sutton (10.6 miles)"
"SM1 Sutton West, Sutton (10.6 miles)"
"SM1 Carshalton, Sutton (10.7 miles)"
"SE9 Coldharbour and New Eltham, London (10.7 miles)"
"SM1 Sutton, Sutton (10.7 miles)"
"KT1 Kingston Upon Thames, Kingston Upon Thames (10.7 miles)"
"IG11 Longbridge, Barking (10.7 miles)"
"TW7 Isleworth, Isleworth (10.7 miles)"
"BR4 West Wickham, West Wickham (10.8 miles)"
"IG6 Barkingside, Ilford (10.8 miles)"
"SE28 Glyndon, London (10.8 miles)"
"IG11 Thames, Barking (10.8 miles)"
"HA1 Harrow on the Hill, Harrow (10.8 miles)"
"HA2 Harrow on the Hill, Harrow (10.8 miles)"
"HA3 Belmont, Harrow (10.8 miles)"
"HA7 Belmont, Stanmore (10.8 miles)"
"EN2 Enfield, Enfield (10.8 miles)"
"UB5 Greenford Broadway, Northolt (10.9 miles)"
"UB2 Southall Broadway, Southall (10.9 miles)"
"UB6 Greenford Broadway, Greenford (10.9 miles)"
"SM5 Wallington North, Carshalton (10.9 miles)"
"SM5 Wallington South, Carshalton (10.9 miles)"
"SM5 St Helier, Carshalton (10.9 miles)"
"IG3 Ilford, Ilford (10.9 miles)"
"IG9 Buckhurst Hill, Buckhurst Hill (10.9 miles)"
"UB6 Harrow on the Hill, Greenford (10.9 miles)"
"KT4 Worcester Park, Worcester Park (10.9 miles)"
"UB5 North Greenford, Northolt (10.9 miles)"
"BR1 Bromley, Bromley (11 miles)"
"SM3 Worcester Park, Sutton (11 miles)"
"SM6 Wallington North, Wallington (11 miles)"
"SM6 Wallington South, Wallington (11 miles)"
"SE9 Blackfen and Lamorbey, London (11 miles)"
"SE2 Abbey Wood, London (11 miles)"
"TW3 Heathfield, Hounslow (11 miles)"
"TW2 Heathfield, Twickenham (11 miles)"
"TW4 Heathfield, Hounslow (11 miles)"
"TW2 Whitton, Twickenham (11.1 miles)"
"HA2 Roxeth, Harrow (11.1 miles)"
"UB5 Roxeth, Northolt (11.1 miles)"
"RM9 Mayesbrook, Dagenham (11.1 miles)"
"DA15 Sidcup, Sidcup (11.1 miles)"
"TW7 St Margarets and North Twickenham, Isleworth (11.1 miles)"
"TW2 St Margarets and North Twickenham, Twickenham (11.1 miles)"
"TW1 St Margarets and North Twickenham, Twickenham (11.1 miles)"
"HA7 Stanmore Park, Stanmore (11.1 miles)"
"HA7 Canons, Stanmore (11.1 miles)"
"BR2 Shortlands, Bromley / Keston (11.2 miles)"
"SW15 Fairfield, London (11.2 miles)"
"HA1 Greenhill, Harrow (11.2 miles)"
"HA3 Greenhill, Harrow (11.2 miles)"
"HA3 Wealdstone, Harrow (11.2 miles)"
"EN1 Turkey Street, Enfield (11.2 miles)"
"EN8 Turkey Street, Waltham Cross (11.2 miles)"
"EN3 Turkey Street, Enfield (11.2 miles)"
"DA16 Welling, Welling (11.2 miles)"
"KT1 Hampton Wick, Kingston Upon Thames (11.3 miles)"
"TW11 Hampton Wick, Teddington (11.3 miles)"
"EN3 Enfield Lock, Enfield (11.4 miles)"
"UB6 Dormers Wells, Greenford (11.4 miles)"
"UB1 Dormers Wells, Southall (11.4 miles)"
"TW5 Osterley and Spring Grove, Hounslow (11.4 miles)"
"HA1 West Harrow, Harrow (11.4 miles)"
"IG6 Ilford, Ilford (11.4 miles)"
"HA4 Roxeth, Ruislip (11.4 miles)"
"RM8 Mayesbrook, Dagenham (11.4 miles)"
"SM2 Belmont, Sutton (11.4 miles)"
"HA7 Stanmore, Stanmore (11.4 miles)"
"E18 Roding, London (11.4 miles)"
"BR7 Chislehurst, Chislehurst (11.4 miles)"
"EN9 Enfield Lock, Waltham Abbey (11.4 miles)"
"EN8 Enfield Lock, Waltham Cross (11.5 miles)"
"KT1 Hampton, Kingston Upon Thames (11.5 miles)"
"KT5 Surbiton, Surbiton (11.5 miles)"
"TW3 Hounslow Heath, Hounslow (11.5 miles)"
"SE9 Longlands, London (11.5 miles)"
"HA1 Marlborough, Harrow (11.5 miles)"
"HA3 Marlborough, Harrow (11.5 miles)"
"BR2 Hayes, Bromley / Keston (11.5 miles)"
"SM2 Sutton, Sutton (11.6 miles)"
"SM5 Carshalton South and Clockhouse, Carshalton (11.6 miles)"
"CR2 South Croydon, South Croydon (11.7 miles)"
"TW11 Teddington, Teddington (11.7 miles)"
"UB5 Northolt Mandeville, Northolt (11.7 miles)"
"HA2 Northolt Mandeville, Harrow (11.7 miles)"
"UB6 Northolt Mandeville, Greenford (11.7 miles)"
"EN5 Barnet, Barnet (11.7 miles)"
"SM3 Sutton, Sutton (11.7 miles)"
"TW1 Teddington, Twickenham (11.7 miles)"
"HA7 Harrow Weald, Stanmore (11.7 miles)"
"HA2 West Harrow, Harrow (11.8 miles)"
"KT6 Long Ditton, Surbiton (11.8 miles)"
"KT17 Cheam, Epsom (11.8 miles)"
"SM7 Cheam, Banstead (11.8 miles)"
"SM2 Cheam, Sutton (11.8 miles)"
"SM1 Cheam, Sutton (11.8 miles)"
"HA2 North Harrow, Harrow (11.8 miles)"
"SM3 Cheam, Sutton (11.8 miles)"
"UB1 Norwood Green, Southall (11.8 miles)"
"UB2 Norwood Green, Southall (11.8 miles)"
"W7 Norwood Green, London (11.8 miles)"
"UB6 Lady Margaret, Greenford (11.8 miles)"
"UB1 Lady Margaret, Southall (11.8 miles)"
"HA2 South Harrow, Harrow (11.9 miles)"
"TW3 Whitton, Hounslow (11.9 miles)"
"TW7 Whitton, Isleworth (11.9 miles)"
"HA3 Harrow Weald, Harrow (11.9 miles)"
"KT6 Surbiton, Surbiton (11.9 miles)"
"TW5 Heston, Hounslow (11.9 miles)"
"TW3 Heston, Hounslow (12 miles)"
"TW5 Heston West, Hounslow (12 miles)"
"UB2 Heston East, Southall (12 miles)"
"TW4 Heston, Hounslow (12 miles)"
"TW3 Heston East, Hounslow (12 miles)"
"TW5 Heston East, Hounslow (12 miles)"
"UB2 Heston West, Southall (12 miles)"
"RM9 Goresbrook, Dagenham (12 miles)"
"TW3 Hounslow West, Hounslow (12 miles)"
"TW3 Hounslow South, Hounslow (12 miles)"
"RM8 Dagenham, Dagenham (12 miles)"
"WD6 Elstree, Borehamwood (12 miles)"
"HA2 Rayners Lane, Harrow (12 miles)"
"TW2 South Twickenham, Twickenham (12.1 miles)"
"TW2 West Twickenham, Twickenham (12.1 miles)"
"TW3 Hounslow, Hounslow (12.1 miles)"
"TW12 Fulwell and Hampton Hill, Hampton (12.1 miles)"
"TW11 Fulwell and Hampton Hill, Teddington (12.1 miles)"
"TW2 Fulwell and Hampton Hill, Twickenham (12.1 miles)"
"EN6 Potters Bar, Potters Bar (12.1 miles)"
"SM3 Nonsuch, Sutton (12.1 miles)"
"KT19 Stoneleigh, Epsom (12.1 miles)"
"IG11 Becontree, Barking (12.1 miles)"
"RM8 Becontree, Dagenham (12.1 miles)"
"UB1 Southall Broadway, Southall (12.1 miles)"
"UB1 Greenford Broadway, Southall (12.1 miles)"
"UB5 Northolt West End, Northolt (12.1 miles)"
"UB5 Greenford Green, Northolt (12.1 miles)"
"HA2 Headstone North, Harrow (12.2 miles)"
"HA5 Headstone North, Pinner (12.2 miles)"
"HA2 Headstone South, Harrow (12.2 miles)"
"HA1 Headstone South, Harrow (12.2 miles)"
"RM9 Heath, Dagenham (12.2 miles)"
"SE2 Lesnes Abbey, London (12.2 miles)"
"SM6 Carshalton South and Clockhouse, Wallington (12.2 miles)"
"WD6 Well End, Borehamwood (12.3 miles)"
"CR8 Carshalton South and Clockhouse, Kenley / Purley (12.3 miles)"
"SM2 Sutton West, Sutton (12.3 miles)"
"SM2 Sutton South, Sutton (12.3 miles)"
"HA5 Rayners Lane, Pinner (12.4 miles)"
"IG10 High Beech, Loughton (12.4 miles)"
"E4 Waltham Abbey High Beach, London (12.4 miles)"
"BR2 Bromley, Bromley / Keston (12.4 miles)"
"RM8 Valence, Dagenham (12.4 miles)"
"RM9 Parsloes, Dagenham (12.5 miles)"
"RM8 Parsloes, Dagenham (12.5 miles)"
"SM5 Belmont, Carshalton (12.5 miles)"
"EN6 Chase, Potters Bar (12.5 miles)"
"HA2 Roxbourne, Harrow (12.5 miles)"
"HA4 Roxbourne, Ruislip (12.5 miles)"
"KT4 Nonsuch, Worcester Park (12.6 miles)"
"KT17 Nonsuch, Epsom (12.6 miles)"
"RM8 Heath, Dagenham (12.6 miles)"
"DA18 Erith, Erith (12.6 miles)"
"TW12 Hampton Hill, Hampton (12.6 miles)"
"UB2 Southall Green, Southall (12.6 miles)"
"HA5 Harrow Weald, Pinner (12.6 miles)"
"WD6 Borehamwood, Borehamwood (12.7 miles)"
"DA7 Bexleyheath, Bexleyheath (12.7 miles)"
"IG10 Loughton, Loughton (12.7 miles)"
"TW4 Hounslow West, Hounslow (12.7 miles)"
"IG7 Chigwell, Chigwell (12.7 miles)"
"RM5 Chadwell Heath, Romford (12.7 miles)"
"RM6 Chadwell Heath, Romford (12.7 miles)"
"BR2 Keston, Bromley / Keston (12.8 miles)"
"HA3 Hatch End, Harrow (12.9 miles)"
"BR6 Petts Wood, Orpington (12.9 miles)"
"SM7 Carshalton South and Clockhouse, Banstead (12.9 miles)"
"EN6 Northaw, Potters Bar (12.9 miles)"
"DA6 Bexleyheath, Bexleyheath (12.9 miles)"
"TW14 Hounslow Heath, Feltham (12.9 miles)"
"TW4 Hounslow Heath, Hounslow (12.9 miles)"
"DA17 Belvedere, Belvedere (12.9 miles)"
"KT17 Ewell, Epsom (12.9 miles)"
"KT19 West Ewell, Epsom (12.9 miles)"
"KT19 Ewell, Epsom (13 miles)"
"RM10 Heath, Dagenham (13 miles)"
"UB5 Yeading, Northolt (13 miles)"
"RM6 Little Heath, Romford (13 miles)"
"DA14 Sidcup, Sidcup (13 miles)"
"BR5 Petts Wood, Orpington (13 miles)"
"SE2 Belvedere, London (13 miles)"
"KT6 Ditton Hill, Surbiton (13.1 miles)"
"SM7 Banstead, Banstead (13.1 miles)"
"RM9 Alibon, Dagenham (13.1 miles)"
"RM10 Alibon, Dagenham (13.1 miles)"
"UB4 Barnhill, Hayes (13.1 miles)"
"KT19 Epsom, Epsom (13.1 miles)"
"WD23 Bushey Heath, Bushey (13.1 miles)"
"EN7 Cheshunt, Waltham Cross (13.2 miles)"
"UB18 Southall Green, Greenford (13.2 miles)"
"KT7 Thames Ditton, Thames Ditton (13.2 miles)"
"EN7 Chase, Waltham Cross (13.2 miles)"
"TW12 Hampton North, Hampton (13.2 miles)"
"EN8 Chase, Waltham Cross (13.2 miles)"
"BR5 St Pauls Cray, Orpington (13.2 miles)"
"EN6 Cuffley, Potters Bar (13.3 miles)"
"RM6 Whalebone, Romford (13.3 miles)"
"RM8 Whalebone, Dagenham (13.3 miles)"
"CR8 Kenley, Kenley / Purley (13.3 miles)"
"CR5 Carshalton South and Clockhouse, Coulsdon (13.3 miles)"
"UB5 South Ruislip, Northolt (13.3 miles)"
"HA4 South Ruislip, Ruislip (13.3 miles)"
"UB4 South Ruislip, Hayes (13.3 miles)"
"RM9 Thames, Dagenham (13.4 miles)"
"EN8 Cheshunt, Waltham Cross (13.4 miles)"
"WD23 Bushey, Bushey (13.4 miles)"
"RM10 Village, Dagenham (13.4 miles)"
"EN6 South Mimms, Potters Bar (13.4 miles)"
"TW12 Hampton, Hampton (13.4 miles)"
"HA5 Pinner, Pinner (13.4 miles)"
"EN7 Goffs Oak, Waltham Cross (13.4 miles)"
"CR5 Coulsdon, Coulsdon (13.5 miles)"
"HA4 Cavendish, Ruislip (13.5 miles)"
"EN6 Ridge, Potters Bar (13.5 miles)"
"KT8 East Molesey, East Molesey / West Molesey (13.5 miles)"
"KT8 West Molesey, East Molesey / West Molesey (13.5 miles)"
"KT8 Hampton, East Molesey / West Molesey (13.5 miles)"
"RM6 Romford, Romford (13.5 miles)"
"HA5 Eastcote, Pinner (13.6 miles)"
"HA5 Hatch End, Pinner (13.6 miles)"
"BR5 Orpington, Orpington (13.6 miles)"
"RM9 South Hornchurch, Dagenham (13.7 miles)"
"TW13 Hanworth Park, Feltham (13.7 miles)"
"HA5 Pinner South, Pinner (13.7 miles)"
"TW5 Cranford, Hounslow (13.7 miles)"
"TW14 Cranford, Feltham (13.7 miles)"
"TW4 Cranford, Hounslow (13.7 miles)"
"UB4 Yeading, Hayes (13.8 miles)"
"RM10 Eastbrook, Dagenham (13.8 miles)"
"DA7 Barnehurst, Bexleyheath (13.8 miles)"
"UB4 Townfield, Hayes (13.8 miles)"
"UB2 Townfield, Southall (13.8 miles)"
"UB3 Townfield, Hayes (13.8 miles)"
"DA8 Northumberland Heath, Erith (13.9 miles)"
"TW6 Heathrow, Hounslow (13.9 miles)"
"KT9 Chessington, Chessington (13.9 miles)"
"UB3 Harlington, Hayes (14 miles)"
"TW13 Hanworth, Feltham (14.1 miles)"
"KT10 Hinchley Wood, Esher (14.1 miles)"
"RM1 Mawneys, Romford (14.2 miles)"
"RM5 Mawneys, Romford (14.2 miles)"
"RM7 Mawneys, Romford (14.2 miles)"
"UB4 Botwell, Hayes (14.2 miles)"
"UB3 Botwell, Hayes (14.2 miles)"
"UB11 Botwell, Uxbridge (14.2 miles)"
"EN7 Waltham Cross, Waltham Cross (14.2 miles)"
"RM7 Romford Town, Romford (14.2 miles)"
"UB7 Botwell, West Drayton (14.2 miles)"
"TW13 Feltham West, Feltham (14.2 miles)"
"TW13 West Twickenham, Feltham (14.2 miles)"
"UB3 Heathrow Villages, Hayes (14.2 miles)"
"BR5 St Mary Cray, Orpington (14.3 miles)"
"BR6 Downe, Orpington (14.3 miles)"
"WD25 Letchmore Heath, Watford (14.3 miles)"
"EN8 Waltham Cross, Waltham Cross (14.3 miles)"
"KT17 Epsom, Epsom (14.3 miles)"
"WD19 Watford, Watford (14.4 miles)"
"HA4 Manor, Ruislip (14.4 miles)"
"RM4 Lambourne End, Romford (14.4 miles)"
"BR6 Farnborough, Orpington (14.4 miles)"
"UB8 Botwell, Uxbridge (14.4 miles)"
"RM7 Rush Green, Romford (14.4 miles)"
"UB4 Charville, Hayes (14.5 miles)"
"UB10 Charville, Uxbridge (14.5 miles)"
"CR5 Chipstead, Coulsdon (14.5 miles)"
"DA5 Bexley, Bexley (14.5 miles)"
"RM7 Eastbrook, Romford (14.5 miles)"
"SG13 Newgate Street, Hertford (14.6 miles)"
"WD7 Shenley, Radlett (14.6 miles)"
"WD7 Radlett, Radlett (14.6 miles)"
"RM7 Brooklands, Romford (14.6 miles)"
"RM5 Brooklands, Romford (14.6 miles)"
"HA5 Northwood Hills, Pinner (14.6 miles)"
"HA6 Northwood Hills, Northwood (14.6 miles)"
"RM50 Romford, Romford (14.6 miles)"
"RM5 Collier Row, Romford (14.6 miles)"
"RM5 Romford, Romford (14.6 miles)"
"TN16 Biggin Hill Airport, Westerham (14.6 miles)"
"AL9 Hatfield, Hatfield (14.7 miles)"
"AL9 North Mymms, Hatfield (14.7 miles)"
"AL9 Brookmans Park, Hatfield (14.7 miles)"
"CR6 Warlingham, Warlingham (14.7 miles)"
"DA8 Erith, Erith (14.7 miles)"
"BR6 Orpington, Orpington (14.7 miles)"
"RM1 Brooklands, Romford (14.7 miles)"
"RM13 Wennington, Rainham (14.7 miles)"
"HA4 Eastcote and East Ruislip, Ruislip (14.8 miles)"
"HA5 Eastcote and East Ruislip, Pinner (14.8 miles)"
"UB7 Pinkwell, West Drayton (14.8 miles)"
"UB3 Pinkwell, Hayes (14.8 miles)"
"KT10 Claygate, Esher (14.8 miles)"
"CR6 Chelsham, Warlingham (14.9 miles)"
"TW14 Feltham North, Feltham (14.9 miles)"
"TW14 Feltham West, Feltham (14.9 miles)"
"WD25 Round Bush, Watford (14.9 miles)"
"BR6 Chelsfield, Orpington (14.9 miles)"
"RM4 Stapleford Aerodrome, Romford (14.9 miles)"
"RM50 Britannia Music, Romford (14.9 miles)"
"HA4 West Ruislip, Ruislip (15 miles)"
"UB10 West Ruislip, Uxbridge (15 miles)"
"TW14 Feltham, Feltham (15 miles)"
"BR6 Green Street Green, Orpington (15.1 miles)"
"RM5 Pettits, Romford (15.2 miles)"
"RM13 Rainham and Wennington, Rainham (15.2 miles)"
"EN10 Turnford, Broxbourne (15.2 miles)"
"RM1 Havering Park, Romford (15.2 miles)"
"RM1 Romford Town, Romford (15.2 miles)"
"KT20 Burgh Heath, Tadworth (15.3 miles)"
"RM1 Pettits, Romford (15.3 miles)"
"RM2 Pettits, Romford (15.3 miles)"
"DA1 Crayford, Dartford (15.3 miles)"
"WD25 Aldenham, Watford (15.3 miles)"
"RM13 Elm Park, Rainham (15.4 miles)"
"CR5 Hooley, Coulsdon (15.4 miles)"
"EN10 Wormley, Broxbourne (15.4 miles)"
"RM1 Hylands, Romford (15.5 miles)"
"RM11 Hylands, Hornchurch (15.5 miles)"
"RM12 Hylands, Hornchurch (15.5 miles)"
"TW16 Sunbury-on-Thames, Sunbury-On-Thames (15.5 miles)"
"EN10 Broxbourne, Broxbourne (15.5 miles)"
"EN9 Nazeing, Waltham Abbey (15.5 miles)"
"EN9 Waltham Abbey, Waltham Abbey (15.5 miles)"
"UB10 Hillingdon East, Uxbridge (15.5 miles)"
"AL9 Welham Green, Hatfield (15.6 miles)"
"TW14 Bedfont, Feltham (15.6 miles)"
"RM2 Romford Town, Romford (15.6 miles)"
"CM16 Epping, Epping (15.6 miles)"
"SG13 Epping Green, Hertford (15.7 miles)"
"UB10 Uxbridge North, Uxbridge (15.7 miles)"
"RM5 Havering Park, Romford (15.7 miles)"
"CM16 Theydon Bois, Epping (15.7 miles)"
"KT10 Esher, Esher (15.7 miles)"
"TW14 Heathrow Villages, Feltham (15.7 miles)"
"TW6 London Heathrow Airport, Hounslow (15.8 miles)"
"WD17 Watford, Watford (15.8 miles)"
"KT10 Claremont Park, Esher (15.8 miles)"
"UB7 Sipson, West Drayton (15.8 miles)"
"DA2 Wilmington, Dartford (15.8 miles)"
"UB10 Ickenham, Uxbridge (15.9 miles)"
"CR3 Caterham, Caterham / Whyteleafe (15.9 miles)"
"CR3 Whyteleafe, Caterham / Whyteleafe (15.9 miles)"
"RM4 Havering-Atte-Bower, Romford (15.9 miles)"
"UB11 Yiewsley, Uxbridge (15.9 miles)"
"WD18 Watford, Watford (15.9 miles)"
"KT20 Kingswood, Tadworth (16 miles)"
"HA6 Northwood, Northwood (16 miles)"
"RM2 Heath Park, Romford (16 miles)"
"RM2 Gidea Park, Romford (16 miles)"
"KT20 Tadworth, Tadworth (16 miles)"
"BR8 Hextable, Swanley (16.1 miles)"
"DA2 Dartford, Dartford (16.1 miles)"
"BR8 Crockenhill, Swanley (16.2 miles)"
"RM12 Elm Park, Hornchurch (16.3 miles)"
"RM13 South Hornchurch, Rainham (16.3 miles)"
"AL2 Colney Street, St. Albans (16.3 miles)"
"TN14 Cudham, Sevenoaks (16.3 miles)"
"CR3 Woldingham, Caterham / Whyteleafe (16.3 miles)"
"CR3 Chaldon, Caterham / Whyteleafe (16.3 miles)"
"RM11 Romford Town, Hornchurch (16.3 miles)"
"SG13 Little Berkhamsted, Hertford (16.3 miles)"
"AL4 Colney Heath, St. Albans (16.4 miles)"
"TN16 Berrys Green, Westerham (16.4 miles)"
"UB7 Harmondsworth, West Drayton (16.4 miles)"
"UB7 Yiewsley, West Drayton (16.4 miles)"
"UB7 West Drayton, West Drayton (16.4 miles)"
"UB8 Yiewsley, Uxbridge (16.4 miles)"
"RM11 St Andrew's, Hornchurch (16.4 miles)"
"UB8 Brunel, Uxbridge (16.5 miles)"
"UB7 Brunel, West Drayton (16.5 miles)"
"UB10 Brunel, Uxbridge (16.5 miles)"
"RM2 Squirrel's Heath, Romford (16.5 miles)"
"RM2 Emerson Park, Romford (16.5 miles)"
"RM3 Emerson Park, Romford (16.5 miles)"
"BR6 Pratts Bottom, Orpington (16.5 miles)"
"SG13 Bayford, Hertford (16.5 miles)"
"RM3 Heaton, Romford (16.5 miles)"
"AL4 London Colney, St. Albans (16.5 miles)"
"SG13 Hertford, Hertford (16.5 miles)"
"UB8 Uxbridge, Uxbridge (16.6 miles)"
"WD25 Watford, Watford (16.6 miles)"
"RM12 St Andrew's, Hornchurch (16.7 miles)"
"UB7 Heathrow Villages, West Drayton (16.7 miles)"
"UB8 Denham, Uxbridge (16.7 miles)"
"KT21 Ashtead, Ashtead (16.7 miles)"
"WD99 Watford, Watford (16.8 miles)"
"CM16 Fiddlers Hamlet, Epping (16.8 miles)"
"KT22 Oxshott, Leatherhead (16.8 miles)"
"AL2 Frogmore, St. Albans (16.8 miles)"
"UB8 Cowley, Uxbridge (16.8 miles)"
"RM14 Hacton, Upminster (16.8 miles)"
"RM12 Hacton, Hornchurch (16.8 miles)"
"TW15 Feltham West, Ashford (16.9 miles)"
"RM4 Stapleford Tawney, Romford (16.9 miles)"
"RM4 Navestock, Romford (16.9 miles)"
"RM4 Abridge, Romford (16.9 miles)"
"RM4 Stapleford Abbotts, Romford (16.9 miles)"
"KT12 Hersham, Walton-On-Thames (16.9 miles)"
"TW15 Ashford, Ashford (16.9 miles)"
"UB8 Uxbridge South, Uxbridge (17 miles)"
"UB8 Uxbridge North, Uxbridge (17 miles)"
"TW17 Shepperton, Shepperton (17 miles)"
"UB9 Denham, Uxbridge (17 miles)"
"CM16 Theydon Mount, Epping (17 miles)"
"CM16 Theydon Garnon, Epping (17 miles)"
"UB10 Hillingdon, Uxbridge (17 miles)"
"AL4 Tyttenhanger, St. Albans (17 miles)"
"BR8 Swanley, Swanley (17 miles)"
"RM11 Emerson Park, Hornchurch (17 miles)"
"SG13 Howe Green, Hertford (17.1 miles)"
"AL4 Smallford, St. Albans (17.1 miles)"
"KT12 Walton-on-Thames, Walton-On-Thames (17.2 miles)"
"AL9 Essendon, Hatfield (17.2 miles)"
"AL2 London Colney, St. Albans (17.2 miles)"
"KT18 Headley, Epsom (17.2 miles)"
"KT20 Walton on the Hill, Tadworth (17.2 miles)"
"KT18 Epsom, Epsom (17.2 miles)"
"AL2 Napsbury, St. Albans (17.3 miles)"
"TW19 Stanwell, Staines (17.3 miles)"
"RM11 Squirrel's Heath, Hornchurch (17.3 miles)"
"AL2 Bricket Wood, St. Albans (17.4 miles)"
"AL2 Park Street, St. Albans (17.4 miles)"
"RM15 South Ockendon, South Ockendon (17.4 miles)"
"RM15 Aveley, South Ockendon (17.4 miles)"
"CM14 Gooshays, Brentwood (17.4 miles)"
"RM3 Gooshays, Romford (17.4 miles)"
"DA1 Dartford, Dartford (17.4 miles)"
"KT20 Lower Kingswood, Tadworth (17.5 miles)"
"WD24 Watford, Watford (17.5 miles)"
"UB9 Harefield, Uxbridge (17.5 miles)"
"RM11 Harold Wood, Hornchurch (17.5 miles)"
"RM14 Harold Wood, Upminster (17.5 miles)"
"RM3 Harold Wood, Romford (17.5 miles)"
"RH1 Merstham, Redhill (17.5 miles)"
"RM3 Harold Hill, Romford (17.5 miles)"
"TN14 Badgers Mount, Sevenoaks (17.6 miles)"
"TN14 Sevenoaks, Sevenoaks (17.6 miles)"
"KT11 Cobham, Cobham (17.6 miles)"
"DA2 Hawley, Dartford (17.6 miles)"
"TN14 Chevening, Sevenoaks (17.6 miles)"
"TN14 Sundridge, Sevenoaks (17.6 miles)"
"CM16 Coopersale, Epping (17.7 miles)"
"RM14 Bulphan, Upminster (17.7 miles)"
"RM14 North Ockendon, Upminster (17.7 miles)"
"TN16 Biggin Hill, Westerham (17.7 miles)"
"TN16 Tatsfield, Westerham (17.7 miles)"
"KT22 Leatherhead, Leatherhead (17.7 miles)"
"TN14 Halstead, Sevenoaks (17.7 miles)"
"TN14 Knockholt, Sevenoaks (17.8 miles)"
"RM14 Cranham, Upminster (17.8 miles)"
"RM19 Purfleet, Purfleet (17.8 miles)"
"WD3 Croxley Green, Rickmansworth (17.9 miles)"
"CM16 Epping Green, Epping (17.9 miles)"
"RH8 Titsey, Oxted (17.9 miles)"
"CM16 Epping Upland, Epping (17.9 miles)"
"TW19 Heathrow Villages, Staines (17.9 miles)"
"SG13 Bayfordbury, Hertford (17.9 miles)"
"RM4 Noak Hill, Romford (17.9 miles)"
"RM3 Noak Hill, Romford (17.9 miles)"
"WD25 Leavesden, Watford (18 miles)"
"SG14 Pipers End, Hertford (18 miles)"
"AL4 Oaklands, St. Albans (18.1 miles)"
"EN11 Hoddesdon, Hoddesdon (18.1 miles)"
"WD3 Batchworth Heath, Rickmansworth (18.1 miles)"
"KT20 Mogador, Tadworth (18.1 miles)"
"SG14 Letty Green, Hertford (18.1 miles)"
"SG14 East End Green, Hertford (18.2 miles)"
"CM16 North Weald, Epping (18.2 miles)"
"TW19 Staines, Staines (18.2 miles)"
"DA2 Crossways Business Park, Dartford (18.2 miles)"
"TW19 Stanwell Moor, Staines (18.3 miles)"
"UB9 Denham Garden Village, Uxbridge (18.4 miles)"
"KT11 Stoke D'abernon, Cobham (18.4 miles)"
"SG14 Birch Green, Hertford (18.4 miles)"
"UB9 Uxbridge, Uxbridge (18.4 miles)"
"RH9 Godstone, Godstone (18.5 miles)"
"KT12 Whiteley Village, Walton-On-Thames (18.5 miles)"
"CM16 Thornwood, Epping (18.5 miles)"
"DA4 Sutton At Hone, Dartford (18.5 miles)"
"TN16 Westerham, Westerham (18.6 miles)"
"RM11 Cranham, Hornchurch (18.6 miles)"
"RM20 Waterglade Industrial Park, Grays (18.6 miles)"
"AL10 Hatfield, Hatfield (18.6 miles)"
"SG13 Hailey, Hertford (18.7 miles)"
"SG14 Staines Green, Hertford (18.7 miles)"
"SG13 Brickendon, Hertford (18.7 miles)"
"TW18 Laleham, Staines (18.7 miles)"
"SG14 Cole Green, Hertford (18.8 miles)"
"DA4 Eynsford, Dartford (18.8 miles)"
"SG14 Hertingfordbury, Hertford (18.8 miles)"
"DA2 Lane End, Dartford (18.8 miles)"
"WD3 Chorleywood, Rickmansworth (18.8 miles)"
"SG13 Hertford Heath, Hertford (18.8 miles)"
"TW19 Wraysbury, Staines (18.8 miles)"
"WD5 Abbots Langley, Abbots Langley (18.9 miles)"
"CM19 Harlow, Harlow (18.9 miles)"
"AL1 St Albans, St. Albans (18.9 miles)"
"AL3 St Albans, St. Albans (18.9 miles)"
"RM20 Grays, Grays (18.9 miles)"
"RM20 West Thurrock, Grays (19 miles)"
"SG13 Balls Park, Hertford (19 miles)"
"SL0 Iver, Iver (19 miles)"
"WD3 West Hyde, Rickmansworth (19 miles)"
"CM19 Roydon Mill, Harlow (19 miles)"
"RH8 Limpsfield, Oxted (19 miles)"
"KT22 Fetcham, Leatherhead (19 miles)"
"RH8 Oxted, Oxted (19 miles)"
"WD3 Chandlers Cross, Rickmansworth (19.1 miles)"
"DA4 South Darenth, Dartford (19.1 miles)"
"AL4 St Albans, St. Albans (19.1 miles)"
"AL2 St Albans, St. Albans (19.1 miles)"
"AL4 Marshalswick, St. Albans (19.1 miles)"
"DA4 Dartford, Dartford (19.1 miles)"
"DA4 Farningham, Dartford (19.1 miles)"
"CM19 Roydon, Harlow (19.2 miles)"
"KT13 Weybridge, Weybridge (19.2 miles)"
"SL0 Iver Heath, Iver (19.2 miles)"
"DA4 Horton Kirby, Dartford (19.2 miles)"
"DA9 Bluewater, Greenhithe (19.2 miles)"
"AL4 Sandridge, St. Albans (19.3 miles)"
"RH1 Bletchingley, Redhill (19.3 miles)"
"RH1 South Nutfield, Redhill (19.3 miles)"
"RH1 Nutfield, Redhill (19.3 miles)"
"AL2 Potters Crouch, St. Albans (19.4 miles)"
"DA9 Greenhithe, Greenhithe (19.4 miles)"
"SG13 Foxholes Business Park, Hertford (19.4 miles)"
"SG14 Panshanger Aerodrome, Hertford (19.4 miles)"
"TN13 Dunton Green, Sevenoaks (19.4 miles)"
"KT13 St Georges Hill, Weybridge (19.4 miles)"
"SG14 Hertford, Hertford (19.4 miles)"
"TW18 Staines, Staines (19.4 miles)"
"CM5 Toot Hill, Ongar (19.4 miles)"
"WD5 Bedmond, Abbots Langley (19.5 miles)"
"CM14 Brentwood, Brentwood (19.5 miles)"
"CM5 Stanford Rivers, Ongar (19.5 miles)"
"RH8 Tandridge, Oxted (19.5 miles)"
"SG12 Stanstead Abbotts, Ware (19.5 miles)"
"KT11 Downside, Cobham (19.5 miles)"
"WD3 Loudwater, Rickmansworth (19.6 miles)"
"WD3 Rickmansworth, Rickmansworth (19.6 miles)"
"WD3 Mill End, Rickmansworth (19.6 miles)"
"KT15 Woodham, Addlestone (19.6 miles)"
"SL3 Datchet, Slough (19.6 miles)"
"WD3 Maple Cross, Rickmansworth (19.6 miles)"
"SG13 Rush Green, Hertford (19.6 miles)"
"AL3 Gorhambury, St. Albans (19.6 miles)"
"SG12 Great Amwell, Ware (19.7 miles)"
"AL8 Lemsford, Welwyn Garden City (19.7 miles)"
"SG14 Poplars Green, Hertford (19.7 miles)"
"KT16 Chertsey, Chertsey (19.7 miles)"
"SG14 Panshanger, Hertford (19.7 miles)"
"AL7 Welwyn Garden City, Welwyn Garden City (19.7 miles)"
"SG12 Amwell Hill, Ware (19.7 miles)"
"SL3 Langley, Slough (19.8 miles)"
"CM14 Great Warley, Brentwood (19.8 miles)"
"CM13 Great Warley, Brentwood (19.8 miles)"
"AL8 Welwyn Garden City, Welwyn Garden City (19.9 miles)"
"TN16 Brasted, Westerham (19.9 miles)"
"CM18 Harlow, Harlow (19.9 miles)"
"AL3 Porters Wood, St. Albans (19.9 miles)"
"SL3 Horton, Slough (20 miles)"
"CM14 South Weald, Brentwood (20 miles)"
"RH1 Redhill, Redhill (20 miles)"
"DA2 Green Street Green, Dartford (20 miles)"
"RH8 Limpsfield Chart, Oxted (20 miles)"
"AL3 Sandridge, St. Albans (20.1 miles)"
"RH1 Earlswood, Redhill (20.1 miles)"
"RM16 Grays, Grays (20.1 miles)"
"CM14 Kelvedon Common, Brentwood (20.1 miles)"
"DA2 Bean, Dartford (20.1 miles)"
"CM14 Navestockside, Brentwood (20.1 miles)"
"TN13 Sevenoaks, Sevenoaks (20.1 miles)"
"CM5 Greensted, Ongar (20.1 miles)"
"SG14 Marden Hill, Hertford (20.1 miles)"
"SL9 Gerrards Cross, Gerrards Cross (20.2 miles)"
"RM20 South Stifford, Grays (20.2 miles)"
"KT13 Brooklands Industrial Park, Weybridge (20.2 miles)"
"DA2 Stone, Dartford (20.3 miles)"
"AL3 Sandridgebury, St. Albans (20.3 miles)"
"TN14 Dunton Green, Sevenoaks (20.3 miles)"
"SL3 Middlegreen, Slough (20.3 miles)"
"CM17 Hastingwood, Harlow (20.3 miles)"
"WD4 Bucks Hill, Kings Langley (20.4 miles)"
"HP3 Pimlico, Hemel Hempstead (20.4 miles)"
"TN14 Otford, Sevenoaks (20.4 miles)"
"KT13 Brooklands Industrial Estate, Weybridge (20.4 miles)"
"TW20 Thorpe Industrial Estate, Egham (20.4 miles)"
"TW20 Egham, Egham (20.4 miles)"
"KT23 Bookham, Leatherhead (20.4 miles)"
"SG12 Easneye, Ware (20.5 miles)"
"TN13 Chipstead, Sevenoaks (20.5 miles)"
"RM16 Chafford Hundred, Grays (20.5 miles)"
"RH5 Westhumble, Dorking (20.5 miles)"
"WD3 Heronsgate, Rickmansworth (20.6 miles)"
"TN14 Shoreham, Sevenoaks (20.6 miles)"
"RH2 South Park, Reigate (20.6 miles)"
"SL3 Slough, Slough (20.6 miles)"
"SL95 Slough, Slough (20.6 miles)"
"SL3 Colnbrook, Slough (20.6 miles)"
"SL3 George Green, Slough (20.6 miles)"
"SL3 Fulmer, Slough (20.6 miles)"
"SG14 Waterford, Hertford (20.6 miles)"
"TN16 Brasted Chart, Westerham (20.7 miles)"
"KT23 Leatherhead, Leatherhead (20.7 miles)"
"CM14 Pilgrims Hatch, Brentwood (20.7 miles)"
"CM15 Pilgrims Hatch, Brentwood (20.7 miles)"
"WD3 Sarratt, Rickmansworth (20.8 miles)"
"WD3 Chenies, Rickmansworth (20.8 miles)"
"CM20 Eastwick, Harlow (20.8 miles)"
"CM14 Warley, Brentwood (20.8 miles)"
"RH2 Reigate, Reigate (20.8 miles)"
"RH3 Brockham, Betchworth (20.8 miles)"
"RH3 Betchworth, Betchworth (20.8 miles)"
"RH3 Buckland, Betchworth (20.8 miles)"
"RH9 South Godstone, Godstone (20.8 miles)"
"RM17 Badgers Dene, Grays (20.8 miles)"
"TW20 Thorpe, Egham (20.8 miles)"
"RH3 Strood Green, Betchworth (20.9 miles)"
"DA10 Swanscombe, Dartford / Swanscombe (20.9 miles)"
"SG14 Bramfield, Hertford (20.9 miles)"
"TN15 Knatts Valley, Sevenoaks (21 miles)"
"CM17 Church Langley, Harlow (21 miles)"
"CM15 Brentwood, Brentwood (21 miles)"
"CM15 Kelvedon Hatch, Brentwood (21 miles)"
"KT24 Effingham Junction, Leatherhead (21 miles)"
"CM14 Kelvedon Hatch, Brentwood (21.1 miles)"
"HP3 Nash Mills, Hemel Hempstead (21.1 miles)"
"SL9 Chalfont St Peter, Gerrards Cross (21.1 miles)"
"KT15 New Haw, Addlestone (21.2 miles)"
"DA3 Longfield, Longfield (21.2 miles)"
"RM14 Upminster, Upminster (21.2 miles)"
"TN15 West Kingsdown, Sevenoaks (21.2 miles)"
"RM17 Grays, Grays (21.2 miles)"
"KT15 Addlestone, Addlestone (21.2 miles)"
"TN8 Crockham Hill, Edenbridge (21.2 miles)"
"SG12 Ware, Ware (21.2 miles)"
"RH4 Dorking, Dorking (21.3 miles)"
"CM13 Little Warley, Brentwood (21.4 miles)"
"AL6 Digswell, Welwyn (21.4 miles)"
"DA10 Ebbsfleet Valley, Dartford / Swanscombe (21.4 miles)"
"CM20 Harlow, Harlow (21.5 miles)"
"SG12 Westmill, Ware (21.5 miles)"
"AL6 Ayot St Peter, Welwyn (21.5 miles)"
"SL2 Stoke Poges, Slough (21.5 miles)"
"SG12 Chapmore End, Ware (21.5 miles)"
"KT14 West Byfleet, West Byfleet (21.6 miles)"
"KT14 Byfleet, West Byfleet (21.6 miles)"
"DA11 Northfleet, Gravesend (21.6 miles)"
"CM5 Magdalen Laver, Ongar (21.7 miles)"
"HP3 Shendish, Hemel Hempstead (21.7 miles)"
"SG12 Hunsdon, Ware (21.7 miles)"
"TN8 Toys Hill, Edenbridge (21.7 miles)"
"TN16 Toys Hill, Westerham (21.8 miles)"
"CM20 Gilston, Harlow (21.8 miles)"
"RH7 Crowhurst, Lingfield (21.8 miles)"
"WD4 Hunton Bridge, Kings Langley (21.8 miles)"
"WD4 Chipperfield, Kings Langley (21.8 miles)"
"WD4 Kings Langley, Kings Langley (21.8 miles)"
"SL3 Stoke Poges, Slough (21.8 miles)"
"SL2 Wexham, Slough (21.8 miles)"
"AL3 Childwickbury, St. Albans (21.8 miles)"
"CM17 Threshers Bush, Harlow (21.9 miles)"
"RH1 Salfords, Redhill (21.9 miles)"
"SL1 Slough, Slough (21.9 miles)"
"SG12 Stoney Hills, Ware (21.9 miles)"
"SG14 Stapleford, Hertford (21.9 miles)"
"HP3 Hemel Hempstead, Hemel Hempstead (21.9 miles)"
"KT24 Leatherhead, Leatherhead (22 miles)"
"KT24 Effingham, Leatherhead (22 miles)"
"TW20 Englefield Green, Egham (22 miles)"
"RH2 Sidlow, Reigate (22 miles)"
"TN15 Kemsing, Sevenoaks (22 miles)"
"TN14 Ide Hill, Sevenoaks (22 miles)"
"SG12 Wareside, Ware (22.1 miles)"
"RH2 Leigh, Reigate (22.1 miles)"
"SG12 Tonwell, Ware (22.2 miles)"
"TN15 Ash, Sevenoaks (22.2 miles)"
"TN15 Stansted, Sevenoaks (22.2 miles)"
"CM13 West Horndon, Brentwood (22.2 miles)"
"AL6 Tewin, Welwyn (22.2 miles)"
"AL6 Welwyn, Welwyn (22.2 miles)"
"SG12 Thundridge, Ware (22.3 miles)"
"GU23 Wisley, Woking (22.3 miles)"
"GU23 Send, Woking (22.3 miles)"
"GU23 Ripley, Woking (22.3 miles)"
"GU23 Ockham, Woking (22.3 miles)"
"RH1 Outwood, Redhill (22.3 miles)"
"CM15 Doddinghurst, Brentwood (22.4 miles)"
"DA3 Hartley, Longfield (22.4 miles)"
"DA3 Fawkham, Longfield (22.4 miles)"
"AL4 Wheathampstead, St. Albans (22.4 miles)"
"CM13 Brentwood, Brentwood (22.4 miles)"
"RH5 Ranmore Common, Dorking (22.4 miles)"
"HP8 Chalfont St Giles, Chalfont St. Giles (22.4 miles)"
"RM18 Tilbury, Tilbury (22.4 miles)"
"CM15 Shenfield, Brentwood (22.5 miles)"
"CM13 Shenfield, Brentwood (22.5 miles)"
"DA11 Gravesend, Gravesend (22.5 miles)"
"DA11 Southfleet, Gravesend (22.5 miles)"
"SG12 Dane End, Ware (22.5 miles)"
"RH7 Blindley Heath, Lingfield (22.5 miles)"
"TN15 Seal, Sevenoaks (22.6 miles)"
"DA3 New Ash Green, Longfield (22.6 miles)"
"CM15 Stondon Massey, Brentwood (22.6 miles)"
"CM13 Ingrave, Brentwood (22.6 miles)"
"DA13 Meopham, Gravesend (22.6 miles)"
"DA13 Southfleet, Gravesend (22.6 miles)"
"DA13 Gravesend, Gravesend (22.6 miles)"
"CM15 Hook End, Brentwood (22.6 miles)"
"SG12 Wadesmill, Ware (22.6 miles)"
"CM5 High Laver, Ongar (22.6 miles)"
"RH6 Gatwick, Gatwick / Horley (22.7 miles)"
"DA13 Northfleet Green, Gravesend (22.7 miles)"
"HP2 Paradise Industrial Estate, Hemel Hempstead (22.7 miles)"
"KT16 Lyne, Chertsey (22.7 miles)"
"KT16 Ottershaw, Chertsey (22.7 miles)"
"SG12 Widford, Ware (22.7 miles)"
"HP2 Hemel Hempstead Industrial Estate, Hemel Hempstead (22.8 miles)"
"GU25 Virginia Water, Virginia Water (22.8 miles)"
"SL4 Windsor, Windsor (22.8 miles)"
"SL4 Windsor Castle, Windsor (22.8 miles)"
"HP3 Flaunden, Hemel Hempstead (22.8 miles)"
"AL6 Ayot St Lawrence, Welwyn (22.8 miles)"
"SL4 Eton Wick, Windsor (22.8 miles)"
"HP2 Hemel Hempstead, Hemel Hempstead (22.8 miles)"
"GU22 Pyrford, Woking (22.9 miles)"
"CM13 Herongate, Brentwood (22.9 miles)"
"GU21 Sheerwater, Woking (22.9 miles)"
"HP3 Felden, Hemel Hempstead (22.9 miles)"
"SL1 Chalvey, Slough (22.9 miles)"
"CM15 Wyatts Green, Brentwood (22.9 miles)"
"RM16 Orsett, Grays (22.9 miles)"
"RM16 North Stifford, Grays (22.9 miles)"
"SL4 Eton College, Windsor (23 miles)"
"RH5 North Holmwood, Dorking (23 miles)"
"KT24 West Horsley, Leatherhead (23 miles)"
"KT24 East Horsley, Leatherhead (23 miles)"
"HP9 Jordans, Beaconsfield (23 miles)"
"RH6 Horne, Gatwick / Horley (23.1 miles)"
"CM17 Matching Green, Harlow (23.1 miles)"
"CM17 Harlow, Harlow (23.1 miles)"
"CM17 Matching, Harlow (23.1 miles)"
"RH7 Lingfield, Lingfield (23.1 miles)"
"SL2 Slough, Slough (23.2 miles)"
"RH4 Westcott, Dorking (23.2 miles)"
"TN13 Riverhead, Sevenoaks (23.2 miles)"
"TN8 Four Elms, Edenbridge (23.2 miles)"
"HP7 Little Chalfont, Amersham (23.2 miles)"
"HP6 Little Chalfont, Amersham (23.2 miles)"
"SG3 Datchworth, Knebworth (23.2 miles)"
"RM16 Chadwell St Mary, Grays (23.2 miles)"
"SG11 High Cross, Ware (23.3 miles)"
"SL2 Farnham Common, Slough (23.3 miles)"
"DA3 Longfield Hill, Longfield (23.3 miles)"
"AL3 Redbourn, St. Albans (23.3 miles)"
"SG11 Haultwick, Ware (23.3 miles)"
"TN15 Godden Green, Sevenoaks (23.4 miles)"
"CM17 Matching Tye, Harlow (23.4 miles)"
"SG14 Watton At Stone, Hertford (23.4 miles)"
"HP9 Beaconsfield, Beaconsfield (23.4 miles)"
"HP9 Seer Green, Beaconsfield (23.4 miles)"
"HP9 Knotty Green, Beaconsfield (23.4 miles)"
"SG3 Woolmer Green, Knebworth (23.5 miles)"
"SG3 Knebworth, Knebworth (23.5 miles)"
"SG12 Sacombe, Ware (23.5 miles)"
"AL6 Rabley Heath, Welwyn (23.5 miles)"
"GU24 Fairoaks Airport, Woking (23.6 miles)"
"CM21 Sawbridgeworth, Sawbridgeworth (23.6 miles)"
"SL2 Hedgerley, Slough (23.6 miles)"
"SL2 Farnham Royal, Slough (23.6 miles)"
"HP3 Bovingdon, Hemel Hempstead (23.6 miles)"
"SG4 Codicote, Hitchin (23.6 miles)"
"TN13 Weald, Sevenoaks (23.6 miles)"
"TN14 Weald, Sevenoaks (23.6 miles)"
"KT16 Longcross, Chertsey (23.6 miles)"
"AL5 Harpenden, Harpenden (23.7 miles)"
"RH6 Horley, Gatwick / Horley (23.7 miles)"
"CM4 Nine Ashes, Ingatestone (23.7 miles)"
"RH5 Mid Holmwood, Dorking (23.7 miles)"
"HP6 Amersham, Amersham (23.7 miles)"
"CM13 Hutton, Brentwood (23.7 miles)"
"DA13 Istead Rise, Gravesend (23.9 miles)"
"CM5 Little Laver, Ongar (23.9 miles)"
"TN15 Seal Chart, Sevenoaks (23.9 miles)"
"CM21 High Wych, Sawbridgeworth (24.1 miles)"
"TN15 Plaxtol, Sevenoaks (24.1 miles)"
"TN15 Sevenoaks, Sevenoaks (24.1 miles)"
"TN15 Ightham, Sevenoaks (24.1 miles)"
"TN15 Wrotham, Sevenoaks (24.1 miles)"
"HP1 Piccotts End, Hemel Hempstead (24.1 miles)"
"HP1 Hemel Hempstead, Hemel Hempstead (24.1 miles)"
"RH6 Hookwood, Gatwick / Horley (24.1 miles)"
"RH6 Norwood Hill, Gatwick / Horley (24.1 miles)"
"CM21 Allens Green, Sawbridgeworth (24.2 miles)"
"HP1 Winkwell, Hemel Hempstead (24.2 miles)"
"RM18 West Tilbury, Tilbury (24.2 miles)"
"GU22 Woking, Woking (24.2 miles)"
"HP5 Ley Hill, Chesham (24.3 miles)"
"HP2 Piccotts End, Hemel Hempstead (24.3 miles)"
"RH5 Capel, Dorking (24.3 miles)"
"RH5 Newdigate, Dorking (24.3 miles)"
"RH5 Ockley, Dorking (24.3 miles)"
"SL1 Cippenham, Slough (24.3 miles)"
"SG10 Much Hadham, Much Hadham (24.3 miles)"
"CM13 Dunton, Brentwood (24.3 miles)"
"GU21 Horsell, Woking (24.4 miles)"
"CM13 Mountnessing, Brentwood (24.4 miles)"
"SG12 Whempstead, Ware (24.4 miles)"
"CM15 Mountnessing, Brentwood (24.4 miles)"
"SG3 Old Knebworth, Knebworth (24.5 miles)"
"TN15 Hodsoll Street, Sevenoaks (24.5 miles)"
"SL4 Eton, Windsor (24.5 miles)"
"DA12 Cobham, Gravesend (24.5 miles)"
"CM4 Norton Mandeville, Ingatestone (24.6 miles)"
"RH7 Newchapel, Lingfield (24.6 miles)"
"RH6 London Gatwick Airport, Gatwick / Horley (24.6 miles)"
"CM4 Blackmore, Ingatestone (24.6 miles)"
"CM4 Norton Heath, Ingatestone (24.6 miles)"
"GU22 Old Woking, Woking (24.7 miles)"
"HP1 Nettleden, Hemel Hempstead (24.7 miles)"
"HP1 Great Gaddesden, Hemel Hempstead (24.7 miles)"
"SG11 Colliers End, Ware (24.7 miles)"
"TN15 Fairseat, Sevenoaks (24.8 miles)"
"TN8 Den Cross, Edenbridge (24.8 miles)"
"TN8 Marsh Green, Edenbridge (24.8 miles)"
"GU4 East Clandon, Guildford (24.8 miles)"
"RH6 Burstow, Gatwick / Horley (24.8 miles)"
"TN15 Underriver, Sevenoaks (24.8 miles)"
"SS17 Horndon-on-the-Hill, Stanford-Le-Hope (24.8 miles)"
"CM5 Moreton, Ongar (24.8 miles)"
"CM5 Fyfield, Ongar (24.9 miles)"
"CM5 Ongar, Ongar (24.9 miles)"
"CM5 High Ongar, Ongar (24.9 miles)"
"CM5 Willingale, Ongar (24.9 miles)"
"DA13 South Street, Gravesend (24.9 miles)"
"RH6 Smallfield, Gatwick / Horley (24.9 miles)"
"SS17 Stanford-le-Hope, Stanford-Le-Hope (24.9 miles)"
"SL1 Burnham, Slough (24.9 miles)"
"RH5 Holmwood, Dorking (24.9 miles)"
"GU24 Chobham, Woking (24.9 miles)"
"GU21 Woking, Woking (24.9 miles)"
