﻿Product ID,Manufacturer,Product Type,Category,Product Family Group,Product Family,product_lifecycle_name,Brand
3163,Alcon,Contact Lenses,CL - Daily,Daily HY Sph,Dailies AquaComfort Plus 90 Pack,REGULAR,Dailies
3165,Alcon,Contact Lenses,CL - Daily,Daily SIHI Sph,Dailies Total 1 90 Pack,REGULAR,Dailies
1366,Alcon,Solutions & Eye Care,EC - Ocular Vitamins,Other,ICaps Lutein and Omega 3,DISCONTINUED,
2614,American Freshman,Sunglasses,Sunglasses,Spectacles,American Freshman AFS007 Fashion Round In Brown Tort To Pink,REGULAR,
1183,Abott,Solutions & Eye Care,SL - Hydrogen Peroxide,Other,Oxysept 1 Step,REGULAR,Oxysept
2605,Animal,Sunglasses,Sunglasses,Spectacles,Animal ANI025 Brown Vert Oval Metal,REGULAR,
2575,Animal,Sunglasses,Sunglasses,Spectacles,Animal ANI029 Purple Glide Classic Plastic Wrap,REGULAR,
2579,Animal,Sunglasses,Sunglasses,Spectacles,Animal ANI031 Crystal Blue Pop Butterfly,REGULAR,
2586,Animal,Sunglasses,Sunglasses,Spectacles,Animal ANI032 Black Fushia Slider Casual Square,REGULAR,
2587,Animal,Sunglasses,Sunglasses,Spectacles,Animal ANI033 Black Blue Slider Casual Square,REGULAR,
2592,Animal,Sunglasses,Sunglasses,Spectacles,Animal ANI034 Black Purple Flip Flex Tips Full Frame Plastic,REGULAR,
2593,Animal,Sunglasses,Sunglasses,Spectacles,Animal ANI035 Black Flip Flex Tips Full Frame Plastic,REGULAR,
2351,Bausch & Lomb,Other,Other,Daily SIHI Sph,Biotrue One Day (trial),REGULAR,Biotrue
2288,Bausch & Lomb,Other,Other,Monthly SIHI Sph,PureVision (x),REGULAR,PureVision
2412,Bausch & Lomb,Other,Other,Monthly SIHI Multi,PureVision2 for Presbyopia (Free),REGULAR,PureVision
1404,Bausch & Lomb,Other,Other,Monthly HY Sph,SofLens 38 (Complimetary),DISCONTINUED,Soflens
3185,Bausch & Lomb,Solutions & Eye Care,SL - Multi-purpose Solutions,Solutions,Renu MPS Multi-Purpose Solution Single Flat Pack,REGULAR,Renu
2645,Ben Sherman,Sunglasses,Sunglasses,Spectacles,Ben Sherman BEN007 Preppy Plastic With Skinny Metal Temple In Black Clear,REGULAR,Ben Sherman
2659,Ben Sherman,Sunglasses,Sunglasses,Spectacles,Ben Sherman BEN028 Checked Temple Metal In Gunmetal Brown,REGULAR,Ben Sherman
3162,alcon,Contact Lenses,CL - Daily,Daily HY Sph,Focus Dailies All Day Comfort 90 Pack,REGULAR,Dailies
1346,alcon,Other,Other,Monthly SIHI Sph,Air Optix INDIVIDUAL,DISCONTINUED,Air Optix
2415,alcon,Other,Other,Monthly SIHI Sph,Air Optix plus HydraGlyde (free),REGULAR,Air Optix
2340,alcon,Other,Other,Daily HY Multi ,Dailies AquaComfort Plus Multifocal (trial),REGULAR,Dailies
2342,alcon,Other,Other,Daily HY Tor ,Dailies AquaComfort Plus Toric (trial),REGULAR,Dailies
2411,alcon,Solutions & Eye Care,SL - Hydrogen Peroxide,Solutions,AOsept Plus HydraGlyde Duo Pack,REGULAR,Aosept
1241,CLPL,Other,Other,Other,Hydron Mini Softints,DISCONTINUED,Hydron
3183,Coopervision,Contact Lenses,CL - Monthlies,Monthly SIHI Sph,Clariti Elite,DISCONTINUED,Clariti
3182,Coopervision,Contact Lenses,CL - Monthlies,Monthly SIHI Multi,Clariti Monthly Multifocal,DISCONTINUED,Clariti
3181,Coopervision,Contact Lenses,CL - Monthlies,Monthly SIHI Tor,Clariti Monthly Toric,DISCONTINUED,Clariti
2250,Coopervision,Other,Other,Monthly SIHI Tor,Biofinity Toric OLD,DISCONTINUED,Biofinity
2241,Coopervision,Other,Other,Daily HY Tor ,Biomedics 1 Day Extra Toric (Free),REGULAR,Biomedics
1266,Coopervision,Other,Other,Monthly Col,Crazy Lenses,DISCONTINUED,Crazy
1253,Coopervision,Other,Other,Yearly Col,Lunelle ES70 Colours,REGULAR,Lunelle
1257,David Thomas,Other,Other,Other,Media,DISCONTINUED, 
1255,David Thomas,Other,Other,Other,Perfecta,DISCONTINUED, 
3171,Daysoft,Contact Lenses,CL - Daily,Daily HY Sph,Daysoft Silk,DISCONTINUED, 
2267,Eye Care Cosmetics,Solutions & Eye Care,EC - Hypoallegenic Makeup,Other,Eye Shadow Cream (High tolerance),DISCONTINUED, 
2469,Freedom,Sunglasses,Sunglasses,Spectacles,Freedom FRG145372 Large Rectangle In Grey,REGULAR,
2470,Freedom,Sunglasses,Sunglasses,Spectacles,Freedom FRG145373 Texture Temple Wrap In Brown,REGULAR,
2471,Freedom,Sunglasses,Sunglasses,Spectacles,Freedom FRG145376 Easy Wrap In Black,REGULAR,
2472,Freedom,Sunglasses,Sunglasses,Spectacles,Freedom FRG145377 Easy Wrap In Tort,REGULAR,
2473,Freedom,Sunglasses,Sunglasses,Spectacles,Freedom FRG145379 Square Plastic In Brown,REGULAR,
2474,Freedom,Sunglasses,Sunglasses,Spectacles,Freedom FRG145380 Overlaid Sports Wrap In Black,REGULAR,
2475,Freedom,Sunglasses,Sunglasses,Spectacles,Freedom FRG145381 Sports Wrap In Black,REGULAR,
2476,Freedom,Sunglasses,Sunglasses,Spectacles,Freedom FRG145382 Plastic Chunky Wrap In Brown,REGULAR,
2477,Freedom,Sunglasses,Sunglasses,Spectacles,Freedom FRG145383 Lug Trim Plastic In Black,REGULAR,
2478,Freedom,Sunglasses,Sunglasses,Spectacles,Freedom FRG145384 Soft Rectangle In Black,REGULAR,
2479,Freedom,Sunglasses,Sunglasses,Spectacles,Freedom FRG145386 Moulded Nose Wrap In Blue,REGULAR,
2480,Freedom,Sunglasses,Sunglasses,Spectacles,Freedom FRG145387 Visor In Black,REGULAR,
2481,Freedom,Sunglasses,Sunglasses,Spectacles,Freedom FRG145388 Rubber Trim Wrap In Tort,REGULAR,
2482,Freedom,Sunglasses,Sunglasses,Spectacles,Freedom FRG145389 Rubber Trim Wrap In Black,REGULAR,
2483,Freedom,Sunglasses,Sunglasses,Spectacles,Freedom FRG145390 Metal W/Flex Hinges In Gunmetal,REGULAR,
2484,Freedom,Sunglasses,Sunglasses,Spectacles,Freedom FRG145391 Oval Metal Wrap In Gunmetal,REGULAR,
2559,French Connection,Sunglasses,Sunglasses,Spectacles,FCUK Sport FCS003 3 Piece Rimless In Gun,REGULAR,
2560,French Connection,Sunglasses,Sunglasses,Spectacles,FCUK Sport FCS008 Metal Rectangle In Gun,REGULAR,
2553,French Connection,Sunglasses,Sunglasses,Spectacles,FCUK Sport FCS026 Sports Wrap In Black,REGULAR,
2557,French Connection,Sunglasses,Sunglasses,Spectacles,FCUK Sport FCS043 Rectangle Wrap Plastic In Black,REGULAR,
2490,French Connection,Sunglasses,Sunglasses,Spectacles,French Connection Ladies FCU599 Large Glamour In Tort,REGULAR,
2526,French Connection,Sunglasses,Sunglasses,Spectacles,French Connection Mens FCU632 Square Metal Aviator In Gun,REGULAR,
2514,French Connection,Sunglasses,Sunglasses,Spectacles,French Connection Mens FCU646 Skinny Temple Preppy Plastic In Black To Demi,REGULAR,
3166,Johnson & Johnson,Contact Lenses,CL - Daily,Daily HY Sph,1 Day Acuvue Moist 90 Pack,REGULAR,Acuvue Moist
3164,Johnson & Johnson,Contact Lenses,CL - Daily,Daily SIHI Sph,1 Day Acuvue Trueye 90 Pack,REGULAR,Acuvue Trueye
3179,Johnson & Johnson,Contact Lenses,CL - Daily,Daily SIHI Tor,Acuvue Oasys 1 Day for Astigmatism,DISCONTINUED,Acuvue Oasys
2285,Johnson & Johnson,Other,Other,Two Weeklies SIHI Tor,Acuvue Oasys (x),REGULAR,Acuvue Oasys
2416,Johnson & Johnson,Other,Other,Daily SIHI Sph,Acuvue Oasys 1-DAY with HydraLuxe (free),REGULAR,Acuvue Oasys
2533,Karen Millen,Sunglasses,Sunglasses,Spectacles,Karen Millen KML075K New Glamour Square With Buckle Detail In Brown,REGULAR,
2540,Karen Millen,Sunglasses,Sunglasses,Spectacles,Karen Millen KML163K Shaped Rectangle In Wine,REGULAR,
2543,Karen Millen,Sunglasses,Sunglasses,Spectacles,Karen Millen KML203 Interior Logo Plastic In Brown,REGULAR,
1889,Lenstec,Other,Other,Other,ASDA Lens,DISCONTINUED,
2662,Levi's,Sunglasses,Sunglasses,Spectacles,Levi's LO22161 04 Shiny Black,REGULAR,
2663,Levi's,Sunglasses,Sunglasses,Spectacles,Levi's LO22161 05 Shiny Dark Brown Tort with Shiny Black Smoke,REGULAR,
2664,Levi's,Sunglasses,Sunglasses,Spectacles,Levi's LO22341 04 Shiny Gold With Smoke,REGULAR,
2665,Levi's,Sunglasses,Sunglasses,Spectacles,Levi's LO22363 03 Shiny Black With Smoke,REGULAR,
2666,Levi's,Sunglasses,Sunglasses,Spectacles,Levi's LO22369 03 Matte Silver With Green Smoke,REGULAR,
2667,Levi's,Sunglasses,Sunglasses,Spectacles,Levi's LO22369 04 Shiny Dark Brown Gunmetal,REGULAR,
2668,Levi's,Sunglasses,Sunglasses,Spectacles,Levi's LO22371 05 Matte Black and Silver With Smoke,REGULAR,
2669,Levi's,Sunglasses,Sunglasses,Spectacles,Levi's LO22374 04 Matte Black With Smoke,REGULAR,
2670,Levi's,Sunglasses,Sunglasses,Spectacles,Levi's LO22374 06 Matte Silver and Black With Smoke,REGULAR,
2671,Levi's,Sunglasses,Sunglasses,Spectacles,Levi's LO22380 05 Shiny Black With Green Smoke,REGULAR,
2672,Levi's,Sunglasses,Sunglasses,Spectacles,Levi's LO22382 06 Shiny Black With Smoke,REGULAR,
2673,Levi's,Sunglasses,Sunglasses,Spectacles,Levi's LO22385 05 Shiny Black With Green Smoke,REGULAR,
2674,Levi's,Sunglasses,Sunglasses,Spectacles,Levi's LO22385 06 Shiny Tokyo Tort With Green Smoke,REGULAR,
2675,Levi's,Sunglasses,Sunglasses,Spectacles,Levi's LO22395 04 Shiny Black With Smoke,REGULAR,
2676,Levi's,Sunglasses,Sunglasses,Spectacles,Levi's LO22461 01 Clear With Green Smoke,REGULAR,
2677,Levi's,Sunglasses,Sunglasses,Spectacles,Levi's LO22463 02 Matte Silver With Ocean Blue Mirror,REGULAR,
2678,Levi's,Sunglasses,Sunglasses,Spectacles,Levi's LO22464 02 Shiny Tokyo Tort With Green Smoke,REGULAR,
2679,Levi's,Sunglasses,Sunglasses,Spectacles,Levi's LO22534 02 Black Tort and Transparent Yellow With Green Smoke,REGULAR,
2680,Levi's,Sunglasses,Sunglasses,Spectacles,Levi's LO22534 03 Black Striated With Green Smoke,REGULAR,
2447,M:UK,Sunglasses,Sunglasses,Spectacles,M:UK MUK147829 Brixton Retro Plastic In Blue,REGULAR,
2461,M:UK,Sunglasses,Sunglasses,Spectacles,M:UK MUK147843 Dalston Rectangle Plastic With Studs In Black,REGULAR,
2355,Melleson Pharma,Other,Other,Solutions,1 x Everclear Flat Pack Multi-Purpose solution (Free gift),REGULAR,Everclear
2405,Menicon,Solutions & Eye Care,SL - Multi-purpose Solutions,Solutions,Solocare Aqua 90ml,REGULAR,Solocare
-1002,N/A,Glasses,Glasses,Spectacles,ATLAS-RIMLESS-BRONZE,N/A,
-1001,N/A,Glasses,Glasses,Spectacles,ATLAS-RIMLESS-GOLD,N/A,
-1003,N/A,Glasses,Glasses,Spectacles,ATLAS-RIMLESS-GUNMETAL,N/A,
-1000,N/A,Glasses,Glasses,Spectacles,ATLAS-RIMLESS-SILVER,N/A,
-1008,N/A,Solutions & Eye Care,SL - Multi-purpose Solutions,Solutions,Boston Simplus single,N/A,Boston
-1005,N/A,Solutions & Eye Care,SL - Multi-purpose Solutions,Solutions,Caiman goggles,N/A,Caiman
-1006,N/A,Solutions & Eye Care,SL - Multi-purpose Solutions,Solutions,Everclear Multi-purpose solution,N/A,Everclear
-1004,N/A,Solutions & Eye Care,SL - Multi-purpose Solutions,Solutions,Gator Goggles,N/A,Gator
-1007,N/A,Solutions & Eye Care,SL - Multi-purpose Solutions,Solutions,Ophtalmic product - all types,N/A,Ophtalmic
-1010,N/A,Solutions & Eye Care,SL - Multi-purpose Solutions,Solutions,Regard K RGP contact lens solution single bottle,N/A,Regard
-1009,N/A,Solutions & Eye Care,SL - Multi-purpose Solutions,Solutions,Renu MPS Flatpack,N/A,Renu
3136,NULL,Glasses,Glasses,Spectacles,Glasses bundle(generic for import),REGULAR,
2979,NULL,Other,Other,Other,ERP Glasses Bundle,REGULAR,
3156,NULL,Other,Other,Other,Frankie,REGULAR,
1230,NULL,Other,Other,Other,specialist lens,DISCONTINUED,
2246,Polaroid,Other,Other,Other,Beauty Eye Drops,REGULAR,
3157,R&L Vision,Contact Lenses,CL - Monthlies,Other,Aura Monthly UV,DISCONTINUED,Aura
3172,R&L Vision,Other,Other,Daily HY Sph,Aura ADM 1 Day,DISCONTINUED,Aura
1369,R&L Vision,Other,Other,Other,test1,DISCONTINUED,
2681,Süüna,Sunglasses,Sunglasses,Spectacles,SUUNA Ladies SUU112 Grace in Gold,REGULAR,
2264,Ultravision,Other,Other,Other,GetLenses Mug (Free),REGULAR,
2968,Vision Direct,Glasses,Glasses,Spectacles,Distance vision,REGULAR,
3137,Vision Direct,Glasses,Glasses,Spectacles,Glasses package (generic for import),REGULAR,
2972,Vision Direct,Glasses,Glasses,Spectacles,Gold package,REGULAR,
2970,Vision Direct,Glasses,Glasses,Spectacles,Multifocal vision,COMING_SOON,
2973,Vision Direct,Glasses,Glasses,Spectacles,Platinum package,REGULAR,
2969,Vision Direct,Glasses,Glasses,Spectacles,Reading vision,REGULAR,
2971,Vision Direct,Glasses,Glasses,Spectacles,Silver package,REGULAR,
3138,Vision Direct,Glasses,Glasses,Spectacles,Vision type (generic for import),REGULAR,
2976,Vision Direct,Other,Other,Other,Left Glasses Lens,REGULAR,
3131,Vision Direct,Other,Other,Other,Left Glasses Lens (generic for import),REGULAR,
2978,Vision Direct,Other,Other,Other,Left Glasses Lens No Prescription,REGULAR,
2974,Vision Direct,Other,Other,Other,Non-prescription lenses,REGULAR,
2975,Vision Direct,Other,Other,Other,Right Glasses Lens,REGULAR,
2977,Vision Direct,Other,Other,Other,Right Glasses Lens No Prescription,REGULAR,
2323,Vision Direct,Solutions & Eye Care,SL - Multi-purpose Solutions,Solutions,Multi-Use PLUS,DISCONTINUED,
2324,Vision Direct,Solutions & Eye Care,SL - Multi-purpose Solutions,Solutions,Multi-Use PLUS 3 Months Pack,DISCONTINUED,
2686,VisionDIrect,Glasses,Glasses,Spectacles,Adelaide in Brown,REGULAR,
2696,VisionDIrect,Glasses,Glasses,Spectacles,Amber in Black,REGULAR,
2718,VisionDIrect,Glasses,Glasses,Spectacles,Bella in Brown,REGULAR,
2722,VisionDIrect,Glasses,Glasses,Spectacles,Bette in Gold,REGULAR,
2953,VisionDIrect,Glasses,Glasses,Spectacles,Bobby in Bronze,REGULAR,
2967,VisionDIrect,Glasses,Glasses,Spectacles,Cleo in Brown,REGULAR,
2714,VisionDIrect,Glasses,Glasses,Spectacles,Collins in Blue,REGULAR,
2753,VisionDIrect,Glasses,Glasses,Spectacles,Cora in Brown,REGULAR,
2755,VisionDIrect,Glasses,Glasses,Spectacles,Cory in Black,REGULAR,
2759,VisionDIrect,Glasses,Glasses,Spectacles,Dakota in Black,REGULAR,
2767,VisionDIrect,Glasses,Glasses,Spectacles,Debbie in Purple,REGULAR,
2795,VisionDIrect,Glasses,Glasses,Spectacles,Frankie in Blue,REGULAR,
2794,VisionDIrect,Glasses,Glasses,Spectacles,Frankie in Brown,REGULAR,
2806,VisionDIrect,Glasses,Glasses,Spectacles,Grace in Red,REGULAR,
2822,VisionDIrect,Glasses,Glasses,Spectacles,Ivy in Black,REGULAR,
2826,VisionDIrect,Glasses,Glasses,Spectacles,James in Brown,REGULAR,
2958,VisionDIrect,Glasses,Glasses,Spectacles,Kerry in Bronze,REGULAR,
2870,VisionDIrect,Glasses,Glasses,Spectacles,Marissa in Tortoise,REGULAR,
2875,VisionDIrect,Glasses,Glasses,Spectacles,Miller in Gunmetal,REGULAR,
2878,VisionDIrect,Glasses,Glasses,Spectacles,Morgan in Black,REGULAR,
2883,VisionDIrect,Glasses,Glasses,Spectacles,Otto in Black,REGULAR,
2882,VisionDIrect,Glasses,Glasses,Spectacles,Otto in Brown,REGULAR,
2885,VisionDIrect,Glasses,Glasses,Spectacles,Peyton in Black,REGULAR,
2890,VisionDIrect,Glasses,Glasses,Spectacles,Princeton in Gunmetal,REGULAR,
2926,VisionDIrect,Glasses,Glasses,Spectacles,Terri in Black,REGULAR,
2925,VisionDIrect,Glasses,Glasses,Spectacles,Terri in Gunmetal,REGULAR,
2933,VisionDIrect,Glasses,Glasses,Spectacles,Trent in Blue,REGULAR,
2944,VisionDIrect,Glasses,Glasses,Spectacles,Zack in Blue,REGULAR,
2946,VisionDIrect,Glasses,Glasses,Spectacles,Zoe in Blue,REGULAR,
3178,VisionDIrect,Other,Other,Solutions,Vision Direct All in One Solution,REGULAR,
