﻿Product ID,Manufacturer,Product Type,Category,Product Family Group,Product Family,Brand?
1142,Abatron,Solutions & Eye Care,SL - Cleaners & Salines,Solutions,Amiclair,
1144,Abatron,Solutions & Eye Care,SL - Multi-purpose Solutions,Monthly SIHI Multi,Quattro,Quattro
1277,Advanced Eyecare,Solutions & Eye Care,SL - Multi-purpose Solutions,Drops,Regard Contact Lens Solution 3 Month Pack,Regard
1278,Advanced Eyecare,Solutions & Eye Care,SL - Gas Permeable Solutions,Solutions,Regard K RGP contact lens solution 3 Month Pack,Regard
1280,Advanced Eyecare,Solutions & Eye Care,SL - Gas Permeable Solutions,Solutions,Regard K RGP Solution Luxury Travel Bag,Regard
1279,Advanced Eyecare,Solutions & Eye Care,SL - Multi-purpose Solutions,Solutions,Regard Luxury Soft Lens Travel Bag,Regard
1281,Advanced Eyecare,Solutions & Eye Care,EC - Eye Drops,Solutions,Reset Eye Drops,Reset
2350,Advanced Eyecare,Solutions & Eye Care,EC - Eye Drops,Accessories,Wet Therapy Eye Drops, 
1096,Alcon,Contact Lenses,CL - Monthlies,Monthly SIHI Tor,Air Optix for Astigmatism,Air Optix Optix
2414,Alcon,Contact Lenses,CL - Monthlies,Monthly SIHI Sph,Air Optix plus HydraGlyde,Air Optix Optix
3184,Alcon,Contact Lenses,CL - Monthlies,Monthly SIHI Multi,Air Optix plus HydraGlyde Multifocal,Air Optix Optix
1178,Alcon,Solutions & Eye Care,EC - Eye Drops,Drops,Clens 100,Clens
1109,Alcon,Contact Lenses,CL - Daily,Daily HY Sph,Dailies AquaComfort Plus,Dailies
2339,Alcon,Contact Lenses,CL - Daily,Daily HY Multi,Dailies AquaComfort Plus Multifocal,Dailies
2341,Alcon,Contact Lenses,CL - Daily,Daily HY Tor,Dailies AquaComfort Plus Toric,Dailies
2298,Alcon,Contact Lenses,CL - Daily,Daily SIHI Sph,Dailies Total 1,Dailies
1316,Alcon,Solutions & Eye Care,EC - Ocular Vitamins,Other,ICaps One-A-Day,
1143,Alcon,Solutions & Eye Care,EC - Ocular Vitamins,Other,ICaps Original,
1214,Alcon,Solutions & Eye Care,SL - Multi-purpose Solutions,Solutions,Opti-Free Express Duo Pack,Opti-Free
1215,Alcon,Solutions & Eye Care,SL - Multi-purpose Solutions,Solutions,Opti-Free Express Travel,Opti-Free
1362,Alcon,Solutions & Eye Care,SL - Multi-purpose Solutions,Solutions,Opti-Free Puremoist (formerly Evermoist) Duo Pack,Opti-Free
1363,Alcon,Solutions & Eye Care,SL - Multi-purpose Solutions,Solutions,Opti-Free Puremoist (formerly Evermoist) Flight Pack,Opti-Free
1217,Alcon,Solutions & Eye Care,EC - Dry Eye Treatments,Drops,Opti-Free RepleniSH Convenience,Opti-Free
1216,Alcon,Solutions & Eye Care,SL - Multi-purpose Solutions,Solutions,Opti-Free RepleniSH Duo Pack,Opti-Free
1287,Alcon,Solutions & Eye Care,SL - Multi-purpose Solutions,Solutions,Opti-Free RepleniSH Flight Pack,Opti-Free
1179,Alcon,Solutions & Eye Care,EC - Hygiene & Lid Care,Spectacles,Supranettes,
1374,Alcon,Solutions & Eye Care,EC - Dry Eye Treatments,Solutions,Systane Balance Bottle,Systane
1180,Alcon,Solutions & Eye Care,EC - Dry Eye Treatments,Drops,Systane Bottle,Systane
1375,Alcon,Solutions & Eye Care,EC - Dry Eye Treatments,Drops,Systane Gel Drops Bottle,Systane
1364,Alcon,Solutions & Eye Care,EC - Dry Eye Treatments,Drops,Systane Ultra Bottle,Systane
1365,Alcon,Solutions & Eye Care,EC - Dry Eye Treatments,Drops,Systane Ultra Vials,Systane
1181,Alcon,Solutions & Eye Care,EC - Dry Eye Treatments,Drops,Systane Vials,Systane
1145,Allergan,Solutions & Eye Care,EC - Eye Drops,Drops,Refresh Contacts Bottle,Refresh
1146,Allergan,Solutions & Eye Care,EC - Eye Drops,Drops,Refresh Contacts Vials,Refresh
1203,Altacor,Solutions & Eye Care,EC - Dry Eye Treatments,Drops,Clinitas Hydrate,Clinitas
1204,Altacor,Solutions & Eye Care,EC - Dry Eye Treatments,Drops,Clinitas Soothe,Clinitas
2360,Altacor,Solutions & Eye Care,EC - Dry Eye Treatments,Drops,Clinitas Soothe Multi,Clinitas
2404,Altacor,Solutions & Eye Care,EC - Eye Drops,Drops,Clinitas Soothe Sample pack,Clinitas
1205,Altacor,Solutions & Eye Care,EC - Dry Eye Treatments,Drops,Clinitas Ultra 3,Clinitas
2306,Altacor,Solutions & Eye Care,EC - Ocular Vitamins,Other,Eye Bar,
2330,Altacor,Other,Other,Other,Eye Bar (Promotional),
2307,Altacor,Solutions & Eye Care,EC - Ocular Vitamins,Other,Eye Tabs,
2609,American Freshman,Sunglasses,Sunglasses,Spectacles,American Freshman AFS002 Retro Plastic In Crystal Red,
2610,American Freshman,Sunglasses,Sunglasses,Spectacles,American Freshman AFS003 Retro Plastic In Matte Black,
2611,American Freshman,Sunglasses,Sunglasses,Spectacles,American Freshman AFS004 Retro Plastic In Dark Demi,
2612,American Freshman,Sunglasses,Sunglasses,Spectacles,American Freshman AFS005 Fashion Round In Brown Demi,
2613,American Freshman,Sunglasses,Sunglasses,Spectacles,American Freshman AFS006 Fashion Round In Matte Crystal Pink,
2615,American Freshman,Sunglasses,Sunglasses,Spectacles,American Freshman AFS008 Glamour Square In Black,
2616,American Freshman,Sunglasses,Sunglasses,Spectacles,American Freshman AFS009 Glamour Square In Demi/Light Blue,
2617,American Freshman,Sunglasses,Sunglasses,Spectacles,American Freshman AFS010 Glamour Square In Brown To Pink Gradient,
2618,American Freshman,Sunglasses,Sunglasses,Spectacles,American Freshman AFS011 Soft Cateye Square In Milky Coral,
2619,American Freshman,Sunglasses,Sunglasses,Spectacles,American Freshman AFS012 Soft Cateye Square In Brown Demi W/Purple,
2620,American Freshman,Sunglasses,Sunglasses,Spectacles,American Freshman AFS013 Soft Cateye Square In Blue & Purple Tort,
2621,American Freshman,Sunglasses,Sunglasses,Spectacles,American Freshman AFS014 Plastic Preppy In Amber Demi,
2622,American Freshman,Sunglasses,Sunglasses,Spectacles,American Freshman AFS015 Plastic Preppy In Clear,
2623,American Freshman,Sunglasses,Sunglasses,Spectacles,American Freshman AFS016 Plastic Preppy In Crystal Pink,
2624,American Freshman,Sunglasses,Sunglasses,Spectacles,American Freshman AFS017 Cateye In Red Marble,
2625,American Freshman,Sunglasses,Sunglasses,Spectacles,American Freshman AFS018 Cateye In Dark Demi,
2626,American Freshman,Sunglasses,Sunglasses,Spectacles,American Freshman AFS019 Cateye In Black W/Print Inside,
2627,American Freshman,Sunglasses,Sunglasses,Spectacles,American Freshman AFS020 Plastic/Metal Preppy In Crystal Nude,
2628,American Freshman,Sunglasses,Sunglasses,Spectacles,American Freshman AFS021 Plastic/Metal Preppy In Black,
2629,American Freshman,Sunglasses,Sunglasses,Spectacles,American Freshman AFS022 Plastic/Metal Preppy In Matte Brown Demi,
2630,American Freshman,Sunglasses,Sunglasses,Spectacles,American Freshman AFS023 Classic Metal Aviator In Light Gold,
2631,American Freshman,Sunglasses,Sunglasses,Spectacles,American Freshman AFS024 Classic Metal Aviator In Matte Dark Gun,
2632,American Freshman,Sunglasses,Sunglasses,Spectacles,American Freshman AFS025 Classic Metal Aviator In Pink To Gold Grad,
2633,American Freshman,Sunglasses,Sunglasses,Spectacles,American Freshman AFS026 Plastic & Metal Combination In Marble Effect/Light Gun,
2634,American Freshman,Sunglasses,Sunglasses,Spectacles,American Freshman AFS027 Plastic & Metal Combination In Demi/Gold,
2635,American Freshman,Sunglasses,Sunglasses,Spectacles,American Freshman AFS028 Plastic & Metal Combination In Black & Orange/Gun,
2636,American Freshman,Sunglasses,Sunglasses,Spectacles,American Freshman AFS029 Metal Rectangle Aviator In Light Gun,
2637,American Freshman,Sunglasses,Sunglasses,Spectacles,American Freshman AFS030 Metal Rectangle Aviator In Light Gold,
2638,American Freshman,Sunglasses,Sunglasses,Spectacles,American Freshman AFS031 Metal Rectangle Aviator In Matte Black,
1188,Abott,Solutions & Eye Care,EC - Dry Eye Treatments,Drops,Blink Contacts Bottle,Blink
1189,Abott,Solutions & Eye Care,EC - Dry Eye Treatments,Drops,Blink Contacts Vials,Blink
3167,Abott,Solutions & Eye Care,EC - Eye Drops,Drops,Blink Contacts Vials (promotional),Blink
1192,Abott,Solutions & Eye Care,EC - Dry Eye Treatments,Drops,Blink Intensive Tears Bottle,Blink
1193,Abott,Solutions & Eye Care,EC - Dry Eye Treatments,Drops,Blink Intensive Tears Vials,Blink
3175,Abott,Other,Other,Drops,Blink Intensive Tears Vials (promotional),Blink
1196,Abott,Solutions & Eye Care,EC - Dry Eye Treatments,Drops,Blink Refreshing Bottle,Blink
1197,Abott,Solutions & Eye Care,EC - Dry Eye Treatments,Drops,Blink Refreshing Vials,Blink
1194,Abott,Solutions & Eye Care,EC - Dry Eye Treatments,Drops,Blink-n-clean,Blink
1206,Abott,Solutions & Eye Care,SL - Multi-purpose Solutions,Solutions,Complete Multi-Purpose Solution,Complete
1389,Abott,Solutions & Eye Care,SL - Multi-purpose Solutions,Solutions,Complete Multi-Purpose Solution (3 for 2 offer),Complete
2296,Abott,Solutions & Eye Care,SL - Multi-purpose Solutions,Solutions,Complete RevitaLens,Complete
2354,Abott,Solutions & Eye Care,SL - Multi-purpose Solutions,Solutions,Complete RevitaLens Multipurpose Solution,Complete
2297,Abott,Solutions & Eye Care,SL - Multi-purpose Solutions,Solutions,Complete RevitaLens Travel Pack,Complete
1207,Abott,Solutions & Eye Care,SL - Travel Packs,Solutions,Complete Travel Pack,Complete
1325,Abott,Solutions & Eye Care,SL - Travel Packs,Solutions,Complete Travel Pack (Free),Complete
1260,Abott,Solutions & Eye Care,SL - Travel Packs,Solutions,Complete Twin Flight Pack,Complete
1182,Abott,Solutions & Eye Care,SL - Cleaners & Salines,Solutions,Lens Plus Ocupure Saline Large,Ocupure
1323,Abott,Solutions & Eye Care,SL - Travel Packs,Solutions,Oxysept 1 Step Travel Case,Oxysept
1324,Abott,Solutions & Eye Care,SL - Travel Packs,Solutions,Oxysept 1 Step Travel Case (Free),Oxysept
1183,Abott,Solutions & Eye Care,SL - Hydrogen Peroxide,Solutions,Oxysept 1Step,Oxysept
1388,Abott,Other,Other,Solutions,Oxysept 1Step (3 for 2 offer),Oxysept
1184,Abott,Solutions & Eye Care,SL - Gas Permeable Solutions,Spectacles,Total Care Cleaner,Total Care
2265,Abott,Solutions & Eye Care,EC - Hygiene & Lid Care,Solutions,Total Care Contact Lens Case,Total Care
1186,Abott,Solutions & Eye Care,SL - Gas Permeable Solutions,Accessories,Total Care Multipack,Total Care
1390,Abott,Solutions & Eye Care,SL - Multi-purpose Solutions,Solutions,Total Care Multipack (3 for 2 offer),Total Care
1185,Abott,Solutions & Eye Care,SL - Gas Permeable Solutions,Solutions,Total Care Wetting,Total Care
1187,Abott,Solutions & Eye Care,SL - Cleaners & Salines,Other,Ultrazyme Universal,Ultrazyme
2573,Animal,Sunglasses,Sunglasses,Spectacles,Animal ANI001 Black Rodeo Plastic Wrap,
2574,Animal,Sunglasses,Sunglasses,Spectacles,Animal ANI002 Tort Rodeo Plastic Wrap,
2576,Animal,Sunglasses,Sunglasses,Spectacles,Animal ANI003 Black Fly Square Plastic Retro,
2577,Animal,Sunglasses,Sunglasses,Spectacles,Animal ANI004 Tort Fly Square Plastic Retro,
2580,Animal,Sunglasses,Sunglasses,Spectacles,Animal ANI005 Black Air Grooved Temple,
2581,Animal,Sunglasses,Sunglasses,Spectacles,Animal ANI006 Black Air Grooved Temple,
2582,Animal,Sunglasses,Sunglasses,Spectacles,Animal ANI007 Black Charge Square Plastic Wrap,
2583,Animal,Sunglasses,Sunglasses,Spectacles,Animal ANI008 Tort Charge Square Plastic Wrap,
2584,Animal,Sunglasses,Sunglasses,Spectacles,Animal ANI009 Black Pipe Oval Plastic Wrap,
2585,Animal,Sunglasses,Sunglasses,Spectacles,Animal ANI010 Grey Pipe Oval Plastic Wrap,
2588,Animal,Sunglasses,Sunglasses,Spectacles,Animal ANI011 Brown Carve Metal Trim,
2589,Animal,Sunglasses,Sunglasses,Spectacles,Animal ANI012 Black Carve Metal Trim,
2590,Animal,Sunglasses,Sunglasses,Spectacles,Animal ANI013 Bronze Edge Flat Sheet Metal Wrap,
2591,Animal,Sunglasses,Sunglasses,Spectacles,Animal ANI014 Gunmetal Metal Edge Flat Sheet Metal Wrap,
2594,Animal,Sunglasses,Sunglasses,Spectacles,Animal ANI015 Grey Demi Chased TR90 Polarised Wrap,
2595,Animal,Sunglasses,Sunglasses,Spectacles,Animal ANI016 White Chased TR90 Polarised Wrap,
2596,Animal,Sunglasses,Sunglasses,Spectacles,Animal ANI017 Blue Endo Polarised Plastic Aviator,
2597,Animal,Sunglasses,Sunglasses,Spectacles,Animal ANI018 Tort Endo Polarised Plastic Aviator,
2598,Animal,Sunglasses,Sunglasses,Spectacles,Animal ANI019 Black Cab TR90 Polarised Wide Temple,
2599,Animal,Sunglasses,Sunglasses,Spectacles,Animal ANI020 Tort Cab TR90 Polarised Wide Temple,
2601,Animal,Sunglasses,Sunglasses,Spectacles,Animal ANI021 Gunmetal Metal Cork Aviator,
2602,Animal,Sunglasses,Sunglasses,Spectacles,Animal ANI022 Brown Cork Aviator,
2603,Animal,Sunglasses,Sunglasses,Spectacles,Animal ANI023 Gunmetal Metal Whip Square Wrap,
2604,Animal,Sunglasses,Sunglasses,Spectacles,Animal ANI024 Black Whip Square Wrap,
2606,Animal,Sunglasses,Sunglasses,Spectacles,Animal ANI026 Brown Vert Oval Metal,
2607,Animal,Sunglasses,Sunglasses,Spectacles,Animal ANI027 Grey Rip Rectangle Metal Wrap,
2608,Animal,Sunglasses,Sunglasses,Spectacles,Animal ANI028 Brown Rip Rectangle Metal Wrap,
2578,Animal,Sunglasses,Sunglasses,Spectacles,Animal ANI030 Crystal Rose Pop Butterfly,
2600,Animal,Sunglasses,Sunglasses,Spectacles,Animal ANI036 Gold Line Metal and Plastic Aviator,
1371,Asda,Solutions & Eye Care,SL - Multi-purpose Solutions,Solutions,ASDA All In One Solution Bottle, 
1379,Asda,Solutions & Eye Care,SL - Multi-purpose Solutions,Solutions,ASDA All In One Solution for RGP/Hard Contact Lens, 
1387,Asda,Solutions & Eye Care,SL - Multi-purpose Solutions,Solutions,ASDA All In One Superior Formula Contact Lens Solution, 
1370,Asda,Contact Lenses,CL - Daily,Daily HY Sph,ASDA Dailies Own Brand, 
1381,Asda,Solutions & Eye Care,EC - Eye Drops,Drops,ASDA Dry Eye Drops, 
1383,Asda,Solutions & Eye Care,EC - Eye Drops,Drops,ASDA Dry Eye Spray, 
1384,Asda,Solutions & Eye Care,EC - Eye Drops,Drops,ASDA Natural Brightening Eye Drops, 
1380,Asda,Solutions & Eye Care,SL - Multi-purpose Solutions,Solutions,ASDA Saline Solution, 
1377,Asda,Solutions & Eye Care,EC - Eye Drops,Drops,Solution,Solocare
1377,Asda,Solutions & Eye Care,SL - Multi-purpose Solutions,Solutions,Solution,
2254,Bausch & Lomb,Other,Other,Other,Ad-hoc Shipment B&L, 
2278,Bausch & Lomb,Solutions & Eye Care,EC - Dry Eye Treatments,Drops,Artelac Nighttime Gel,Artelac
2277,Bausch & Lomb,Solutions & Eye Care,EC - Dry Eye Treatments,Drops,Artelac Rebalance,Artelac
3160,Bausch & Lomb,Contact Lenses,CL - Monthlies,Monthly SIHI Sph,Bausch and Lomb Ultra,Ultra
3161,Bausch & Lomb,Contact Lenses,CL - Monthlies,Monthly SIHI Multi,Bausch and Lomb Ultra for Presbyopia,Ultra
1360,Bausch & Lomb,Solutions & Eye Care,SL - Multi-purpose Solutions,Solutions,Biotrue (60 ml) - A Free Gift from GetLenses,Biotrue
1349,Bausch & Lomb,Solutions & Eye Care,SL - Multi-purpose Solutions,Solutions,Biotrue Duo Pack,Biotrue
2343,Bausch & Lomb,Contact Lenses,CL - Daily,Daily HY Sph,Biotrue ONEday,Biotrue
2364,Bausch & Lomb,Contact Lenses,CL - Daily,Daily SIHI Multi,Biotrue ONEday for Presbyopia,Biotrue
1258,Bausch & Lomb,Solutions & Eye Care,SL - Gas Permeable Solutions,Solutions,Boston Advance Cleaner,Boston
1201,Bausch & Lomb,Solutions & Eye Care,SL - Gas Permeable Solutions,Solutions,Boston Advance Conditioning Solution,Boston
1200,Bausch & Lomb,Solutions & Eye Care,SL - Gas Permeable Solutions,Solutions,Boston Advance Multipack,Boston
1319,Bausch & Lomb,Solutions & Eye Care,EC - Hygiene & Lid Care,Accessories,Boston RGP Contact Lens Case,Boston
1202,Bausch & Lomb,Solutions & Eye Care,SL - Gas Permeable Solutions,Solutions,Boston Simplus,Boston
1228,Bausch & Lomb,Solutions & Eye Care,SL - Gas Permeable Solutions,Solutions,Boston Simplus Flight Pack,Boston
1190,Bausch & Lomb,Solutions & Eye Care,SL - Hydrogen Peroxide,Solutions,EasySept,EasySept
2408,Bausch & Lomb,Solutions & Eye Care,SL - Cleaners & Salines,Drops,EasySept Hydro+,EasySept
2407,Bausch & Lomb,Solutions & Eye Care,SL - Gas Permeable Solutions,Solutions,EasySept Hydro+ 3 Month Pack,EasySept
1191,Bausch & Lomb,Solutions & Eye Care,EC - Eye Drops,Drops,Hycosan Moisture Drops,Hycosan
1262,Bausch & Lomb,Solutions & Eye Care,EC - Ocular Vitamins,Other,Ocuvite Complete,Ocuvite
1195,Bausch & Lomb,Solutions & Eye Care,EC - Ocular Vitamins,Other,Ocuvite Lutein,Ocuvite
1276,Bausch & Lomb,Contact Lenses,CL - Yearly,Yearly Tor,Optima Toric,Optima
1218,Bausch & Lomb,Solutions & Eye Care,EC - Ocular Vitamins,Other,PreserVision Lutein Soft Gels,PreserVision
1219,Bausch & Lomb,Solutions & Eye Care,EC - Ocular Vitamins,Other,PreserVision Original Soft Gels,PreserVision
1220,Bausch & Lomb,Solutions & Eye Care,EC - Ocular Vitamins,Other,PreserVision Tablets,PreserVision
1133,Bausch & Lomb,Contact Lenses,CL - Monthlies,Monthly SIHI Sph,PureVision,PureVision
1310,Bausch & Lomb,Contact Lenses,CL - Monthlies,Monthly SIHI Sph,PureVision (Free),PureVision
1132,Bausch & Lomb,Contact Lenses,CL - Monthlies,Monthly SIHI Sph,PureVision Multifocal,PureVision
1312,Bausch & Lomb,Contact Lenses,CL - Monthlies,Monthly SIHI Multi,PureVision Multifocal (Free),PureVision
1134,Bausch & Lomb,Contact Lenses,CL - Monthlies,Monthly SIHI Multi,PureVision Toric,PureVision
1329,Bausch & Lomb,Contact Lenses,CL - Monthlies,Monthly SIHI Tor,PureVision Toric (Free),PureVision
1373,Bausch & Lomb,Contact Lenses,CL - Monthlies,Monthly SIHI Tor,PureVision2,PureVision
1376,Bausch & Lomb,Contact Lenses,CL - Monthlies,Monthly SIHI Sph,PureVision2 (Free),PureVision
1392,Bausch & Lomb,Contact Lenses,CL - Monthlies,Monthly SIHI Sph,PureVision2 for Astigmatism,PureVision
1398,Bausch & Lomb,Contact Lenses,CL - Monthlies,Monthly SIHI Tor,PureVision2 for Astigmatism (Free),PureVision
2346,Bausch & Lomb,Contact Lenses,CL - Monthlies,Monthly SIHI Tor,PureVision2 for Presbyopia,PureVision
1221,Bausch & Lomb,Solutions & Eye Care,EC - Eye Drops,Drops,ReNu Comfort Drops,Renu
1222,Bausch & Lomb,Solutions & Eye Care,SL - Multi-purpose Solutions,Drops,Renu MPS Multi-Purpose Flight Pack,ReNu
1223,Bausch & Lomb,Solutions & Eye Care,SL - Multi-purpose Solutions,Solutions,Renu MPS Multi-Purpose Solution,Renu
2266,Bausch & Lomb,Solutions & Eye Care,SL - Multi-purpose Solutions,Solutions,Renu MPS Multi-Purpose Solution Flat Pack,Renu
1326,Bausch & Lomb,Solutions & Eye Care,SL - Multi-purpose Solutions,Solutions,Renu MultiPlus Multi-Purpose Solution,Renu
1198,Bausch & Lomb,Solutions & Eye Care,SL - Cleaners & Salines,Drops,Sensitive Eyes,
1138,Bausch & Lomb,Contact Lenses,CL - Monthlies,Monthly HY Sph,SofLens 38,SofLens
1139,Bausch & Lomb,Contact Lenses,CL - Monthlies,Monthly HY Sph,SofLens 59,SofLens
1300,Bausch & Lomb,Contact Lenses,CL - Monthlies,Monthly HY Sph,SofLens 59 (Free),SofLens
1328,Bausch & Lomb,Contact Lenses,CL - Monthlies,Monthly HY Sph,SofLens 66 Toric (Free),SofLens
1136,Bausch & Lomb,Contact Lenses,CL - Daily,Monthly HY Tor,SofLens Daily Disposable,SofLens
1291,Bausch & Lomb,Contact Lenses,CL - Daily,Daily HY Sph,Soflens Daily Disposable (Free),Soflens
1137,Bausch & Lomb,Contact Lenses,CL - Daily,Daily HY Sph,SofLens Daily for Astigmatism,Soflens
1327,Bausch & Lomb,Contact Lenses,CL - Daily,Daily HY Tor,Soflens Daily for Astigmatism (Free),Soflens
1140,Bausch & Lomb,Contact Lenses,CL - Monthlies,Daily HY Tor,SofLens Multifocal,Soflens
1313,Bausch & Lomb,Contact Lenses,CL - Monthlies,Monthly SIHI Multi,SofLens Multifocal (Free),SofLens
2312,Bausch & Lomb,Contact Lenses,CL - Monthlies,Monthly HY Multi,SofLens Natural Colors,SofLens
1135,Bausch & Lomb,Contact Lenses,CL - Monthlies,Monthly Col,SofLens Toric,SofLens
2639,Ben Sherman,Sunglasses,Sunglasses,Spectacles,Ben Sherman BEN001 Textured Temple Plastic In Black,
2640,Ben Sherman,Sunglasses,Sunglasses,Spectacles,Ben Sherman BEN002 Textured Temple Plastic In Black To Clear,
2641,Ben Sherman,Sunglasses,Sunglasses,Spectacles,Ben Sherman BEN003 Textured Temple Plastic In Crystal Brown,
2642,Ben Sherman,Sunglasses,Sunglasses,Spectacles,Ben Sherman BEN004 Tapered Temple Metal Aviator In Dark Gunmetal,
2643,Ben Sherman,Sunglasses,Sunglasses,Spectacles,Ben Sherman BEN005 Tapered Temple Metal Aviator In Matte Silver,
2644,Ben Sherman,Sunglasses,Sunglasses,Spectacles,Ben Sherman BEN006 Tapered Temple Metal Aviator In Brushed Gunmetal,
2646,Ben Sherman,Sunglasses,Sunglasses,Spectacles,Ben Sherman BEN008 Preppy Plastic With Skinny Metal Temple In Tort,
2647,Ben Sherman,Sunglasses,Sunglasses,Spectacles,Ben Sherman BEN010 Teardrop Aviator In Dark Gunmetal,
2648,Ben Sherman,Sunglasses,Sunglasses,Spectacles,Ben Sherman BEN011 Teardrop Aviator In Grey,
2649,Ben Sherman,Sunglasses,Sunglasses,Spectacles,Ben Sherman BEN012 Teardrop Aviator In Brushed Gunmetal,
2650,Ben Sherman,Sunglasses,Sunglasses,Spectacles,Ben Sherman BEN019 Fine Frame Metal Square In Grey,
2651,Ben Sherman,Sunglasses,Sunglasses,Spectacles,Ben Sherman BEN020 Fine Frame Metal Square In Dark Gunmetal,
2652,Ben Sherman,Sunglasses,Sunglasses,Spectacles,Ben Sherman BEN021 Fine Frame Metal Square In Brushed Gunmetal,
2653,Ben Sherman,Sunglasses,Sunglasses,Spectacles,Ben Sherman BEN022 Rectangle Plastic With Metal Trim In Dark Tort,
2654,Ben Sherman,Sunglasses,Sunglasses,Spectacles,Ben Sherman BEN023 Rectangle Plastic With Metal Trim In Black Stripy Brown,
2655,Ben Sherman,Sunglasses,Sunglasses,Spectacles,Ben Sherman BEN024 Rectangle Plastic With Metal Trim In Black Xtal Blue,
2656,Ben Sherman,Sunglasses,Sunglasses,Spectacles,Ben Sherman BEN025 Flat Sheet Rectangle In Dark Gunmetal,
2657,Ben Sherman,Sunglasses,Sunglasses,Spectacles,Ben Sherman BEN026 Flat Sheet Rectangle In Matte Black,
2658,Ben Sherman,Sunglasses,Sunglasses,Spectacles,Ben Sherman BEN027 Flat Sheet Rectangle In Matte Brown,
2660,Ben Sherman,Sunglasses,Sunglasses,Spectacles,Ben Sherman BEN029 Checked Temple Metal In Matte Black Silver,
2661,Ben Sherman,Sunglasses,Sunglasses,Spectacles,Ben Sherman BEN030 Checked Temple Metal In Matte Brown Matte Gold,
1322,Cantor & Nissell,Contact Lenses,CL - Yearly,Yearly Sph,Lunelle Solaire,Lunelle
2252,Alcon,Other,Other,Other,Ad-hoc Shipment Ciba, 
1095,Alcon,Contact Lenses,CL - Monthlies,Monthly SIHI Sph,Air Optix,Air Optix
1092,Alcon,Contact Lenses,CL - Monthlies,Monthly SIHI Sph,Air Optix Aqua,Air Optix
1307,Alcon,Contact Lenses,CL - Monthlies,Monthly SIHI Sph,Air Optix Aqua (Free),Air Optix
1093,Alcon,Contact Lenses,CL - Monthlies,Monthly SIHI Multi,Air Optix Aqua Multifocal,Air Optix
1315,Alcon,Contact Lenses,CL - Monthlies,Monthly SIHI Multi,Air Optix Aqua Multifocal (Free),Air Optix
2338,Alcon,Contact Lenses,CL - Monthlies,Monthly Col,Air Optix Colors,Air Optix
1305,Alcon,Contact Lenses,CL - Monthlies,Monthly SIHI Tor,Air Optix for Astigmatism (Free),Air Optix
1308,Alcon,Contact Lenses,CL - Monthlies,Monthly SIHI Sph,Air Optix Night & Day (Free),Air Optix
1094,Alcon,Contact Lenses,CL - Monthlies,Monthly SIHI Sph,Air Optix Night & Day Aqua,Air Optix
1208,Alcon,Solutions & Eye Care,SL - Hydrogen Peroxide,Solutions,AOsept Plus,AOsept
2410,Alcon,Solutions & Eye Care,SL - Hydrogen Peroxide,Solutions,AOsept Plus HydraGlyde,AOsept
1236,Alcon,Other,Other,Yearly Sph,Cibasoft Visitint,Cibasoft
1288,Alcon,Contact Lenses,CL - Daily,Daily HY Sph ,Dailies AquaComfort Plus (Free),Dailies
3126,Alcon,Contact Lenses,CL - Daily,Daily SIHI Multi,Dailies Total 1 Multifocal,Dailies
1237,Alcon,Contact Lenses,CL - Yearly,Yearly Sph,Durasoft 3 Litetint,Durasoft
1238,Alcon,Contact Lenses,CL - Yearly,Yearly Tor,Durasoft 3 Optifit Toric,Durasoft
2332,Alcon,Contact Lenses,CL - Monthlies,Monthly SIHI Multi,Easyvision Monthly Irisian Multifocal (Air Optix Aqua Multifocal),Easyvision
1211,Alcon,Solutions & Eye Care,EC - Eye Drops,Drops,Focus Aquify,Aquify
1108,Alcon,Contact Lenses,CL - Daily,Daily HY Sph,Focus Dailies All Day Comfort,Dailies
1286,Alcon,Contact Lenses,CL - Daily,Daily HY Sph,Focus Dailies All Day Comfort (Free),Dailies
1107,Alcon,Other,Other,Daily HY Sph,Focus Dailies Basic,Dailies
1116,Alcon,Contact Lenses,CL - Daily,Daily HY Multi,Focus Dailies Progressive,Dailies
1289,Alcon,Contact Lenses,CL - Daily,Daily HY Multi,Focus Dailies Progressive (Free),Dailies
1113,Alcon,Contact Lenses,CL - Daily,Daily HY Tor,Focus Dailies Toric,Dailies
1290,Alcon,Contact Lenses,CL - Daily,Daily HY Tor,Focus Dailies Toric (Free),Dailies
1111,Alcon,Contact Lenses,CL - Monthlies,Monthly HY Multi,Focus Progressives,Focus
1264,Alcon,Contact Lenses,CL - Monthlies,Daily HY Multi,Focus Softcolors,Focus
1112,Alcon,Contact Lenses,CL - Monthlies,Daily HY Tor,Focus Toric,Focus
1110,Alcon,Contact Lenses,CL - Monthlies,Monthly HY Sph,Focus Visitint,Focus
1121,Alcon,Contact Lenses,CL - Monthlies,Monthly Col,FreshLook Colorblends,FreshLook
1115,Alcon,Contact Lenses,CL - Monthlies,Monthly Col,FreshLook Colors,FreshLook
1122,Alcon,Contact Lenses,CL - Monthlies,Monthly Col,FreshLook Dimensions,FreshLook
2311,Alcon,Contact Lenses,CL - Daily,Daily Col,FreshLook Illuminate,FreshLook
1114,Alcon,Contact Lenses,CL - Daily,Daily Col,FreshLook One Day,FreshLook
1123,Alcon,Contact Lenses,CL - Monthlies,Daily Col,FreshLook Radiance,FreshLook
1400,Alcon,Contact Lenses,CL - Daily,Daily Col,FreshLook Singles,FreshLook
1209,Alcon,Solutions & Eye Care,SL - Cleaners & Salines,Drops,Miraflow,Miraflow
1267,Alcon,Contact Lenses,CL - Yearly,Yearly Sph,Permalens,Permalens
1130,Alcon,Contact Lenses,CL - Monthlies,Monthly HY Sph,Precision UV,Precision UV
1298,Alcon,Contact Lenses,CL - Monthlies,Monthly HY Sph,Precision UV (Free),Precision UV
1239,CLPL,Contact Lenses,CL - Yearly,Yearly Sph,Hydron Mini Sphere,Hydron
1242,CLPL,Contact Lenses,CL - Yearly,Yearly Sph,Hydron Omniflex Softints,Hydron
2363,CLPL,Contact Lenses,CL - Yearly,Yearly Sph,Hydron Z6 RX,Hydron
1321,CLPL,Contact Lenses,CL - Yearly,Yearly Sph,Hydron Z6 Tint,Hydron
1091,Coopervision,Solutions & Eye Care,SL - Cleaners & Salines,Drops,Actifresh 400,Actifresh
2255,Coopervision,Other,Other,Other,Ad-hoc Shipment Coopervision, 
1098,Coopervision,Contact Lenses,CL - Monthlies,Monthly SIHI Sph,Avaira,Avaira
1301,Coopervision,Contact Lenses,CL - Monthlies,Monthly SIHI Sph,Avaira (Free),Avaira
2269,Coopervision,Contact Lenses,CL - Monthlies,Monthly SIHI Tor,Avaira Toric,Avaira
2272,Coopervision,Contact Lenses,CL - Monthlies,Monthly SIHI Tor,Avaira Toric (Free),Avaira
3127,Coopervision,Contact Lenses,CL - Monthlies,Monthly SIHI Sph,Avaira Vitality,Avaira
3169,Coopervision,Contact Lenses,CL - Monthlies,Monthly SIHI Tor,Avaira Vitality Toric,Avaira
1099,Coopervision,Contact Lenses,CL - Monthlies,Monthly SIHI Sph,Biofinity,Biofinity
1302,Coopervision,Contact Lenses,CL - Monthlies,Monthly SIHI Sph,Biofinity (Free),Biofinity
3177,Coopervision,Contact Lenses,CL - Monthlies,Monthly HY Sph,Biofinity Energys,Biofinity
1405,Coopervision,Contact Lenses,CL - Monthlies,Monthly SIHI Multi,Biofinity Multifocal,Biofinity
1881,Coopervision,Contact Lenses,CL - Monthlies,Monthly SIHI Multi,Biofinity Multifocal (Free),Biofinity
1100,Coopervision,Contact Lenses,CL - Monthlies,Monthly SIHI Tor,Biofinity Toric,Biofinity
1306,Coopervision,Contact Lenses,CL - Monthlies,Monthly SIHI Tor,Biofinity Toric (Free),Biofinity
2310,Coopervision,Contact Lenses,CL - Monthlies,Monthly SIHI Tor,Biofinity XR,Biofinity
1101,Coopervision,Contact Lenses,CL - Daily,Daily HY Sph,Biomedics 1 Day,Biomedics
1292,Coopervision,Contact Lenses,CL - Daily,Daily HY Sph,Biomedics 1 Day (Free),Biomedics
1882,Coopervision,Contact Lenses,CL - Daily,Daily HY Sph,Biomedics 1 Day Extra,Biomedics
1887,Coopervision,Contact Lenses,CL - Daily,Daily HY Sph,Biomedics 1 Day Extra (Free),Biomedics
2227,Coopervision,Contact Lenses,CL - Daily,Daily HY Tor,Biomedics 1 Day Extra Toric,Biomedics
1102,Coopervision,Contact Lenses,CL - Daily,Daily HY Tor,Biomedics 1 Day Toric,Biomedics
1293,Coopervision,Contact Lenses,CL - Daily,Daily HY Tor,Biomedics 1 Day Toric (Free),Biomedics
3147,Coopervision,Contact Lenses,CL - Monthlies,Monthly HY Sph,Biomedics 55 - Ultraflex 55,Biomedics
1103,Coopervision,Contact Lenses,CL - Monthlies,Monthly HY Sph,Biomedics 55 Evolution,Biomedics
1295,Coopervision,Contact Lenses,CL - Monthlies,Monthly HY Sph,Biomedics 55 Evolution (Free),Biomedics
3142,Coopervision,Contact Lenses,CL - Monthlies,Monthly HY Tor,Biomedics 55 Toric,Biomedics
1268,Coopervision,Contact Lenses,CL - Monthlies,Monthly HY Multi,Biomedics 73 Multifocal,Biomedics
1104,Coopervision,Contact Lenses,CL - Monthlies,Monthly HY Sph,Biomedics Toric,Biomedics
1402,Coopervision,Contact Lenses,CL - Monthlies,Monthly HY Tor,Biomedics Toric (Free),Biomedics
2302,Coopervision,Contact Lenses,CL - Monthlies,Monthly SIHI Sph,Clariti,Clariti
2301,Coopervision,Contact Lenses,CL - Daily,Daily SIHI Sph,Clariti 1 day,Clariti
2403,Coopervision,Contact Lenses,CL - Daily,Daily SIHI Multi,Clariti 1 Day Multifocal,Clariti
2413,Coopervision,Contact Lenses,CL - Daily,Daily SIHI Tor,Clariti 1 Day Toric,Clariti
3146,Coopervision,Contact Lenses,CL - Daily,Daily HY Sph,ClearSight 1 Day,ClearSight
3149,Coopervision,Contact Lenses,CL - Daily,Daily HY Tor,ClearSight 1 Day Toric,ClearSight
2336,Coopervision,Contact Lenses,CL - Yearly,Yearly Sph,Coopervision Essilor Lunelle,Lunelle
1256,Coopervision,Other,Other,Other,Edge III FW 55, 
1105,Coopervision,Contact Lenses,CL - Monthlies,Monthly Col,Expressions Accents,Expressions
1106,Coopervision,Contact Lenses,CL - Monthlies,Monthly Col,Expressions Colors,Expressions
1249,Coopervision,Contact Lenses,CL - Monthlies,Monthly HY Sph,Formula 55 UV, 
1117,Coopervision,Contact Lenses,CL - Monthlies,Monthly HY Sph,Frequency 55,Frequency
1296,Coopervision,Contact Lenses,CL - Monthlies,Monthly HY Sph,Frequency 55 (Free),Frequency
1118,Coopervision,Contact Lenses,CL - Monthlies,Monthly HY Sph,Frequency 55 Aspheric,Frequency
1297,Coopervision,Contact Lenses,CL - Monthlies,Monthly HY Sph,Frequency 55 Aspheric (Free),Frequency
3143,Coopervision,Contact Lenses,CL - Monthlies,Monthly HY Tor,Frequency 55 Toric,Frequency
1265,Coopervision,Contact Lenses,CL - Monthlies,Monthly HY Sph,Frequency XC,Frequency
1119,Coopervision,Contact Lenses,CL - Monthlies,Monthly HY Tor,Frequency Xcel Toric,Frequency
1303,Coopervision,Contact Lenses,CL - Monthlies,Monthly HY Tor,Frequency Xcel Toric (Free),Frequency
1120,Coopervision,Contact Lenses,CL - Monthlies,Monthly HY Tor,Frequency Xcel Toric XR,Frequency
1239,Coopervision,Contact Lenses,CL - Yearly,Yearly Sph,Hydron Mini Sphere,Hydron
1243,Coopervision,Contact Lenses,CL - Yearly,Yearly Sph,Hydron Omniflex,Hydron
1245,Coopervision,Contact Lenses,CL - Yearly,Yearly Tor,Hydron Omniflex Toric,Hydron
1244,Coopervision,Contact Lenses,CL - Yearly,Yearly Sph,Hydron Z6,Hydron
1320,Coopervision,Contact Lenses,CL - Yearly,Yearly Tor,Hydron Z6 Toric,Hydron
1345,Coopervision,Contact Lenses,CL - Yearly,Yearly Sph,Hydrosoft Spherical,Hydrosoft
1124,Coopervision,Other,Other,Other,Images Coloured Lenses, 
1251,Coopervision,Contact Lenses,CL - Yearly,Yearly Sph,Lunelle ES70 aka Spherique,Lunelle
1254,Coopervision,Contact Lenses,CL - Yearly,Yearly Tor,Lunelle ES70 Torics,Lunelle
1252,Coopervision,Contact Lenses,CL - Yearly,Yearly Sph,Lunelle ES70 with Handling Tint,Lunelle
2334,Coopervision,Contact Lenses,CL - Daily,Daily SIHI Sph,MyDay,MyDay
3180,Coopervision,Contact Lenses,CL - Daily,Daily SIHI Sph,MyDay Toric,MyDay
1250,Coopervision,Contact Lenses,CL - Yearly,Yearly Tor,Preference Toric,Preference
1126,Coopervision,Contact Lenses,CL - Monthlies,Monthly HY Sph,Proclear,Proclear
1125,Coopervision,Contact Lenses,CL - Daily,Daily HY Sph,Proclear 1 Day,Proclear
1294,Coopervision,Contact Lenses,CL - Daily,Daily HY Sph,Proclear 1 Day (Free),Proclear
1888,Coopervision,Contact Lenses,CL - Daily,Daily HY Multi,Proclear 1 Day Multifocal,Proclear
1911,Coopervision,Contact Lenses,CL - Daily,Daily HY Multi,Proclear 1 Day Multifocal (Free),Proclear
1299,Coopervision,Contact Lenses,CL - Monthlies,Monthly HY Sph,Proclear Compatibles (Free),Proclear
3145,Coopervision,Contact Lenses,CL - Monthlies,Monthly HY Sph,Proclear Compatibles 8.2,Proclear
1304,Coopervision,Contact Lenses,CL - Monthlies,Monthly HY Tor,Proclear Compatibles Toric (Free),Proclear
1127,Coopervision,Contact Lenses,CL - Monthlies,Monthly HY Multi,Proclear EP (Early presbyopia),Proclear
1314,Coopervision,Contact Lenses,CL - Monthlies,Monthly HY Multi,Proclear EP (Free),Proclear
1128,Coopervision,Contact Lenses,CL - Monthlies,Monthly HY Multi,Proclear Multifocal,Proclear
1311,Coopervision,Contact Lenses,CL - Monthlies,Monthly HY Multi,Proclear Multifocal (Free),Proclear
1235,Coopervision,Contact Lenses,CL - Monthlies,Monthly HY Multi,Proclear Multifocal Toric,Proclear
1233,Coopervision,Contact Lenses,CL - Monthlies,Monthly HY Multi,Proclear Multifocal XR,Proclear
1247,Coopervision,Contact Lenses,CL - Yearly,Yearly Sph,Proclear Sphere RX Vial,Proclear
1246,Coopervision,Contact Lenses,CL - Yearly,Yearly Sph,Proclear Sphere Vial,Proclear
1248,Coopervision,Contact Lenses,CL - Yearly,Yearly Tor,Proclear Tailor Made Toric Vial (DO NOT USE),Proclear
1318,Coopervision,Contact Lenses,CL - Yearly,Yearly Tor,Proclear Tailor Made Toric Vial Single Lens,Proclear
1129,Coopervision,Contact Lenses,CL - Monthlies,Monthly HY Tor,Proclear Toric,Proclear
1232,Coopervision,Contact Lenses,CL - Monthlies,Monthly HY Tor,Proclear Toric XR,Proclear
2409,Coopervision,Solutions & Eye Care,SL - Hydrogen Peroxide,Spectacles,Refine One Step,
1259,Coopervision,Other,Other,Other,Silver 7,
3144,Coopervision,Contact Lenses,CL - Two Weeklies,Spectacles,Vertex Toric (Encore Toric),
1342,Eye Care Cosmetics,Solutions & Eye Care,EC - Hypoallegenic Makeup,Accessories,Eye Care Conditioning (Ophthalmic) Mascara,Mascara
1339,Eye Care Cosmetics,Solutions & Eye Care,EC - Hypoallegenic Makeup,Accessories,Eye Cream (Hypoallergenic),Cream
1341,Eye Care Cosmetics,Solutions & Eye Care,EC - Hypoallegenic Makeup,Accessories,Eye Make Up Remover Lotion,Cream
1340,Eye Care Cosmetics,Solutions & Eye Care,EC - Hypoallegenic Makeup,Accessories,Eye make-up remover emulsion (hypoallergenic),Emulsion
1337,Eye Care Cosmetics,Solutions & Eye Care,EC - Hypoallegenic Makeup,Accessories,Eye Shadow Cream (High Tolerance Hypoallergenic),Cream
1338,Eye Care Cosmetics,Solutions & Eye Care,EC - Hypoallegenic Makeup,Accessories,Eye Shadow Cream (Long Lasting - hypoallergenic),Cream
1333,Eye Care Cosmetics,Solutions & Eye Care,EC - Hypoallegenic Makeup,Accessories,Fluid Eyeliner (Hypoallergenic),Eyeliner
1336,Eye Care Cosmetics,Solutions & Eye Care,EC - Hypoallegenic Makeup,Accessories,Gentle Mascara (Hypoallergenic),Mascara
1334,Eye Care Cosmetics,Solutions & Eye Care,EC - Hypoallegenic Makeup,Accessories,High Tolerance Mascara (Hypoallergenic),High
1335,Eye Care Cosmetics,Solutions & Eye Care,EC - Hypoallegenic Makeup,Accessories,Long Lash Mascara (Hypoallergenic),Long
1343,Eye Care Cosmetics,Solutions & Eye Care,EC - Hypoallegenic Makeup,Accessories,Ophthalmic Dark Circle Cream,Cream
1344,Eye Care Cosmetics,Solutions & Eye Care,EC - Hypoallegenic Makeup,Accessories,Ophthalmic Puffy Eye Cream,Cream
1332,Eye Care Cosmetics,Solutions & Eye Care,EC - Hypoallegenic Makeup,Accessories,Pencil Eye Liner (Hypoallergenic),Pencil
2555,French Connection,Sunglasses,Sunglasses,Spectacles,FCUK Sport FCS011 Small Sports Wrap In Black,
2556,French Connection,Sunglasses,Sunglasses,Spectacles,FCUK Sport FCS014 Sports Wrap In Blue,
2572,French Connection,Sunglasses,Sunglasses,Spectacles,FCUK Sport FCS022 Metal Sports Wrap In Black,
2554,French Connection,Sunglasses,Sunglasses,Spectacles,FCUK Sport FCS027 Sports Wrap In Black,
2561,French Connection,Sunglasses,Sunglasses,Spectacles,FCUK Sport FCS035 Sports Wrap In Black,
2562,French Connection,Sunglasses,Sunglasses,Spectacles,FCUK Sport FCS036 Wrapped Metal In Gun,
2563,French Connection,Sunglasses,Sunglasses,Spectacles,FCUK Sport FCS037 Wrapped Metal In Gun,
2564,French Connection,Sunglasses,Sunglasses,Spectacles,FCUK Sport FCS038 Brow Detail Aviator In Gun,
2565,French Connection,Sunglasses,Sunglasses,Spectacles,FCUK Sport FCS039 Slim Metal Wrap In Gun,
2566,French Connection,Sunglasses,Sunglasses,Spectacles,FCUK Sport FCS041 Contrast Temple Plastic In Black,
2567,French Connection,Sunglasses,Sunglasses,Spectacles,FCUK Sport FCS042 Contrast Temple Plastic In Tort,
2558,French Connection,Sunglasses,Sunglasses,Spectacles,FCUK Sport FCS045 Oval Sports Wrap In Grey,
2568,French Connection,Sunglasses,Sunglasses,Spectacles,FCUK Sport FCS046 Reverse Groove Metal Wrap In Gunmetal,
2569,French Connection,Sunglasses,Sunglasses,Spectacles,FCUK Sport FCS047 Reverse Groove Metal Wrap In Dark Gun,
2570,French Connection,Sunglasses,Sunglasses,Spectacles,FCUK Sport FCS048 Square Metal Reverse Groove In Matte Gun,
2571,French Connection,Sunglasses,Sunglasses,Spectacles,FCUK Sport FCS049 Square Metal Reverse Groove In Black,
2496,French Connection,Sunglasses,Sunglasses,Spectacles,French Connection Ladies FCU079 Overlaid Shaped Rectangle In Pewter,
2494,French Connection,Sunglasses,Sunglasses,Spectacles,French Connection Ladies FCU218F Square Plastic With Metal Trim In Black,
2495,French Connection,Sunglasses,Sunglasses,Spectacles,French Connection Ladies FCU219F Square Plastic With Metal Trim In Tort,
2504,French Connection,Sunglasses,Sunglasses,Spectacles,French Connection Ladies FCU223 Butterfly Style With Metal Branded Hinge Detail In Brown,
2485,French Connection,Sunglasses,Sunglasses,Spectacles,French Connection Ladies FCU546 Fashion Wrap In Black,
2500,French Connection,Sunglasses,Sunglasses,Spectacles,French Connection Ladies FCU596 Small Round Glamour In Brown,
2491,French Connection,Sunglasses,Sunglasses,Spectacles,French Connection Ladies FCU606 Plastic Retro In Tort,
2486,French Connection,Sunglasses,Sunglasses,Spectacles,French Connection Ladies FCU607 Small Plastic In Brown,
2487,French Connection,Sunglasses,Sunglasses,Spectacles,French Connection Ladies FCU608 Small Plastic In Tort,
2492,French Connection,Sunglasses,Sunglasses,Spectacles,French Connection Ladies FCU610 Metal Bar Trim Plastic In Tort,
2493,French Connection,Sunglasses,Sunglasses,Spectacles,French Connection Ladies FCU635 Metal Inlay Detail Plastic In Tort,
2488,French Connection,Sunglasses,Sunglasses,Spectacles,French Connection Ladies FCU642 Rectangle Plastic In Tort,
2501,French Connection,Sunglasses,Sunglasses,Spectacles,French Connection Ladies FCU643 Metal Aviator In Gold,
2497,French Connection,Sunglasses,Sunglasses,Spectacles,French Connection Ladies FCU644 Hinge Detail Plastic In Black,
2489,French Connection,Sunglasses,Sunglasses,Spectacles,French Connection Ladies FCU652 Plastic Butterfly In Tort,
2498,French Connection,Sunglasses,Sunglasses,Spectacles,French Connection Ladies FCU653 Metal Inlay Round In Blac and Gold,
2499,French Connection,Sunglasses,Sunglasses,Spectacles,French Connection Ladies FCU654 Metal Inlay Round In Tort,
2502,French Connection,Sunglasses,Sunglasses,Spectacles,French Connection Ladies FCU655 Hexagon Temple Detail Plastic In Black,
2503,French Connection,Sunglasses,Sunglasses,Spectacles,French Connection Ladies FCU656 Hexagon Temple Detail Plastic In Amber,
2505,French Connection,Sunglasses,Sunglasses,Spectacles,French Connection Ladies FCU657 Fine Metal Square In Light Gold,
2506,French Connection,Sunglasses,Sunglasses,Spectacles,French Connection Ladies FCU658 Fine Metal Square In Black,
2525,French Connection,Sunglasses,Sunglasses,Spectacles,French Connection Mens FCU147 Square Fashion Visor In Black,
2524,French Connection,Sunglasses,Sunglasses,Spectacles,French Connection Mens FCU228 Combination Aviator In Gun,
2522,French Connection,Sunglasses,Sunglasses,Spectacles,French Connection Mens FCU555 Metal Sports Wrap In Brown,
2523,French Connection,Sunglasses,Sunglasses,Spectacles,French Connection Mens FCU556 Metal Sports Wrap In Gun,
2507,French Connection,Sunglasses,Sunglasses,Spectacles,French Connection Mens FCU591 Rectangle Plastic In Black,
2508,French Connection,Sunglasses,Sunglasses,Spectacles,French Connection Mens FCU592 Rectangle Plastic In Brown,
2515,French Connection,Sunglasses,Sunglasses,Spectacles,French Connection Mens FCU616 Classic Aviator In Gold,
2516,French Connection,Sunglasses,Sunglasses,Spectacles,French Connection Mens FCU617 Classic Aviator In Gun,
2518,French Connection,Sunglasses,Sunglasses,Spectacles,French Connection Mens FCU620 Large Metal Aviator In Gun,
2509,French Connection,Sunglasses,Sunglasses,Spectacles,French Connection Mens FCU625 Retro Plastic In Brown Tort,
2510,French Connection,Sunglasses,Sunglasses,Spectacles,French Connection Mens FCU626 Retro Plastic In Blue,
2511,French Connection,Sunglasses,Sunglasses,Spectacles,French Connection Mens FCU627 Large Plastic Wrap In Black,
2519,French Connection,Sunglasses,Sunglasses,Spectacles,French Connection Mens FCU629 Metal Rectangle Wrap In Gun,
2512,French Connection,Sunglasses,Sunglasses,Spectacles,French Connection Mens FCU631 Plastic Aviator In Grey,
2513,French Connection,Sunglasses,Sunglasses,Spectacles,French Connection Mens FCU645 Skinny Temple Preppy Plastic In Dark Demi,
2517,French Connection,Sunglasses,Sunglasses,Spectacles,French Connection Mens FCU647 Plastic Rectangle Colour Contrast In Dark Demi,
2520,French Connection,Sunglasses,Sunglasses,Spectacles,French Connection Mens FCU648 Temple Detail Metal Square In Matte Black,
2521,French Connection,Sunglasses,Sunglasses,Spectacles,French Connection Mens FCU650 Metal Temple Plastic Front In Demi,
2331,Gator Caiman,Other,Other,Spectacles,Junior Swimming Goggles,
2326,Gator Caiman,Other,Other,Spectacles,Prescription Swimming Goggles,
1283,Generic,Solutions & Eye Care,EC - Hygiene & Lid Care,Spectacles,Anti Bacterial Handwash (500ml),
1285,Generic,Solutions & Eye Care,EC - Hygiene & Lid Care,Spectacles,Standard contact lens case,
2327,Getoptics,Other,Other,Other,Ad-hoc Product, 
1403,Getoptics,Other,Other,Other,Ad-hoc Shipment, 
2317,HCL,Contact Lenses,CL - Daily,Daily HY Sph,everclear ADM,everclear
2682,HCL,Contact Lenses,CL - Daily,Daily HY Sph,everclear ADM (5 pack),everclear
3148,Hydrogel Vision Corporation,Other,Other,Monthly HY Sph,Extreme H2O 54%,Extreme
2320,Innova Vision,Contact Lenses,CL - Monthlies,Monthly Col,INNOVA ColorMaker,INNOVA
2321,Innova Vision,Contact Lenses,CL - Monthlies,Monthly Col,INNOVA ColorMaker Cosmetic Lenses,INNOVA
3150,Interojo,Contact Lenses,CL - Two Weeklies,Monthly HY Sph,Splash,Splash
3151,Interojo,Contact Lenses,CL - Daily,Daily HY Sph,Splash One Day,Splash
2318,I-See Vision,Contact Lenses,CL - Monthlies,Monthly HY Sph,everclear UV,everclear
1085,Johnson & Johnson,Contact Lenses,CL - Daily,Daily HY Sph,1 Day Acuvue,1 Day Acuvue 
2358,Johnson & Johnson,Contact Lenses,CL - Daily,Daily Col,1 Day Acuvue Define Shimmer,1 Day Acuvue 
2359,Johnson & Johnson,Contact Lenses,CL - Daily,Daily Col,1 Day Acuvue Define Sparkle,1 Day Acuvue 
1177,Johnson & Johnson,Contact Lenses,CL - Daily,Daily HY Sph,1 Day Acuvue for Astigmatism,1 Day Acuvue 
1083,Johnson & Johnson,Contact Lenses,CL - Daily,Daily HY Sph,1 Day Acuvue Moist,1 Day Acuvue 
1317,Johnson & Johnson,Contact Lenses,CL - Daily,Daily HY Tor,1 Day Acuvue Moist for Astigmatism,1 Day Acuvue 
2365,Johnson & Johnson,Contact Lenses,CL - Daily,Daily HY Multi,1 Day Acuvue Moist Multifocal,1 Day Acuvue 
1084,Johnson & Johnson,Contact Lenses,CL - Daily,Daily SIHI Sph,1 Day Acuvue Trueye,1 Day Acuvue 
1090,Johnson & Johnson,Contact Lenses,CL - Two Weeklies,Two Weeklies SIHI Sph,Acuvue 2,Acuvue 2
1351,Johnson & Johnson,Contact Lenses,CL - Two Weeklies,Monthly HY Sph,Acuvue 2 (Free),Acuvue 2
1087,Johnson & Johnson,Contact Lenses,CL - Two Weeklies,Two Weeklies HY Sph,Acuvue Advance,Acuvue Advance
1355,Johnson & Johnson,Contact Lenses,CL - Two Weeklies,Two Weeklies HY Sph,Acuvue Advance (Free),Acuvue Advance
1086,Johnson & Johnson,Contact Lenses,CL - Two Weeklies,Two Weeklies HY Tor,Acuvue Advance for Astigmatism,Acuvue Advance
1354,Johnson & Johnson,Contact Lenses,CL - Two Weeklies,Two Weeklies HY Tor,Acuvue Advance for Astigmatism (Free),Acuvue Advance
1097,Johnson & Johnson,Contact Lenses,CL - Two Weeklies,Two Weeklies HY Multi,Acuvue Bifocal,Acuvue Bifocal
1350,Johnson & Johnson,Contact Lenses,CL - Two Weeklies,Two Weeklies HY Multi,Acuvue Bifocal (Free),Acuvue Bifocal
1088,Johnson & Johnson,Contact Lenses,CL - Two Weeklies,Two Weeklies SIHI Sph,Acuvue Oasys,Acuvue Oasys
1352,Johnson & Johnson,Contact Lenses,CL - Two Weeklies,Two Weeklies SIHI Multi,Acuvue Oasys (Free),Acuvue Oasys
2417,Johnson & Johnson,Contact Lenses,CL - Daily,Daily SIHI Sph,Acuvue Oasys 1-DAY with HydraLuxe,1 Day Acuvue 
1089,Johnson & Johnson,Contact Lenses,CL - Two Weeklies,Two Weeklies SIHI Tor,Acuvue Oasys for Astigmatism,Acuvue Oasys
1353,Johnson & Johnson,Contact Lenses,CL - Two Weeklies,Two Weeklies SIHI Tor,Acuvue Oasys for Astigmatism (Free),Acuvue Oasys
1372,Johnson & Johnson,Contact Lenses,CL - Two Weeklies,Two Weeklies SIHI Multi,Acuvue Oasys for Presbyopia,Acuvue Oasys
1368,Johnson & Johnson,Contact Lenses,CL - Two Weeklies,Two Weeklies SIHI Multi,Acuvue Oasys for Presbyopia ***,Acuvue Oasys
3159,Johnson & Johnson,Contact Lenses,CL - Monthlies,Monthly SIHI Sph,Acuvue Vita,Vita
2253,Johnson & Johnson,Other,Other,Other,Ad-hoc Shipment J&J, 
1141,Johnson & Johnson,Contact Lenses,CL - Monthlies,Monthly HY Sph,Surevue,Surevue
1845,Johnson & Johnson,Contact Lenses,CL - Monthlies,Monthly HY Sph,Surevue (Free),Surevue
2527,Karen Millen,Sunglasses,Sunglasses,Spectacles,Karen Millen KML052 Shaped Rectangle With Metal Detail In Black Tort,
2539,Karen Millen,Sunglasses,Sunglasses,Spectacles,Karen Millen KML091K Shaped Rectangle In Tort,
2535,Karen Millen,Sunglasses,Sunglasses,Spectacles,Karen Millen KML160K Large Rectangle Metal Trim In Tort,
2536,Karen Millen,Sunglasses,Sunglasses,Spectacles,Karen Millen KML161K Large Rectangle Metal Trim In Black,
2537,Karen Millen,Sunglasses,Sunglasses,Spectacles,Karen Millen KML162 Glamour Square In Brown,
2549,Karen Millen,Sunglasses,Sunglasses,Spectacles,Karen Millen KML170K New Large Glamour Metal In Light Gunmetal,
2551,Karen Millen,Sunglasses,Sunglasses,Spectacles,Karen Millen KML173 Wrapped Visor In Gunmetal,
2541,Karen Millen,Sunglasses,Sunglasses,Spectacles,Karen Millen KML182K Glamour Round In Brown,
2528,Karen Millen,Sunglasses,Sunglasses,Spectacles,Karen Millen KML189 Rimless With Chevron Temple In Gold,
2529,Karen Millen,Sunglasses,Sunglasses,Spectacles,Karen Millen KML190 Rimless With Chevron Temple In Gunmetal,
2530,Karen Millen,Sunglasses,Sunglasses,Spectacles,Karen Millen KML192 Rimless With Studded Metal Temple In Gunmetal,
2538,Karen Millen,Sunglasses,Sunglasses,Spectacles,Karen Millen KML193 Glamour Square In Brown,
2531,Karen Millen,Sunglasses,Sunglasses,Spectacles,Karen Millen KML200 Brow Bar Aviator In Gold,
2532,Karen Millen,Sunglasses,Sunglasses,Spectacles,Karen Millen KML201 Brow Bar Aviator In Light Gunmetal,
2542,Karen Millen,Sunglasses,Sunglasses,Spectacles,Karen Millen KML202 Interior Logo Plastic In Black,
2544,Karen Millen,Sunglasses,Sunglasses,Spectacles,Karen Millen KML204 Inlay Metal Temple In Tort,
2552,Karen Millen,Sunglasses,Sunglasses,Spectacles,Karen Millen KML209 Metal Temple Twist Glam In Matte Black,
2545,Karen Millen,Sunglasses,Sunglasses,Spectacles,Karen Millen KML210 Round Plastic Glam In Black and Nude,
2546,Karen Millen,Sunglasses,Sunglasses,Spectacles,Karen Millen KML211 Textured Detail Temple Plastic In Tort and Gold,
2547,Karen Millen,Sunglasses,Sunglasses,Spectacles,Karen Millen KML212 Metal Bar Detail Plastic In Tort,
2548,Karen Millen,Sunglasses,Sunglasses,Spectacles,Karen Millen KML213 Metal Bar Detail Plastic In Brown,
2550,Karen Millen,Sunglasses,Sunglasses,Spectacles,Karen Millen KML214 New Large Glamour Metal In Light Gold,
2534,Karen Millen,Sunglasses,Sunglasses,Spectacles,Karen Millen KML215 New Glamour Square With Buckle Detail In Black,
2448,M:UK,Sunglasses,Sunglasses,Spectacles,M:UK MUK147830 Brixton Retro Plastic In Tort,
2449,M:UK,Sunglasses,Sunglasses,Spectacles,M:UK MUK147831 Brixton Retro Plastic In Pink,
2450,M:UK,Sunglasses,Sunglasses,Spectacles,M:UK MUK147832 Brixton Retro Plastic In Black,
2451,M:UK,Sunglasses,Sunglasses,Spectacles,M:UK MUK147833 Soho Preppy Round Plastic In Pink,
2452,M:UK,Sunglasses,Sunglasses,Spectacles,M:UK MUK147834 Soho Preppy Round Plastic In Black,
2453,M:UK,Sunglasses,Sunglasses,Spectacles,M:UK MUK147835 Soho Preppy Round Plastic In Tort,
2454,M:UK,Sunglasses,Sunglasses,Spectacles,M:UK MUK147836 Soho Preppy Round Plastic In Pink,
2455,M:UK,Sunglasses,Sunglasses,Spectacles,M:UK MUK147837 Shoreditch Keyhole Plastic In Tort,
2456,M:UK,Sunglasses,Sunglasses,Spectacles,M:UK MUK147838 Shoreditch Keyhole Plastic In Purple,
2457,M:UK,Sunglasses,Sunglasses,Spectacles,M:UK MUK147839 Shoreditch Keyhole Plastic In Grey,
2458,M:UK,Sunglasses,Sunglasses,Spectacles,M:UK MUK147840 Shoreditch Keyhole Plastic In Clear,
2459,M:UK,Sunglasses,Sunglasses,Spectacles,M:UK MUK147841 Dalston Rectangle Plastic With Studs In Tort,
2460,M:UK,Sunglasses,Sunglasses,Spectacles,M:UK MUK147842 Dalston Rectangle Plastic With Studs In Clear,
2462,M:UK,Sunglasses,Sunglasses,Spectacles,M:UK MUK147844 Carnaby Chic Round With Metal Temple In Blue,
2463,M:UK,Sunglasses,Sunglasses,Spectacles,M:UK MUK147845 Carnaby Chic Round With Metal Temple In Brown,
2464,M:UK,Sunglasses,Sunglasses,Spectacles,M:UK MUK147846 Carnaby Chic Round With Metal Temple In Black and White,
2465,M:UK,Sunglasses,Sunglasses,Spectacles,M:UK MUK147847 Portobello Classic Metal Aviator In White,
2466,M:UK,Sunglasses,Sunglasses,Spectacles,M:UK MUK147848 Portobello Classic Metal Aviator In Gold,
2467,M:UK,Sunglasses,Sunglasses,Spectacles,M:UK MUK147849 Portobello Classic Metal Aviator In Silver,
2468,M:UK,Sunglasses,Sunglasses,Spectacles,M:UK MUK147850 Portobello Classic Metal Aviator In Gunmetal,
1347,MacuVision,Solutions & Eye Care,EC - Ocular Vitamins,Accessories,MacuShield (30 capsules),MacuShield
1348,MacuVision,Solutions & Eye Care,EC - Ocular Vitamins,Accessories,MacuShield (90 capsules),MacuShield
1282,Mediwipe,Solutions & Eye Care,EC - Hygiene & Lid Care,Accessories,Hygienix Lint Free Tissues,Hygienix
2353,Melleson Pharma,Solutions & Eye Care,SL - Multi-purpose Solutions,Solutions,everclear Flat Pack Multi-Purpose solution,everclear
2352,Melleson Pharma,Solutions & Eye Care,SL - Multi-purpose Solutions,Solutions,everclear Flat Pack Multi-Purpose solution – pack of 3,everclear
1210,Menicon,Solutions & Eye Care,SL - Multi-purpose Solutions,Solutions,Solocare Aqua,Solocare
1401,Mid-Optic,Solutions & Eye Care,EC - Dry Eye Treatments,Drops,EyeBag MGD Rx,EyeBag
1261,Novartis Ophthalmics,Solutions & Eye Care,EC - Hygiene & Lid Care,Drops,Lid Care System,Lid Care
1212,Novartis Ophthalmics,Solutions & Eye Care,EC - Hygiene & Lid Care,Drops,Lid Care Wipes,Lid Care
1213,Novartis Ophthalmics,Solutions & Eye Care,EC - Ocular Vitamins,Other,Vitalux Plus,Vitalux
2399,Ophtalmic,Solutions & Eye Care,SL - Multi-purpose Solutions,Solutions,Jazz Aquasensitive,Jazz
2400,Ophtalmic,Solutions & Eye Care,SL - Multi-purpose Solutions,Solutions,Jazz Aquasensitive Solution - 3 pack,Jazz
2401,Ophtalmic,Solutions & Eye Care,SL - Multi-purpose Solutions,Solutions,Jazz Essentiel Solution,Jazz
2402,Ophtalmic,Solutions & Eye Care,SL - Multi-purpose Solutions,Solutions,Jazz Essentiel Solution - 3 pack,Jazz
2382,Ophtalmic,Contact Lenses,CL - Monthlies,Monthly HY Sph,Ophtalmic 55,Ophtalmic 55
2384,Ophtalmic,Contact Lenses,CL - Monthlies,Monthly HY Multi,Ophtalmic 55 Progressive,Ophtalmic 55
2385,Ophtalmic,Contact Lenses,CL - Monthlies,Monthly HY Tor,Ophtalmic 55 Toric,Ophtalmic 55
2386,Ophtalmic,Contact Lenses,CL - Monthlies,Monthly HY Sph,Ophtalmic Aspheric,Ophtalmic Aspheric
2387,Ophtalmic,Contact Lenses,CL - Daily,Daily SIHI Sph,Ophtalmic HR 1 Day,Ophtalmic HR
2388,Ophtalmic,Contact Lenses,CL - Daily,Daily SIHI Multi,Ophtalmic HR 1 Day Progressive,Ophtalmic HR
2398,Ophtalmic,Contact Lenses,CL - Daily,Daily SIHI Tor,Ophtalmic HR 1 Day Toric,Ophtalmic HR
2390,Ophtalmic,Contact Lenses,CL - Monthlies,Monthly SIHI Multi,Ophtalmic HR Progressive,Ophtalmic HR
2392,Ophtalmic,Contact Lenses,CL - Monthlies,Monthly SIHI Sph,Ophtalmic HR Spheric,Ophtalmic HR
2393,Ophtalmic,Contact Lenses,CL - Monthlies,Monthly SIHI Tor,Ophtalmic HR Toric,Ophtalmic HR
2391,Ophtalmic,Contact Lenses,CL - Monthlies,Monthly HY Sph,Ophtalmic Hydrofeel,Ophtalmic Hydrofeel
2394,Ophtalmic,Contact Lenses,CL - Daily,Daily HY Sph,Ophtalmic Hydrofeel 1 Day,Ophtalmic Hydrofeel
2395,Ophtalmic,Contact Lenses,CL - Monthlies,Monthly HY Tor,Ophtalmic Hydrofeel Toric,Ophtalmic Hydrofeel
2397,Ophtalmic,Contact Lenses,CL - Two Weeklies,Two Weeklies HY Sph,Ophtalmic Max 2,Ophtalmic Max
2396,Ophtalmic,Contact Lenses,CL - Daily,Daily HY Sph,Ophtalmic Today,Ophtalmic Today
2275,Optima Medical Swiss AG,Solutions & Eye Care,EC - Eye Wash & Sprays,Drops,Eye Logic,Eye Logic
1269,Optrex,Solutions & Eye Care,EC - Eye Wash & Sprays,Drops,Optrex Actimist Eye Spray,Optrex
1274,Optrex,Solutions & Eye Care,EC - Dry Eye Treatments,Drops,Optrex Dry Eye Drops,Optrex
1275,Optrex,Solutions & Eye Care,EC - Eye Drops,Drops,Optrex Dry Eye Drops Singles,Optrex
1273,Optrex,Solutions & Eye Care,EC - Eye Drops,Drops,Optrex Eye Brightening Drops,Optrex
1272,Optrex,Solutions & Eye Care,EC - Eye Drops,Drops,Optrex Itchy Eye Drops,Optrex
1270,Optrex,Solutions & Eye Care,EC - Eye Wash & Sprays,Drops,Optrex Multi Action Eye Wash,Optrex
1271,Optrex,Solutions & Eye Care,EC - Eye Drops,Drops,Optrex Refreshing Eye Drops,Optrex
1356,Oté Pharma Sol,Solutions & Eye Care,SL - Cleaners & Salines,Accessories,Oté Clean (Crystal Cleaner replacement),Oté
2303,Pegavision,Contact Lenses,CL - Daily,Daily HY Sph,everclear 1 DAY,everclear
2309,Pegavision,Contact Lenses,CL - Daily,Daily HY Sph,everclear 1 DAY (Free Trial Pack),everclear
2305,Pegavision,Contact Lenses,CL - Daily,Daily HY Sph,everclear 1 DAY (Free Trial),everclear
2308,Pegavision,Other,Other,Daily HY Sph,everclear 1 DAY (Trial Pack),everclear
2245,Polaroid,Solutions & Eye Care,EC - Eye Drops,Drops,Beauty Eye Drops (Vials),Vials
2243,Polaroid,Solutions & Eye Care,SL - Travel Packs,Solutions,Contactspod,Contactspod
2247,Polaroid,Solutions & Eye Care,SL - Travel Packs,Solutions,Contactspod Travel Pack,Contactspod
2244,Polaroid,Solutions & Eye Care,EC - Eye Drops,Drops,Eye Drops On The Go (Vials),Vials
2273,PromoPharma,Solutions & Eye Care,EC - Eye Drops,Drops,Eyesiccal,Eyesiccal
1131,Provis,Contact Lenses,CL - Daily,Daily HY Sph,Daysoft 72,Daysoft
2315,R&L Vision,Contact Lenses,CL - Daily,Daily HY Sph,Aura 1 Day,Aura
2316,R&L Vision,Contact Lenses,CL - Daily,Daily HY Sph,Aura 1 Day (90 Pack),Aura
2313,R&L Vision,Solutions & Eye Care,SL - Hydrogen Peroxide,Monthly HY Tor,Solo Sept 2 Month Pack,SofLens
2314,R&L Vision,Solutions & Eye Care,SL - Hydrogen Peroxide,Solutions,Solo Sept 360ml,Solo
1892,ReNu,Solutions & Eye Care,SL - Multi-purpose Solutions,Solutions,Renu 60mL Solution (A FREE gift from GetLenses),Regard
1224,Sauflon,Solutions & Eye Care,SL - Multi-purpose Solutions,Solutions,All In One Light, 
1225,Sauflon,Solutions & Eye Care,SL - Gas Permeable Solutions,Solutions,Delta Multipack,Delta
1226,Sauflon,Solutions & Eye Care,SL - Hydrogen Peroxide,Solutions,Multi, 
1227,Coopervision,Solutions & Eye Care,SL - Multi-purpose Solutions,Solutions,Synergi,Synergi
1367,Scope Healthcare,Solutions & Eye Care,EC - Dry Eye Treatments,Drops,Hycosan Extra Eye Drops,Hycosan
1330,Scope Healthcare,Solutions & Eye Care,EC - Dry Eye Treatments,Drops,Hycosan Eye Drops,Hycosan
2251,Scope Healthcare,Solutions & Eye Care,EC - Eye Drops,Drops,Hycosan Eye Drops (A Free Gift From GetLenses),Hycosan
1331,Scope Healthcare,Solutions & Eye Care,EC - Dry Eye Treatments,Drops,Hycosan Plus Eye Drops,Hycosan
1358,SpectrumThea,Solutions & Eye Care,EC - Dry Eye Treatments,Drops,Blephaclean,Blephaclean
1359,SpectrumThea,Solutions & Eye Care,EC - Dry Eye Treatments,Drops,Blephagel Hypoallergenic Gel,Blephagel
1357,SpectrumThea,Solutions & Eye Care,EC - Dry Eye Treatments,Drops,Blephasol,Blephasol
2347,Stericon Pharma,Solutions & Eye Care,EC - Eye Drops,Drops,GetLenses Eye Drops, 
2418,Süüna,Sunglasses,Sunglasses,Monthly HY Sph,SUUNA Ladies SUU107 Emily in Tort, 
2419,Süüna,Sunglasses,Sunglasses,Spectacles,SUUNA Ladies SUU108 Charlotte in Milky Plum,
2420,Süüna,Sunglasses,Sunglasses,Spectacles,SUUNA Ladies SUU109 Charlotte in Black,
2421,Süüna,Sunglasses,Sunglasses,Spectacles,SUUNA Ladies SUU110 Mia in Tort,
2422,Süüna,Sunglasses,Sunglasses,Spectacles,SUUNA Ladies SUU111 Brooke in Milky Peach,
2423,Süüna,Sunglasses,Sunglasses,Spectacles,SUUNA Ladies SUU113 Bella in Gold,
2424,Süüna,Sunglasses,Sunglasses,Spectacles,SUUNA Ladies SUU114 Bella in Shiny Silver,
2425,Süüna,Sunglasses,Sunglasses,Spectacles,SUUNA Ladies SUU115 Florence in Tort,
2426,Süüna,Sunglasses,Sunglasses,Spectacles,SUUNA Ladies SUU116 Florence in Black lace print,
2427,Süüna,Sunglasses,Sunglasses,Spectacles,SUUNA Ladies SUU119 Joann in Gold,
2428,Süüna,Sunglasses,Sunglasses,Spectacles,SUUNA Ladies SUU120 Saskia in Gold,
2429,Süüna,Sunglasses,Sunglasses,Spectacles,SUUNA Ladies SUU122 Phoebe in Mink,
2430,Süüna,Sunglasses,Sunglasses,Spectacles,SUUNA Ladies SUU123 Charlotte in Tort,
2431,Süüna,Sunglasses,Sunglasses,Spectacles,SUUNA Mens SUU085 Madrid in Black,
2432,Süüna,Sunglasses,Sunglasses,Spectacles,SUUNA Mens SUU086 Brooklyn in Black,
2433,Süüna,Sunglasses,Sunglasses,Spectacles,SUUNA Mens SUU087 Brooklyn in Tort,
2434,Süüna,Sunglasses,Sunglasses,Spectacles,SUUNA Mens SUU088 NY NY in Silver,
2435,Süüna,Sunglasses,Sunglasses,Spectacles,SUUNA Mens SUU090 Nassau in Gunmetal,
2436,Süüna,Sunglasses,Sunglasses,Spectacles,SUUNA Mens SUU091 Nassau in Silver,
2437,Süüna,Sunglasses,Sunglasses,Spectacles,SUUNA Mens SUU096 Bali in Gunmetal,
2438,Süüna,Sunglasses,Sunglasses,Spectacles,SUUNA Mens SUU097 Bronx in Black,
2439,Süüna,Sunglasses,Sunglasses,Spectacles,SUUNA Mens SUU098 Baja in Gold,
2440,Süüna,Sunglasses,Sunglasses,Spectacles,SUUNA Mens SUU099 Baja in Silver,
2441,Süüna,Sunglasses,Sunglasses,Spectacles,SUUNA Mens SUU100 Phoenix in Gunmetal,
2442,Süüna,Sunglasses,Sunglasses,Spectacles,SUUNA Mens SUU101 Lisbon in Black,
2443,Süüna,Sunglasses,Sunglasses,Spectacles,SUUNA Mens SUU102 Jackson in Gunmetal,
2444,Süüna,Sunglasses,Sunglasses,Spectacles,SUUNA Mens SUU103 Buffalo in Gunmetal,
2445,Süüna,Sunglasses,Sunglasses,Spectacles,SUUNA Mens SUU104 Buffalo in Black,
2446,Süüna,Sunglasses,Sunglasses,Spectacles,SUUNA Mens SUU106 Turin in Gunmetal,
1263,Ultravision,Other,Other,Other,Ultrawave,
3174,Visco Vision,Contact Lenses,CL - Monthlies,Monthly SIHI Sph,everclear AIR,everclear
3168,Visco Vision,Contact Lenses,CL - Daily,Daily SIHI Sph,everclear ELITE,everclear
3176,Visco Vision,Contact Lenses,CL - Daily,Daily SIHI Sph,everclear ELITE (5 pack),everclear
3173,Visco Vision,Contact Lenses,CL - Two Weeklies,Two Weeklies SIHI Sph,everclear PLUS,everclear
1284,Vision Direct,Solutions & Eye Care,EC - Hygiene & Lid Care,Accessories,Barrel Contact Lens Case,
2333,Vision Direct,Solutions & Eye Care,EC - Eye Drops,Drops,Can-C Eye Drops,Can-C
2328,Vision Direct,Solutions & Eye Care,EC - Eye Drops,Drops,everclear Eye Drops,everclear
3134,Vision Direct,Glasses,Glasses,Spectacles,Glasses Lens (generic for import),
2876,Vision Direct,Glasses,Glasses,Spectacles,Mitchell in Black,
2322,Vision Direct,Solutions & Eye Care,SL - Multi-purpose Solutions,Solutions,Multi-Use, 
2325,Vision Direct,Solutions & Eye Care,SL - Multi-purpose Solutions,Solutions,Multi-Use PLUS Travel Size, 
2361,Vision Direct,Solutions & Eye Care,EC - Hygiene & Lid Care,Accessories,Vision Direct Contact Lens Case, 
2684,VisionDIrect,Glasses,Glasses,Spectacles,Adam in Black,
2685,VisionDIrect,Glasses,Glasses,Spectacles,Adam in Blue,
2687,VisionDIrect,Glasses,Glasses,Spectacles,Adelaide in Red,
2688,VisionDIrect,Glasses,Glasses,Spectacles,Africa in Brown,
2689,VisionDIrect,Glasses,Glasses,Spectacles,Africa in Tortoise,
2690,VisionDIrect,Glasses,Glasses,Spectacles,Alberta in Black,
2691,VisionDIrect,Glasses,Glasses,Spectacles,Alberta in Blue,
2692,VisionDIrect,Glasses,Glasses,Spectacles,Alex in Black,
2693,VisionDIrect,Glasses,Glasses,Spectacles,Alex in Tortoise,
2694,VisionDIrect,Glasses,Glasses,Spectacles,Alice in Black,
2695,VisionDIrect,Glasses,Glasses,Spectacles,Alice in Blue,
2697,VisionDIrect,Glasses,Glasses,Spectacles,Amber in Purple,
2699,VisionDIrect,Glasses,Glasses,Spectacles,Amy in Blue,
2698,VisionDIrect,Glasses,Glasses,Spectacles,Amy in Gold,
2700,VisionDIrect,Glasses,Glasses,Spectacles,Andi in Black,
2701,VisionDIrect,Glasses,Glasses,Spectacles,Andi in Tortoise,
2702,VisionDIrect,Glasses,Glasses,Spectacles,Ariel in Blue,
2704,VisionDIrect,Glasses,Glasses,Spectacles,Ashley in Red,
2703,VisionDIrect,Glasses,Glasses,Spectacles,Ashley in Tortoise,
2705,VisionDIrect,Glasses,Glasses,Spectacles,Asia in Purple,
2706,VisionDIrect,Glasses,Glasses,Spectacles,Aspen in Black,
2707,VisionDIrect,Glasses,Glasses,Spectacles,Aspen in Blue,
2709,VisionDIrect,Glasses,Glasses,Spectacles,Aspen in Red,
2708,VisionDIrect,Glasses,Glasses,Spectacles,Aspen in Tortoise,
2710,VisionDIrect,Glasses,Glasses,Spectacles,Audrey in Black,
2711,VisionDIrect,Glasses,Glasses,Spectacles,Audrey in Brown,
2712,VisionDIrect,Glasses,Glasses,Spectacles,Austin in Blue,
2713,VisionDIrect,Glasses,Glasses,Spectacles,Austin in Tortoise,
2893,VisionDIrect,Glasses,Glasses,Spectacles,Ava in Brown,
2894,VisionDIrect,Glasses,Glasses,Spectacles,Ava in Tortoise,
2716,VisionDIrect,Glasses,Glasses,Spectacles,Bailey in Black,
2717,VisionDIrect,Glasses,Glasses,Spectacles,Bailey in Brown,
2959,VisionDIrect,Glasses,Glasses,Spectacles,Barcelona in Gold,
2960,VisionDIrect,Glasses,Glasses,Spectacles,Barcelona in Gunmetal,
2719,VisionDIrect,Glasses,Glasses,Spectacles,Bella in Purple,
2720,VisionDIrect,Glasses,Glasses,Spectacles,Berlin in Gold,
2721,VisionDIrect,Glasses,Glasses,Spectacles,Berlin in Gunmetal,
2723,VisionDIrect,Glasses,Glasses,Spectacles,Bette in Pink,
2724,VisionDIrect,Glasses,Glasses,Spectacles,Billy in Brown,
2725,VisionDIrect,Glasses,Glasses,Spectacles,Billy in Grey,
2726,VisionDIrect,Glasses,Glasses,Spectacles,Blake in Black,
2727,VisionDIrect,Glasses,Glasses,Spectacles,Blake in Tortoise,
2954,VisionDIrect,Glasses,Glasses,Spectacles,Bobby in Gunmetal,
2728,VisionDIrect,Glasses,Glasses,Spectacles,Boston in Black,
2729,VisionDIrect,Glasses,Glasses,Spectacles,Boston in Gunmetal,
2730,VisionDIrect,Glasses,Glasses,Spectacles,Brady in Brown,
2731,VisionDIrect,Glasses,Glasses,Spectacles,Brady in Tortoise,
2733,VisionDIrect,Glasses,Glasses,Spectacles,Bridget in Pink,
2732,VisionDIrect,Glasses,Glasses,Spectacles,Bridget in Tortoise,
2734,VisionDIrect,Glasses,Glasses,Spectacles,Bright in Blue,
2735,VisionDIrect,Glasses,Glasses,Spectacles,Bright in Brown,
2736,VisionDIrect,Glasses,Glasses,Spectacles,Bronx in Black,
2737,VisionDIrect,Glasses,Glasses,Spectacles,Bronx in Tortoise,
2739,VisionDIrect,Glasses,Glasses,Spectacles,Brooklyn in Black,
2738,VisionDIrect,Glasses,Glasses,Spectacles,Brooklyn in Brown,
2741,VisionDIrect,Glasses,Glasses,Spectacles,Cairo in Purple,
2740,VisionDIrect,Glasses,Glasses,Spectacles,Cairo in Tortoise,
2742,VisionDIrect,Glasses,Glasses,Spectacles,Cameron in Blue,
2743,VisionDIrect,Glasses,Glasses,Spectacles,Cameron in Tortoise,
2744,VisionDIrect,Glasses,Glasses,Spectacles,Carolina in Black,
2745,VisionDIrect,Glasses,Glasses,Spectacles,Carolina in Tortoise,
2746,VisionDIrect,Glasses,Glasses,Spectacles,Chad in Black,
2747,VisionDIrect,Glasses,Glasses,Spectacles,Chad in Blue,
2748,VisionDIrect,Glasses,Glasses,Spectacles,Charlie in Black,
2749,VisionDIrect,Glasses,Glasses,Spectacles,Charlie in Clear,
2750,VisionDIrect,Glasses,Glasses,Spectacles,Claire in Black,
2948,VisionDIrect,Glasses,Glasses,Spectacles,Cleo in Black,
2751,VisionDIrect,Glasses,Glasses,Spectacles,Cody in Black,
2752,VisionDIrect,Glasses,Glasses,Spectacles,Cody in Blue,
2715,VisionDIrect,Glasses,Glasses,Spectacles,Collins in Gunmetal,
2754,VisionDIrect,Glasses,Glasses,Spectacles,Cora in Purple,
2756,VisionDIrect,Glasses,Glasses,Spectacles,Cory in Tortoise,
2757,VisionDIrect,Glasses,Glasses,Spectacles,Cruise in Gold,
2758,VisionDIrect,Glasses,Glasses,Spectacles,Cruise in Gunmetal,
2760,VisionDIrect,Glasses,Glasses,Spectacles,Dakota in Clear,
2761,VisionDIrect,Glasses,Glasses,Spectacles,Dakota in Tortoise,
2762,VisionDIrect,Glasses,Glasses,Spectacles,Dallas in Black,
2763,VisionDIrect,Glasses,Glasses,Spectacles,Dallas in Gunmetal,
2764,VisionDIrect,Glasses,Glasses,Spectacles,Damian in Blue,
2765,VisionDIrect,Glasses,Glasses,Spectacles,Damian in Brown,
2956,VisionDIrect,Glasses,Glasses,Spectacles,Danny in Gold,
2955,VisionDIrect,Glasses,Glasses,Spectacles,Danny in Gunmetal,
2766,VisionDIrect,Glasses,Glasses,Spectacles,Debbie in Black,
2768,VisionDIrect,Glasses,Glasses,Spectacles,Denver in Brown,
2769,VisionDIrect,Glasses,Glasses,Spectacles,Denver in Gunmetal,
2770,VisionDIrect,Glasses,Glasses,Spectacles,Devon in Black,
2771,VisionDIrect,Glasses,Glasses,Spectacles,Devon in Grey,
2772,VisionDIrect,Glasses,Glasses,Spectacles,Dexter in Black,
2773,VisionDIrect,Glasses,Glasses,Spectacles,Dexter in Blue,
2774,VisionDIrect,Glasses,Glasses,Spectacles,Diego in Black,
2775,VisionDIrect,Glasses,Glasses,Spectacles,Diego in Blue,
2776,VisionDIrect,Glasses,Glasses,Spectacles,Drew in Black,
2777,VisionDIrect,Glasses,Glasses,Spectacles,Drew in Blue,
2778,VisionDIrect,Glasses,Glasses,Spectacles,Dublin in Black,
2779,VisionDIrect,Glasses,Glasses,Spectacles,Dublin in Gunmetal,
2781,VisionDIrect,Glasses,Glasses,Spectacles,Dustin in Black,
2780,VisionDIrect,Glasses,Glasses,Spectacles,Dustin in Blue,
2782,VisionDIrect,Glasses,Glasses,Spectacles,Dylan in Black,
2783,VisionDIrect,Glasses,Glasses,Spectacles,Dylan in Blue,
2784,VisionDIrect,Glasses,Glasses,Spectacles,Elliot in Black,
2785,VisionDIrect,Glasses,Glasses,Spectacles,Elliot in Blue,
2786,VisionDIrect,Glasses,Glasses,Spectacles,Emma in Black,
2787,VisionDIrect,Glasses,Glasses,Spectacles,Emma in Purple,
2788,VisionDIrect,Glasses,Glasses,Spectacles,Faith in Purple,
2789,VisionDIrect,Glasses,Glasses,Spectacles,Faith in Tortoise,
2790,VisionDIrect,Glasses,Glasses,Spectacles,Ferne in Pink,
2791,VisionDIrect,Glasses,Glasses,Spectacles,Ferne in Purple,
2793,VisionDIrect,Glasses,Glasses,Spectacles,Francisco in Blue,
2792,VisionDIrect,Glasses,Glasses,Spectacles,Francisco in Gunmetal,
2796,VisionDIrect,Glasses,Glasses,Spectacles,Freddie in Gunmetal,
2797,VisionDIrect,Glasses,Glasses,Spectacles,George in Bronze,
2798,VisionDIrect,Glasses,Glasses,Spectacles,George in Gunmetal,
2799,VisionDIrect,Glasses,Glasses,Spectacles,Georgia in Black,
2800,VisionDIrect,Glasses,Glasses,Spectacles,Georgia in Tortoise,
2801,VisionDIrect,Glasses,Glasses,Spectacles,Gerry in Black,
2802,VisionDIrect,Glasses,Glasses,Spectacles,Gerry in Tortoise,
2804,VisionDIrect,Glasses,Glasses,Spectacles,Gotham in Black,
2803,VisionDIrect,Glasses,Glasses,Spectacles,Gotham in Gunmetal,
2805,VisionDIrect,Glasses,Glasses,Spectacles,Grace in Blue,
2807,VisionDIrect,Glasses,Glasses,Spectacles,Harley in Blue,
2808,VisionDIrect,Glasses,Glasses,Spectacles,Harley in Brown,
2809,VisionDIrect,Glasses,Glasses,Spectacles,Harriet in Gold,
2810,VisionDIrect,Glasses,Glasses,Spectacles,Harriet in Pink,
2965,VisionDIrect,Glasses,Glasses,Spectacles,Heather in Bronze,
2966,VisionDIrect,Glasses,Glasses,Spectacles,Heather in Silver,
2813,VisionDIrect,Glasses,Glasses,Spectacles,Holland in Black,
2814,VisionDIrect,Glasses,Glasses,Spectacles,Holland in Tortoise,
2815,VisionDIrect,Glasses,Glasses,Spectacles,Houston in Brown,
2816,VisionDIrect,Glasses,Glasses,Spectacles,Houston in Grey,
2817,VisionDIrect,Glasses,Glasses,Spectacles,Hoxton in Gold,
2818,VisionDIrect,Glasses,Glasses,Spectacles,Hoxton in Gunmetal,
2819,VisionDIrect,Glasses,Glasses,Spectacles,Iris in Silver,
2820,VisionDIrect,Glasses,Glasses,Spectacles,Isabelle in Pink,
2821,VisionDIrect,Glasses,Glasses,Spectacles,Ivy in Purple,
2823,VisionDIrect,Glasses,Glasses,Spectacles,Jackson in Black,
2824,VisionDIrect,Glasses,Glasses,Spectacles,Jackson in Gunmetal,
2825,VisionDIrect,Glasses,Glasses,Spectacles,James in Black,
2827,VisionDIrect,Glasses,Glasses,Spectacles,Jamie in Black,
2828,VisionDIrect,Glasses,Glasses,Spectacles,Jamie in Tortoise,
2829,VisionDIrect,Glasses,Glasses,Spectacles,Jenna in Black,
2830,VisionDIrect,Glasses,Glasses,Spectacles,Jenna in Tortoise,
2831,VisionDIrect,Glasses,Glasses,Spectacles,Jesse in Black,
2832,VisionDIrect,Glasses,Glasses,Spectacles,Jesse in Tortoise,
2833,VisionDIrect,Glasses,Glasses,Spectacles,Jo in Blue,
2834,VisionDIrect,Glasses,Glasses,Spectacles,Jo in Purple,
2835,VisionDIrect,Glasses,Glasses,Spectacles,Jude in Silver,
2836,VisionDIrect,Glasses,Glasses,Spectacles,Juno in Purple,
2837,VisionDIrect,Glasses,Glasses,Spectacles,Juno in Tortoise,
2839,VisionDIrect,Glasses,Glasses,Spectacles,Kacie in Pink,
2838,VisionDIrect,Glasses,Glasses,Spectacles,Kacie in Red,
2840,VisionDIrect,Glasses,Glasses,Spectacles,Kate in Black,
2841,VisionDIrect,Glasses,Glasses,Spectacles,Kate in Tortoise,
2842,VisionDIrect,Glasses,Glasses,Spectacles,Kent in Blue,
2843,VisionDIrect,Glasses,Glasses,Spectacles,Kent in Tortoise,
2957,VisionDIrect,Glasses,Glasses,Spectacles,Kerry in Silver,
2844,VisionDIrect,Glasses,Glasses,Spectacles,Krissy in Pink,
2845,VisionDIrect,Glasses,Glasses,Spectacles,Krissy in Purple,
2846,VisionDIrect,Glasses,Glasses,Spectacles,Kurt in Blue,
2847,VisionDIrect,Glasses,Glasses,Spectacles,Kurt in Silver,
2848,VisionDIrect,Glasses,Glasses,Spectacles,Laney in Brown,
2849,VisionDIrect,Glasses,Glasses,Spectacles,Laney in Purple,
2851,VisionDIrect,Glasses,Glasses,Spectacles,Layla in Purple,
2850,VisionDIrect,Glasses,Glasses,Spectacles,Layla in Tortoise,
2852,VisionDIrect,Glasses,Glasses,Spectacles,Lee in Bronze,
2853,VisionDIrect,Glasses,Glasses,Spectacles,Lee in Silver,
2854,VisionDIrect,Glasses,Glasses,Spectacles,Leo in Black,
2855,VisionDIrect,Glasses,Glasses,Spectacles,Leo in Blue,
2856,VisionDIrect,Glasses,Glasses,Spectacles,Lilly in Green,
2857,VisionDIrect,Glasses,Glasses,Spectacles,Lilly in Purple,
2858,VisionDIrect,Glasses,Glasses,Spectacles,Lindsey in Brown,
2859,VisionDIrect,Glasses,Glasses,Spectacles,Lindsey in Purple,
2860,VisionDIrect,Glasses,Glasses,Spectacles,Lisa in Brown,
2861,VisionDIrect,Glasses,Glasses,Spectacles,Lisa in Purple,
2862,VisionDIrect,Glasses,Glasses,Spectacles,London in Gunmetal,
2863,VisionDIrect,Glasses,Glasses,Spectacles,Lucy in Black,
2864,VisionDIrect,Glasses,Glasses,Spectacles,Lucy in Red,
2865,VisionDIrect,Glasses,Glasses,Spectacles,Madison in Brown,
2866,VisionDIrect,Glasses,Glasses,Spectacles,Madison in Purple,
2868,VisionDIrect,Glasses,Glasses,Spectacles,Maria in Red,
2867,VisionDIrect,Glasses,Glasses,Spectacles,Maria in Tortoise,
2869,VisionDIrect,Glasses,Glasses,Spectacles,Marissa in Black,
2964,VisionDIrect,Glasses,Glasses,Spectacles,Mel in Bronze,
2963,VisionDIrect,Glasses,Glasses,Spectacles,Mel in Gunmetal,
2873,VisionDIrect,Glasses,Glasses,Spectacles,Mia in Red,
2874,VisionDIrect,Glasses,Glasses,Spectacles,Miller in Brown,
2877,VisionDIrect,Glasses,Glasses,Spectacles,Mitchell in Grey,
2879,VisionDIrect,Glasses,Glasses,Spectacles,Morgan in Gold,
2941,VisionDIrect,Glasses,Glasses,Spectacles,Natalia in Black,
2942,VisionDIrect,Glasses,Glasses,Spectacles,Natalia in Tortoise,
2871,VisionDIrect,Glasses,Glasses,Spectacles,Olivia in Blue,
2872,VisionDIrect,Glasses,Glasses,Spectacles,Olivia in Brown,
2880,VisionDIrect,Glasses,Glasses,Spectacles,Oslo in Black,
2881,VisionDIrect,Glasses,Glasses,Spectacles,Oslo in Gunmetal,
2884,VisionDIrect,Glasses,Glasses,Spectacles,Paris in Gunmetal,
2886,VisionDIrect,Glasses,Glasses,Spectacles,Peyton in Brown,
2887,VisionDIrect,Glasses,Glasses,Spectacles,Pierre in Black,
2888,VisionDIrect,Glasses,Glasses,Spectacles,Pierre in Tortoise,
2889,VisionDIrect,Glasses,Glasses,Spectacles,Princeton in Gold,
2891,VisionDIrect,Glasses,Glasses,Solutions,Quinn in Black, 
2892,VisionDIrect,Glasses,Glasses,Spectacles,Quinn in Tortoise,
2895,VisionDIrect,Glasses,Glasses,Spectacles,Reese in Gold,
2896,VisionDIrect,Glasses,Glasses,Spectacles,Reese in Gunmetal,
2897,VisionDIrect,Glasses,Glasses,Spectacles,Riley in Black,
2898,VisionDIrect,Glasses,Glasses,Spectacles,Riley in Gunmetal,
2899,VisionDIrect,Glasses,Glasses,Spectacles,Rio in Blue,
2900,VisionDIrect,Glasses,Glasses,Spectacles,Rio in Tortoise,
2962,VisionDIrect,Glasses,Glasses,Spectacles,River in Gunmetal,
2961,VisionDIrect,Glasses,Glasses,Spectacles,River in Silver,
2901,VisionDIrect,Glasses,Glasses,Spectacles,Robin in Black,
2902,VisionDIrect,Glasses,Glasses,Spectacles,Robin in Brown,
2903,VisionDIrect,Glasses,Glasses,Spectacles,Roma in Black,
2904,VisionDIrect,Glasses,Glasses,Spectacles,Roma in Brown,
2905,VisionDIrect,Glasses,Glasses,Spectacles,Rosa in Black,
2906,VisionDIrect,Glasses,Glasses,Spectacles,Rosa in Pink,
2907,VisionDIrect,Glasses,Glasses,Spectacles,Rowan in Blue,
2908,VisionDIrect,Glasses,Glasses,Spectacles,Rowan in Gunmetal,
2909,VisionDIrect,Glasses,Glasses,Spectacles,Ryan in Black,
2910,VisionDIrect,Glasses,Glasses,Spectacles,Ryan in Gunmetal,
2911,VisionDIrect,Glasses,Glasses,Spectacles,Sahara in Green,
2912,VisionDIrect,Glasses,Glasses,Spectacles,Sahara in Purple,
2913,VisionDIrect,Glasses,Glasses,Spectacles,Sam in Black,
2914,VisionDIrect,Glasses,Glasses,Spectacles,Sam in Clear,
2915,VisionDIrect,Glasses,Glasses,Spectacles,Seth in Blue, 
2916,VisionDIrect,Glasses,Glasses,Spectacles,Seth in Tortoise,
2917,VisionDIrect,Glasses,Glasses,Spectacles,Sienna in Gold,
2918,VisionDIrect,Glasses,Glasses,Spectacles,Stacey in Brown, 
2919,VisionDIrect,Glasses,Glasses,Spectacles,Stacey in Pink,
2920,VisionDIrect,Glasses,Glasses,Spectacles,Stevie in Black,
2921,VisionDIrect,Glasses,Glasses,Spectacles,Sydney in Black,
2922,VisionDIrect,Glasses,Glasses,Spectacles,Sydney in Tortoise,
2923,VisionDIrect,Glasses,Glasses,Spectacles,Taylor in Black, 
2924,VisionDIrect,Glasses,Glasses,Spectacles,Taylor in Brown,
2951,VisionDIrect,Glasses,Glasses,Spectacles,Tennesee in Gold,
2952,VisionDIrect,Glasses,Glasses,Spectacles,Tennesee in Silver,
2927,VisionDIrect,Glasses,Glasses,Spectacles,Tokyo in Black,
2928,VisionDIrect,Glasses,Glasses,Spectacles,Tokyo in Brown,
2929,VisionDIrect,Glasses,Glasses,Spectacles,Tommy in Black,
2930,VisionDIrect,Glasses,Glasses,Spectacles,Tommy in Gunmetal,
2931,VisionDIrect,Glasses,Glasses,Solutions,Travis in Black, 
2932,VisionDIrect,Glasses,Glasses,Spectacles,Travis in Tortoise,
2934,VisionDIrect,Glasses,Glasses,Spectacles,Trent in Gunmetal,
2935,VisionDIrect,Glasses,Glasses,Spectacles,Turner in Black,
2936,VisionDIrect,Glasses,Glasses,Spectacles,Turner in Tortoise,
2937,VisionDIrect,Glasses,Glasses,Spectacles,Vaughn in Black, 
2938,VisionDIrect,Glasses,Glasses,Spectacles,Vaughn in Tortoise,
2939,VisionDIrect,Glasses,Glasses,Spectacles,Willow in Black,
2940,VisionDIrect,Glasses,Glasses,Spectacles,Willow in Tortoise,
2811,VisionDIrect,Glasses,Glasses,Spectacles,Yaks in Black,
2812,VisionDIrect,Glasses,Glasses,Spectacles,Yaks in Brown,
2943,VisionDIrect,Glasses,Glasses,Spectacles,Zack in Black,
2945,VisionDIrect,Glasses,Glasses,Spectacles,Zack in Tortoise,
2947,VisionDIrect,Glasses,Glasses,Spectacles,Zoe in Tortoise,
2319,X-Cel Specialty Contacts,Contact Lenses,CL - Monthlies,Monthly HY Sph,Extreme H2O S-xtra,Extreme
2950,,Other,Other,Other,£10 Store credit for your next purchase,
3139,,Other,Other,Other,Coloured contact lens (generic for import),
3140,,Other,Other,Other,Cosmetic contact lens (generic for import),
3128,,Other,Other,Other,Daily contact lens (generic for import),
3153,,Solutions & Eye Care,EC - Eye Drops,Drops,Eye care (generic for import),
3135,,Glasses,Glasses,Spectacles,Glasses frame (generic for import),
3141,,Glasses,Glasses,Spectacles,Made to order/RGP lens (generic for import),
3129,,Other,Other,Other,Monthly contact lens (generic for import),
3124,Olympus,Other,Other,Spectacles,Olympus Eyewear Glasses Cloth,
3125,Olympus,Other,Other,Spectacles,Olympus Eyewear Optical Screwdriver,
2949,Olympus,Other,Other,Spectacles,Olympus Eyewear Standard Glasses Case,
1229,Alcon,Solutions & Eye Care,SL - Travel Packs,Solutions,Opti-Free RepleniSH Travel,Opti-Free
3158,,Other,Other,Spectacles,Orange sunglasses (Kings Day promotion),
1176,,Other,Other,Other,Postoptics Brochure,
1912,,Other,Other,Product Family Group V2,Promotional Item, 
3130,,Solutions & Eye Care,SL - Multi-purpose Solutions,Solutions,Solution (generic for import),
3154,,Sunglasses,Sunglasses,Spectacles,Sunglasses (generic for import),
3152,,Contact Lenses,CL - Two Weeklies,Spectacles,Two weekly contact lens (generic for import),
2329,Vision Direct,Solutions & Eye Care,SL - Cleaners & Salines,Solutions,Vision Direct Saline,VD Saline
,,,, ,,
