﻿PIM Attribute Name,PIM Attribute Area,PIM Attribute Group,PIM Attribute ID,PIM Data Type,CC Attribute Name,CC Attribute ID,CC Data Type,CC Attribute Settings,Field Description
Product Type,System,Product,productType,simple_select,Product Type,productType,Enum of Strings,None,"The type of product.Possible Values are frames,dummy_product,solutions,eyecare,contact_lenses,sunglasses,warranty,lens_index lens_coating,lens_options_bundle,lens_category,lens_type lens_package,goggles"
Country Of Origin,Product,ERP Data,countryOfOrigin,simple_select,Country of Origin,countryOfOrigin,Enum of Strings,None,Country Of Origin is the country of manufacture or production where a product article comes from. Country of Origin may impact rules or regulations for sales of certain products in certain geographies.
Colour Group,Product,Technical,colourGroup,multi_select,Refinement Color,refinementColor,Enum of Strings,None,"Colour Groups are the basic colour of a product. It is used to categorise products into a (relatively) small set of simple colours which can be used for searching and filtering. A product may be in multiple colour groups, for example a physically turquoise product may be in both the Blue and Green colour groups."
Colour,Product,Technical,colour,Family Variant Axis simple_select,Colour,colour,String,None,Colour is the textual marketing name for the colour or pattern of the product.
Brand,Product,Manufacturer,brand,simple_select,Brand,brand,Enum of Strings,Visible,Brand is the name of the group of products to which a product belongs that is marketed and sold under a particular brand name.
Primary Manufacturer Name,Product,Manufacturer,primaryManufacturerName,simple_select category,Manufacturer's Category ID,manufacturerCategoryId,String,None,The manufacturer of a product is the company that is responsible for the production of the product.
ID,Product,Product,ID,text,ID,ID,String,Mandatory,ID is the unique identifier for the product within the system
ERP Product ID,Product,Product,ERPProductID,text,ERP SKU,erpSKU,String,None,The product identifier to use when sending the product to an ERP for fulfilment
SKU,Product,Product,SKU,text,External SKU ID,,,,Alternative identifier for the product
UPC,Product,Product,upc,text,UPC,upc,String,None,The product Universal Product Code
Alternative UPC,Product,ERP Data,alternativeUPC,text,,,,,An alternative Universal Product Code
Buying Season,Product,Marketing,buyingSeason,text,,,,,"Buying Season describes the sales marketing season that a product is targetted for; e.g. Autumn 19, Spring/Summer."
Benefits,Product,Marketing,benefits,textarea,,,,,To be populated from CoreMedia into CC
Long Description,Product,Marketing,longDescription,textarea,Product Details,longDescription,HTML,Localizable,The long descriptive text of the product. CoreMedia-CC for VD PIM-CC for GD
Name,Product,Product,name,text,Name,name,String,Localizable,The name of the product
,,,packText,,Pack Text,packText,HTML,None,Small description (i.e. Packed in Boxes of 30) - see packsize above (id 514) this is effectively the equivalent value for all non-contact lens products but where contact lens packsize is an integer this is text and might be used to describe a bundle of products.
Reasons To Buy,Product,Marketing,reasonsToBuy,multi_select,,,,,"Configurable values defining the reasons to buy this product, displayed in the product replacement page and elsewhere. It is important to understand that this field relates to this product as a destination product where most others relate to the relationship between the discontinued product and the new one. Implemented in CoreMedia with ability to set values"
RRP Price,Product,Pricing,rrpPrice,number,Retail Price,rrpPrice,Number,Localizable,"The recommended retail price of the product, specified as amounts and currencies"
Cost Price,Product,Pricing,costPrice,price,Cost Price,costPrice,Number,None,"The acquisition cost price of the product, specified as amount and currency"
Short Description,Product,Marketing,shortDescription,textarea,Description,shortDescription,HTML,Localizable,The short description text of the product
Vendor code,Product,ERP Data,vendorCode,simple_select,,,,,The code identifier for the product supplier where applicable.
Vendor Managed Inventory,Product,ERP Data,vendorManagedInventory,simple_select,,,,,"Vendor Managed Inventory is where the inventory level of the product is under the control of the supplier. Values are ""Stars"",""Smiles"", ""MyOptique"""
Meta Description,Product,SEO Content,pageDescription,textarea,Page Description,pageDescription,String,Localizable,Page Description is the SEO meta description of the product for use on websites
Meta Keywords,Product,SEO Content,pageKeywords,text,Page Keywords,pageKeywords,String,Localizable,Page Keywords are the SEO meta keywords for the product for use on websites
Meta Title,Product,SEO Content,pageTitle,text,Page Title,pageTitle,String,Localizable,Page Title is the web page title for the product for use on websites. The title provides page/tab heading and affects SEO ranking.
Url Key,Product,SEO,urlKey,text,Page URL,pageURL,String,Localizable,The product-specific fragment of the URL of the product for use on websites.
Searchable,Product,Web Behavioural,searchable,boolean,Searchable,searchable,Boolean,Site Specific,Indicator to show whether a product should be included into the search index of websites.
Search Keywords,Product,Web Behavioural,searchKeywords,text,Page Keywords,pageKeywords,String,Localizable,Additional search keywords to add to the site search index
Searchable If Unavailable,Product,Web Behavioural,searchableIfUnavailable,simple_select,Searchable if Unavailable,searchableIfUnavailable,Enum of Strings,Site Specific,Indicator to show whether a product should still be included into the search index of websites even if it is not available for sale.
Search Placement,Product,Web Behavioural,searchPlacement,simple_select,Search Placement,searchPlacement,Enum of Integers,Site Specific,"Used to override standard SFCC sorting rules Values are ""NONE"" and 1-8 (8 being highest)"
Search Rank,Product,Web Behavioural,searchRank,simple_select,Search Rank,searchRank,Enum of Integers,Site Specific,"Used to override standard SFCC sorting rules Values are ""NONE"" and 1-3 (3 being highest)"
Site Map Change Frequency,Product,SEO,siteMapChangeFrequency,simple_select,Change Frequency,siteMapChangeFrequency,Enum of Strings,Site Specific,"See https://www.sitemaps.org/protocol.html Values are ""always"", ""hourly"", ""daily"", ""weekly"", ""monthly"", ""yearly"", ""never"""
Site Map Included,Product,SEO,siteMapIncluded,simple_select,Included,siteMapIncluded,Enum of Integers,Site Specific,
Site Map Priority,Product,SEO,siteMapPriority,simple_select,Priority,siteMapPriority,Number,Site Specific,
Template,Product,Web Behavioural,template,text,Rendering Template,template,String,None,PDP page template to use Not needed in PIM for VD
UVAUVB Protection,Product,Technical,contactLensUVAUVBProtection,simple_select,Lens Has UVA/UVB protection,lensHasUVAUVBprotection,Enum of Strings,None,
Example GTIN Code,Product,Product,exampleGTINCode,text,Example GTIN Code,exampleGTINCode,String,,This is required for Google shopping feeds for VD - Google requires a valid GTIN (barcode from box) to map the product against. There are multiple GTINs in a product family but we arbitrarily choose one.
FDA Number,Product,Product,FDANumber,text,Sun FDA Number,sunglassesFDANumber,String,None,FDA Number
Tax Class ID,Product,Pricing,taxClassID,simple_select,Tax Class,taxClassID,String,None,
Telesales Only,Product,Behavioural,isTelesalesOnly,boolean,Telesales Only,telesalesOnly,Boolean,None,The Telesales flag identifies a product that is only available for sales via a CSR agent.
Unavailable For Countries,Product,Behavioural,unavailableForCountries,multi_select,Unavailable for Country,unavailableForCountry,Enum of Strings,None,A list of countries to which this product can not be shipped. Most important example is Everclear in US. Drives substitution behaviour and may need to be augmented by copy fields explaining the restriction per country.
Weight,Product,ERP Data,weight,"metric (length, mm)",,,,,Physical weight of the product - value in grams
Tariff Code,Product,ERP Data,tariffCode,simple_select,,,,,"Used by warehouse for shipping, so will be in the ERP feed"
Online Flag,Lifecycle,Web Behavioural,onlineFlag,boolean,Online,onlineFlag,Boolean,Site Specific,Indicator that the product is visible online.
Online From,Lifecycle,Web Behavioural,onlineFrom,date,Online From,onlineFrom,Date+Time,Site Specific,The date and time from which the product will be available to view and purchase online. Defaults to 00:00 on current day at point of completion for GD products.
Online To,Lifecycle,Web Behavioural,onlineTo,date,Online To,onlineTo,Date+Time,Site Specific,
NA,Lifecycle,System,creationDate,date,Creation Date,creationDate,Date+Time,Mandatory,Date of creation in PIM
NA,Lifecycle,System,lastModified,date,Last Modified,lastModified,Date+Time,Mandatory,Date of last modification in PIM
Publishing Date,Lifecycle,System,publishedDate,date,,,,,Date of completion in PIM
Is New Until Date,Lifecycle,Marketing,isNewUntilDate,date,Is New Until Date,isNewUntilDate,Date,,A new product is a product recently brought to market
Supply Chain Status,Lifecycle,Behavioural,supplyChainStatus,simple_select,Supply Chain Status,supplyChainStatus,Enum of Strings,None,"The lifecycle of the product in terms of it's conception, planning and management"
Availability Status,Lifecycle,Behavioural,availabilityStatus,simple_select,Availability Status,availabilityStatus,Enum of Strings,None,"The overall product lifecycle stage in terms of BU concept, marketing and sales cycle."
Basket Substitution Type,Product,Web Behavioural,basketSubstitutionType,simple_select,Basket Substitution Type,basketsubstitutionType,Enum of Strings,None,This is part of the substitution logic and defines whether a mandatory or optional substitution is to be made.
Product Page Substitution Type,Product,Web Behavioural,productPageSubstitutionType,simple_select,Product Page Substitution Type,productPageSubstitutionType,Enum of Strings,None,This is part of the substitution logic and defines whether a mandatory or optional substitution is to be made.
Variant Configuration Set,Product - Contact Lenses,Product Options,variantConfigurationSet,multi_select,,,,,Identifier for the configuration parameters available for a contact lens product option
,Product - Contact Lenses,Tehcnical,contactLensIsMultifocal,,Contact Lens is Multifocal,contactLensIsMultifocal,Boolean,None,
,Product - Contact Lenses,Tehcnical,contactLensIsToric,,Contact Lens is Toric,contactLensIsToric,Boolean,None,
Addition Pack Label,Product - Contact Lenses,Technical,contactLensAdditionPackLabel,simple_select,Label for Lens Addition Parameter,contactLensAdditionPackLabel,Enum of Strings,Localisable,Pack labels values different per manufacturer to display on the frontend
Axis PackLabel,Product - Contact Lenses,Technical,contactLensAxisPackLabel,simple_select,Label for Lens Axis Paramete,contactLensAxisPackLabel,Enum of Strings,Localisable,Pack labels values different per manufacturer to display on the frontend
Base Curve Pack Label,Product - Contact Lenses,Technical,contactLensBaseCurvePackLabel,simple_select,Label for Lens Base Curve Parameter,contactLensBaseCurvePackLabel,Enum of Strings,Localisable,Pack labels values different per manufacturer to display on the frontend
Cylinder Pack Label,Product - Contact Lenses,Technical,contactLensCylinderPackLabel,simple_select,Label for Lens Cylinder Parameter,contactLensCylinderPackLabel,Enum of Strings,Localisable,Pack labels values different per manufacturer to display on the frontend
Diameter Pack Label,Product - Contact Lenses,Technical,contactLensDiameterPackLabel,simple_select,Label for Lens Diameter Parameter,contactLensDiameterPackLabel,Enum of Strings,Localisable,Pack labels values different per manufacturer to display on the frontend
Dominant Pack Label,Product - Contact Lenses,Technical,contactLensDominantPackLabel,simple_select,Label for Lens Dominant Parameter,contactLensDominantPackLabel,Enum of Strings,Localisable,Pack labels values different per manufacturer to display on the frontend
Power Pack Label,Product - Contact Lenses,Technical,contactLensPowerPackLabel,simple_select,Label for Lens Power Parameter,contactLensPowerPackLabel,Enum of Strings,Localisable,Pack labels values different per manufacturer to display on the frontend
,,,,,,,,,
Days Per Lens,Product - Contact Lenses,Technical,contactLensDaysPerLens,simple_select,Days Per Lens,daysPerLens,Number,None,Days per Lens
Is Extended Wear,Product - Contact Lenses,Technical,contactLensIsExtendedWear,boolean,Is Extended Wear,contactLensIsExtendedWear,Boolean,None,For night and day lenses which can be worn overnight
Lens Family,Product - Contact Lenses,Technical,contactLensFamily,simple_select,Lens Family,lensFamily,Enum of Strings,None,"Define lens family for contact lenses: Flexible, Rigid. This needs to be clearly disambiguated from other contact lens type fields"
Has Handling Tint,Product - Contact Lenses,Technical,contactLensHasHandlingTint,boolean,Lens Has Tint,contactLensHasHandlingTint,Boolean,None,Boolean to indicate whether lens has a handling tint
Material Name,Product - Contact Lenses,Technical,contactLensMaterialName,simple_select,Contact Lens Material Name,contactLensMaterial,Enum of Strings,None,Contact Lens Material
Oxygen Permeability,Product - Contact Lenses,Technical,contactLensOxygenPermeability,text,Oxygen Permeability,oxygenPermeability,String,None,Oxygen Permeability
Pack Size,Product - Contact Lenses,Technical,contactLensPackSize,simple_select,Contact Lens Pack Size,contactLensPackSize,Integer,None,Pack Size
Water Content,Product - Contact Lenses,Technical,contactLensWaterContent,number,Water Content,contactLensWaterContent,Integer,None,% of water content
Addition Options,Product - Contact Lenses,Product Options,contactLensAdditionOptions,multi_select,Addition,contactLensAdditionOptions,Set of Strings,None,Defines the range of available Addition Values for a Prescription Contact Lens Product
Axis Options,Product - Contact Lenses,Product Options,contactLensAxisOptions,multi_select,Axis,contactLensAxisOptions,Set of Strings,None,Defines the range of available Axis Values for a Prescription Contact Lens Product
Base Curve Opttions,Product - Contact Lenses,Product Options,contactLensBaseCurveOptions,multi_select,Base Curve,contactLensBaseCurveOptions,Set of Strings,None,Defines the range of available Base Curve Values for a Prescription Contact Lens Product
Cylinder Options,Product - Contact Lenses,Product Options,contactLensCylinderOptions,multi_select,Cylinder,contactLensCylinderOptions,Set of Strings,None,Defines the range of available Cylinder Values for a Prescription Contact Lens Product
Diameter Options,Product - Contact Lenses,Product Options,contactLensDiameterOptions,multi_select,Diameter,contactLensDiameterOptions,Set of Strings,None,Defines the range of available Diameter Values for a Prescription Contact Lens Product
Dominant Options,Product - Contact Lenses,Product Options,contactLensDominantOptions,multi_select,Dominant,contactLensDominantOptions,Set of Strings,None,Defines the range of available Dominant Values for a Prescription Contact Lens Product
Power Options,Product - Contact Lenses,Product Options,contactLensPowerOptions,multi_select,Power,contactLensPowerOptions,Set of Strings,None,Defines the range of available Power Values for a Prescription Contact Lens Product
Colour Options,Product - Contact Lenses,Product Options,contactLensColourOptions,multi_select,Contact Lens Color,contactLensColourOptions,Set of Strings,None,Defines the range of available colours for a Prescription Contact Lens Product
Options Check Required,Product - Contact Lenses,Behavioural,contactLensOptionsCheckRequired,boolean,Contact Lens Options Check Required,contactLensOptionsCheckRequired,Boolean,None,"Identifies whether selected Option combinations need to be validated for this product. If false, all Options combinations are a valid configuration. If true, some combinations may not be allowed and a customer selection should be validated when purchasing."
Home Trial Stock Protection Level,Product - Prescription Glasses,Behavioural,homeTrialStockProtectionLevel,number,Home Trial Threshold,homeTrialThreshold,Integer,None,"This is the stock threshold reserved for HT. So when stock levels reach this, this product is then not available for sale (only HT)"
Arm Length,Product - Prescription Glasses,Technical,frameArmLength,metric,Arm Length,frameArmLength,String,None,Arm Length
Arm Material,Product - Prescription Glasses,Technical,frameArmMaterial,simple_select,Arm Material,frameArmMaterial,Enum of Strings,None,Arm Material
Bridge Width,Product - Prescription Glasses,Technical,frameBridgeWidth,metric,Bridge Width,frameBridgeWidth,String,None,Bridge Width
Depth,Product - Prescription Glasses,Technical,frameDepth,metric,Frame Depth,frameDepth,String,None,Depth
Lens Diameter,Product - Prescription Glasses,Technical,frameLensDiameter,metric,Lens Diameter,frameLensDiameter,String,None,Lens Diameter
Material,Product - Prescription Glasses,Technical,frameMaterial,simple_select,Material,frameMaterial,Enum of Strings,None,Material
Frame Type,Product - Prescription Glasses,Technical,frameType,simple_select,Frame Type,frameType,Enum of Strings,None,Frame Type
Shape,Product - Prescription Glasses,Technical,frameShape,simple_select,Frame Shape,frameShape,Enum of Strings,None,Shape
Calliper,Product - Prescription Glasses,Technical,frameCalliper,metric,Calliper,frameCalliper,String,None,Calliper
Width,Product - Prescription Glasses,Technical,frameWidth,metric,Frame Width,frameWidth,String,None,Width
Gender,Product - Prescription Glasses,Technical,gender,multi_select,Gender,gender,Enum of Strings,None,Gender
Box Size Code,Product,Technical,boxSizeCode,simple_select,Box Size Code,boxSizeCode,String,None,"XS, S, M, L, XL"
Manufacturer Colour Code,Product,ERP Data,manufacturerColourCode,text,Manufacturer Colour Code,frameManufacturerColourCode,String,None,Colour transmitted by the manufacturer
Manufacturer SKU,Product,ERP Data,manufacturerSKU,text,Manufacturer Product ID,manufacturerSKU,String,None,SKU used by the manufacturer
Merchandising Segment,Product,ERP Data,merchandisingSegment,text,,,,,This is a B&M field used to indicate the type of frame for analysis of ranges of product
Size code,Product - Non-Prescription Eyewear,Technical,sizeCode,simple_select,Size Code,sizeCode,Enum of Strings,None,Defines the overall product size - Large/Medium/Small
Internal Lens Colour,Product - Non-Prescription Eyewear,Technical,internalLensColour,simple_select,Sun Internal Lens Colour,sunglassesInternalLensColour,Enum of Strings,None,Internal Lens Colour
External Lens Colour,Product - Non-Prescription Eyewear,Technical,externalLensColour,simple_select,Sun External Lens Colour,sunglassesExternalLensColour,Enum of Strings,None,External Lens Colour - this is the glasses lens equivalent of contactLensColourValues
Lens Category,Product - Non-Prescription Eyewear,Technical,sunLensCategory,simple_select,,,,,
Lens Type,Product - Non-Prescription Eyewear,Technical,sunLensType,simple_select,,,,,Define if glasses are : Mirrored / Photochromic / Gradient / Polarised
Default Variation,Product,Behavioural,defaultVariation,essilor_variation_type,Default Variant,isDefault,Boolean,None,Defines the default variaiton for a product model
Images Gallery,Product,Other,imagesGallery,assets_collection,Image,image,Image,Localisable,Defines images for simple products and product variations
Parent Images,Product,Other,parentImages,assets_collection,Image,image,Image,Localisable,Defines images for product models
Thumbnail 1,Product,Other,thumbnail1,assets_collection,Image,image,Image,Localisable,Defines thumbnail images for simple products and product variations
Thumbnail 2,Product,Other,thumbnail2,assets_collection,Image,image,Image,Localisable,Defines thumbnail images for simple products and product variations
Internal Validation,Product - Lens Package Flow,Behavioural,internalValidation,boolean,,,,,
Frame Type Compatibility,Product - Lens Package Flow,Technical,lensFrameTypeCompatibility,multi_select,lensFrameTypeCompatibility,Lens frame type compatibility,Set of Strings,None,Not used in Lens Package Flow as it currently uses FrameType to drive the particular lens flow journey. Will keep the attribute for future lens flow journeys
Index,Product - Lens Package Flow,Technical,lensIndex,simple_select,Lens Index,lensIndex,Enum of Strings,None,
Coating Code,Product - Lens Package Flow,ERP Data,lensCoatingCode,simple_select,Lens Coating Code,coatings,Enum of Strings,None,
Coating Description,Product - Lens Package Flow,ERP Data,lensCoatingDescription,simple_select,,,,,
UV,Product - Lens Package Flow,Technical,lensUv,simple_select,UV,lensUv,Enum of Strings,None,
UV Description,Product - Lens Package Flow,Technical,lensUvDescription,simple_select,,,,,
Package Code,Product - Lens Package Flow,Technical,lensPackageCode,simple_select,Lens Package Code,lensPackageCode,Enum of Strings,None,
Lens Sub Type,Product - Lens Package Flow,Technical,lensSubType,simple_select,Lens Sub Type,lensSubType,String,None,
Tint Type,Product - Lens Package Flow,Technical,lensTintType,simple_select,Lens Tint Type,lensTintType,String,None,
Tint Colour,Product - Lens Package Flow,Technical,lensTintColour,simple_select,Lens Tint Colour,lensTintColour,Enum of Strings,None,
Tint Code,Product - Lens Package Flow,Technical,lensTintCode,simple_select,Lens Tint Code,lensTintCode,String,None,
Tint Description,Product - Lens Package Flow,Technical,lensTintDescription,simple_select,Lens Tint Description,lensTintDescription,String,None,
Vision,Product - Lens Package Flow,Technical,lensVision,simple_select,Lens Vision,lensVision,String,None,
Vision Type,Product - Lens Package Flow,Technical,lensVisionType,simple_select,Lens Vision Type,lensVisionType,String,None,
Lens Type,Product - Lens Package Flow,Technical,lensType,simple_select,Lens Type,lensType,String,None,
Material,Product - Lens Package Flow,Technical,lensMaterial,simple_select,Lens Material,lensMaterial,String,None,
Variant CSV Generation Hash,Product - Contact Lenses,Other,variantCSVHash,Text,,,,,
Variant generation status,Product - Contact Lenses,Other,variantGenerationStatus,simple_select,,,,,
Variant CSV Generation Status,Product - Contact Lenses,Other,variantCSVGenerationStatus,Text,,,,,
Variant Sent to ERP Hash,Product - Contact Lenses,Other,variantErpHash,Text,,,,,
Variant ERP Status,Product - Contact Lenses,Other,variantErpStatus,Text,,,,,
Suggest Alternative,Lifecycle,Behavioural,suggestAlternative,boolean,Suggest Alternative,suggestAlternative,boolean,,
Contact Lens Vision Type,Product - Contact Lenses,Technical,contactLensVisionType,multi-select,Contact Lens Vision Type,contactLensVisionType,Enum of Strings,,
