Status;Tracking Category;Order ID;Suborder ID;Customer ID;Sale Value (Tracking Currency);Tracking Currency;Sale Value (Programme Currency);Commission (Programme Currency);Commission Fix;Commission (in %);Click Date;Transaction Date;Conversion Time (in Minutes);Edited on;Publisher;Your Comments;Click Referrer;Adspace
Open;New Custoner;24000070146;;2016464;44.47;EUR;44.47;4.4470;0.0000;10.00;07-04-2017 15:41:06;07-04-2017 15:45:43;4;;zanox@tikato.it;;http://www.piucodicisconto.com/new-out.html?id=2231&target=&noforce=true&re_reload=true;http://www.piucodicisconto.com
Open;New Custoner;24000070135;;2016408;71.94;EUR;71.94;5.7552;0.0000;8.00;07-04-2017 14:21:05;07-04-2017 14:38:25;17;;indiana;;http://m.codicesconto.com/go.asp?id=12098&ap=true;http://www.codicesconto.com
Open;New Custoner;24000070093;;2016218;79.41;EUR;79.41;7.9410;0.0000;10.00;07-04-2017 11:33:32;07-04-2017 11:38:26;4;;Cuponation IT;;;http://www.cuponation.it
Open;Old Customer;24000070033;;1563770;78.95;EUR;78.95;1.5790;0.0000;2.00;07-04-2017 00:07:06;07-04-2017 00:09:41;2;;indiana;;http://www.codicesconto.com/go.asp?id=12098&ap=true;http://www.codicesconto.com
Open;New Custoner;24000070013;;2015780;32.95;EUR;32.95;2.6360;0.0000;8.00;07-03-2017 21:07:51;07-03-2017 21:11:59;4;;indiana;;http://www.codicesconto.com/go.asp?id=11520&ap=true;http://www.codicesconto.com
Open;Old Customer;24000070008;;1374366;26.97;EUR;26.97;0.5394;0.0000;2.00;07-03-2017 20:48:10;07-03-2017 20:52:27;4;;indiana;;http://www.codicesconto.com/go.asp?id=11520&ap=true;http://www.codicesconto.com
Open;New Custoner;24000070007;;2015751;38.67;EUR;38.67;3.8670;0.0000;10.00;07-03-2017 20:35:18;07-03-2017 20:52:19;17;;Cuponation IT;;;http://www.cuponation.it
Open;New Custoner;24000069934;;2015466;88.95;EUR;88.95;8.8950;0.0000;10.00;07-03-2017 15:10:28;07-03-2017 15:13:31;3;;GrouponFreebies;;https://www.groupon.it/buoni-sconto/negozi/getlenses.it;http://www.groupon.it
Open;New Custoner;24000069867;;2015235;59.35;EUR;59.35;5.9350;0.0000;10.00;07-03-2017 11:12:50;07-03-2017 11:40:43;27;;Cuponation IT;;http://sconti.corriere.it/coupon-visiondirect;http://www.cuponation.it
Open;New Custoner;24000069847;;2015182;31.47;EUR;31.47;3.1470;0.0000;10.00;07-03-2017 10:29:58;07-03-2017 10:36:32;6;;Cuponation IT;;http://sconti.corriere.it/coupon-visiondirect;http://www.cuponation.it
Open;Old Customer;24000069736;;382259;83.94;EUR;83.94;1.6788;0.0000;2.00;07-02-2017 20:35:32;07-02-2017 20:38:19;2;;Advisato;;http://codicesconto.unadonna.it/go/deal/44286;http://www.advisato.com
Open;Old Customer;24000069712;;1884182;85.98;EUR;85.98;1.7196;0.0000;2.00;07-02-2017 17:45:20;07-02-2017 18:16:13;30;;indiana;;http://www.codicesconto.com/go.asp?id=12098&ap=true;http://www.codicesconto.com
Open;New Custoner;24000069678;;2014420;39.46;EUR;39.46;3.9460;0.0000;10.00;07-02-2017 12:58:11;07-02-2017 13:02:38;4;;info1@pointer.it;;;http://it.bestshopping.com
Open;Old Customer;24000069669;;1118388;83.97;EUR;83.97;1.6794;0.0000;2.00;05-31-2017 14:39:51;07-02-2017 12:03:42;45923;;indiana;;http://www.codicesconto.com/go.asp?id=3753&ap=true;http://www.codicesconto.com
Open;New Custoner;24000069613;;2013970;50.70;EUR;50.70;5.0700;0.0000;10.00;07-01-2017 17:23:02;07-01-2017 17:39:20;16;;Cuponation IT;;;http://www.cuponation.it
Open;New Custoner;24000069597;;2013889;39.18;EUR;39.18;3.1344;0.0000;8.00;07-01-2017 15:51:32;07-01-2017 16:01:01;9;;indiana;;http://m.codicesconto.com/go.asp?id=11520&ap=true;http://www.codicesconto.com
Open;Old Customer;24000069589;;1661766;40.46;EUR;40.46;0.8092;0.0000;2.00;07-01-2017 14:46:48;07-01-2017 14:54:05;7;;indiana;;http://www.codicesconto.com/go.asp?id=11520&ap=true;http://www.codicesconto.com
Open;Old Customer;24000069551;;1913284;17.48;EUR;17.48;0.3496;0.0000;2.00;07-01-2017 10:21:02;07-01-2017 10:22:23;1;;indiana;;http://www.codicesconto.com/go.asp?id=3753&ap=true;http://www.codicesconto.com
Open;New Custoner;24000069511;;2013355;68.49;EUR;68.49;5.4792;0.0000;8.00;06-30-2017 18:23:26;06-30-2017 18:58:54;35;;indiana;;http://www.codicesconto.com/go.asp?id=11520&ap=true;http://www.codicesconto.com
Open;New Custoner;24000069479;;2013196;63.85;EUR;63.85;6.3850;0.0000;10.00;06-30-2017 13:49:50;06-30-2017 15:26:48;96;;Cuponation IT;;;http://www.cuponation.it
Open;default;24000065576;;0;14.99;EUR;14.99;1.4990;0.0000;10.00;;06-30-2017 10:17:38;;;info1@pointer.it;Nachbuchung, 03/06/2017 00:06;;http://it.bestshopping.com
Open;default;24000067183;;0;72.79;EUR;72.79;7.2790;0.0000;10.00;;06-30-2017 10:17:38;;;info1@pointer.it;Nachbuchung, 14/06/2017 00:06;;http://it.bestshopping.com
Open;New Custoner;24000069386;;2012527;32.95;EUR;32.95;2.6360;0.0000;8.00;06-29-2017 17:54:46;06-29-2017 18:00:46;6;;indiana;;http://www.codicesconto.com/go.asp?id=11520&ap=true;http://www.codicesconto.com
Open;New Custoner;24000069344;;2012244;73.95;EUR;73.95;7.3950;0.0000;10.00;06-29-2017 12:41:11;06-29-2017 12:48:06;6;;Cuponation IT;;;http://www.cuponation.it
Open;New Custoner;24000069335;;2012157;47.65;EUR;47.65;4.7650;0.0000;10.00;06-29-2017 10:41:17;06-29-2017 10:51:13;9;;Cuponation IT;;;http://www.cuponation.it
Open;New Custoner;24000069323;;2012113;68.80;EUR;68.80;6.8800;0.0000;10.00;06-29-2017 09:44:32;06-29-2017 09:53:56;9;;Cuponation IT;;;http://www.cuponation.it
Open;New Custoner;24000069310;;2011901;65.64;EUR;65.64;6.5640;0.0000;10.00;06-28-2017 22:51:01;06-28-2017 23:02:06;11;;zanox@tikato.it;;http://www.piucodicisconto.com/new-out.html?id=2231&target=&noforce=true&re_reload=true;http://www.piucodicisconto.com
Open;New Custoner;24000069188;;2011267;30.46;EUR;30.46;3.0460;0.0000;10.00;06-28-2017 09:43:47;06-28-2017 10:13:19;29;;zanox@tikato.it;;http://www.piucodicisconto.com/new-out.html?id=2231&target=&fix_out=https%3a%2f%2fad.zanox.com%2fppc%2f%3f38004402C73283124%26ulp%3dhttp%3a%2f%2fwww.visiondirect.it%2faura-adm-1-day-5-pack&noforce=true&re_reload=true;http://www.piucodicisconto.com
Open;New Custoner;24000069168;;2011214;118.75;EUR;118.75;11.8750;0.0000;10.00;06-28-2017 08:51:14;06-28-2017 09:25:45;34;;Cuponation IT;;http://sconti.corriere.it/coupon-visiondirect;http://www.cuponation.it
Open;Old Customer;24000069153;;1603520;46.46;EUR;46.46;0.9292;0.0000;2.00;06-27-2017 11:55:10;06-28-2017 00:19:52;744;;indiana;;http://m.codicesconto.com/go.asp?id=11520&ap=true;http://www.codicesconto.com
Open;New Custoner;24000069067;;2010539;66.55;EUR;66.55;6.6550;0.0000;10.00;06-27-2017 13:50:35;06-27-2017 13:59:33;8;;Cuponation IT;;;http://www.cuponation.it
Open;New Custoner;24000069051;;2010447;46.71;EUR;46.71;3.7368;0.0000;8.00;06-27-2017 11:59:29;06-27-2017 12:21:17;21;;indiana;;http://www.codicesconto.com/go.asp?ap=true&id=12098&cfr=1;http://www.codicesconto.com
Open;Old Customer;24000068972;;1567388;95.95;EUR;95.95;1.9190;0.0000;2.00;06-26-2017 19:19:54;06-26-2017 19:22:49;2;;indiana;;http://www.codicesconto.com/go.asp?id=3753&ap=true;http://www.codicesconto.com
Open;New Custoner;24000068949;;2009722;33.48;EUR;33.48;3.3480;0.0000;10.00;06-26-2017 16:51:09;06-26-2017 16:58:44;7;;chiara.zanutto@gmail.com;;http://studioklab.com/ORDINALENTIONLINE/BIOFINITY-MULTIFOCALE-ACQUISTA-ONLINE/;http://www.studioklab.com/ordinalentionline/
Open;New Custoner;24000068932;;2009625;65.79;EUR;65.79;5.2632;0.0000;8.00;06-26-2017 15:07:34;06-26-2017 15:12:38;5;;indiana;;http://www.codicesconto.com/go.asp?id=11520&ap=true;http://www.codicesconto.com
Open;New Custoner;24000068918;;2009575;46.71;EUR;46.71;3.7368;0.0000;8.00;06-26-2017 14:12:37;06-26-2017 14:16:41;4;;indiana;;http://www.codicesconto.com/go.asp?id=12098&ap=true;http://www.codicesconto.com
Open;New Custoner;24000068883;;2009429;71.43;EUR;71.43;5.7144;0.0000;8.00;06-26-2017 11:29:46;06-26-2017 11:46:46;16;;indiana;;http://www.codicesconto.com/go.asp?id=12098&ap=true;http://www.codicesconto.com
Open;New Custoner;24000068830;;2009316;71.95;EUR;71.95;7.1950;0.0000;10.00;06-26-2017 09:00:46;06-26-2017 09:24:26;23;;Cuponation IT;;http://sconti.corriere.it/coupon-visiondirect;http://www.cuponation.it
Open;New Custoner;24000068774;;2009067;108.49;EUR;108.49;8.6792;0.0000;8.00;06-25-2017 21:29:41;06-25-2017 21:36:27;6;;Advisato;;http://codicesconto.unadonna.it/go/deal/42029;http://www.advisato.com
Open;Old Customer;24000068772;;1388095;16.48;EUR;16.48;0.3296;0.0000;2.00;06-25-2017 21:24:59;06-25-2017 21:25:44;0;;indiana;;http://www.codicesconto.com/go.asp?id=2098;http://www.codicesconto.com
Open;New Custoner;24000068734;;2008804;118.75;EUR;118.75;11.8750;0.0000;10.00;06-25-2017 15:55:56;06-25-2017 15:58:01;2;;info1@pointer.it;;;http://it.bestshopping.com
Open;New Custoner;24000068729;;2008786;36.45;EUR;36.45;3.6450;0.0000;10.00;06-25-2017 15:05:59;06-25-2017 15:33:36;27;;cristianotozzi;;;http://www.medform.it
Open;New Custoner;24000068680;;2008402;135.92;EUR;135.92;13.5920;0.0000;10.00;06-23-2017 23:48:47;06-24-2017 22:06:00;1337;;cristianotozzi;;;http://www.medform.it
Open;New Custoner;24000068557;;2007621;147.79;EUR;147.79;14.7790;0.0000;10.00;06-23-2017 16:43:35;06-23-2017 16:57:50;14;;Cuponation IT;;http://sconti.corriere.it/coupon-visiondirect;http://www.cuponation.it
Open;Old Customer;24000068519;;1472520;96.93;EUR;96.93;1.9386;0.0000;2.00;06-23-2017 12:04:24;06-23-2017 12:20:55;16;;Advisato;;;http://www.advisato.com
Open;New Custoner;24000068517;;2007383;16.93;EUR;16.93;1.3544;0.0000;8.00;06-23-2017 12:07:28;06-23-2017 12:13:27;5;;indiana;;http://m.codicesconto.com/go.asp?id=11520&ap=true;http://www.codicesconto.com
Open;New Custoner;24000068426;;2006759;189.97;EUR;189.97;18.9970;0.0000;10.00;06-22-2017 16:28:14;06-22-2017 16:36:55;8;;Cuponation IT;;;http://www.cuponation.it
Open;Old Customer;24000068385;;1705281;79.96;EUR;79.96;1.5992;0.0000;2.00;06-22-2017 10:43:05;06-22-2017 11:10:35;27;;indiana;;http://www.codicesconto.com/go.asp?id=12098&ap=true;http://www.codicesconto.com
Open;New Custoner;24000068358;;2006419;31.47;EUR;31.47;3.1470;0.0000;10.00;06-22-2017 08:07:05;06-22-2017 08:12:11;5;;gogmagog73;;http://www.couponlenti.it/negozi/vision-direct-it/;http://www.couponlenti.it
Open;New Custoner;24000068272;;2005912;46.47;EUR;46.47;4.6470;0.0000;10.00;06-21-2017 15:09:36;06-21-2017 15:33:59;24;;cristianotozzi;;;http://www.medform.it
Open;New Custoner;24000068250;;2005780;73.87;EUR;73.87;5.9096;0.0000;8.00;06-21-2017 12:57:46;06-21-2017 13:11:54;14;;indiana;;http://m.codicesconto.com/go.asp?id=12098&ap=true;http://www.codicesconto.com
Open;New Custoner;24000068238;;2005718;87.95;EUR;87.95;7.0360;0.0000;8.00;06-21-2017 11:57:35;06-21-2017 11:59:48;2;;Advisato;;;http://www.advisato.com
Open;New Custoner;24000068234;;1901256;66.71;EUR;66.71;5.3368;0.0000;8.00;06-21-2017 11:41:36;06-21-2017 11:51:57;10;;indiana;;http://www.codicesconto.com/go.asp?id=11520&ap=true;http://www.codicesconto.com
Open;New Custoner;24000068227;;2005698;26.47;EUR;26.47;2.6470;0.0000;10.00;06-21-2017 11:26:39;06-21-2017 11:35:29;8;;offers@bestoffersforu.com;;http://bestoffersforu.com/it/offerte-online/42;http://www.bestoffersforu.com/it
Open;New Custoner;24000068224;;2005680;16.48;EUR;16.48;1.6480;0.0000;10.00;06-20-2017 13:19:45;06-21-2017 11:20:46;1321;;GrouponFreebies;;https://www.groupon.it/buoni-sconto/negozi/getlenses.it?c=67930f47-842f-448d-94cb-5ca1f8842cc0;http://www.groupon.it
Open;New Custoner;24000068203;;1841088;38.47;EUR;38.47;3.8470;0.0000;10.00;06-21-2017 09:17:36;06-21-2017 09:37:59;20;;GrouponFreebies;;;http://www.groupon.it
Open;New Custoner;24000068174;;2005337;35.07;EUR;35.07;3.5070;0.0000;10.00;06-20-2017 22:02:51;06-20-2017 22:23:11;20;;GrouponFreebies;;https://www.groupon.it/buoni-sconto/negozi/getlenses.it?c=29bf8bea-8227-42fe-a647-4fbfc6b06b7d;http://www.groupon.it
Open;Old Customer;24000068051;;1264230;34.47;EUR;34.47;0.6894;0.0000;2.00;06-20-2017 12:09:11;06-20-2017 12:13:18;4;;indiana;;http://www.codicesconto.com/go.asp?id=11520&ap=true;http://www.codicesconto.com
Open;Old Customer;24000067889;;1672759;34.47;EUR;34.47;0.0000;0.0000;0.00;06-19-2017 17:24:55;06-19-2017 17:30:10;5;;Savoo IT;;;http://www.savoo.it
Open;New Custoner;24000067784;;1635661;29.98;EUR;29.98;2.9980;0.0000;10.00;06-17-2017 19:25:45;06-19-2017 10:22:51;2337;;Cuponation IT;;;http://www.cuponation.it
Open;New Custoner;24000067766;;2003725;34.47;EUR;34.47;3.4470;0.0000;10.00;06-19-2017 09:28:16;06-19-2017 09:40:17;12;;Savoo IT;;;http://www.savoo.it
Open;New Custoner;24000067631;;2002801;38.47;EUR;38.47;3.8470;0.0000;10.00;06-17-2017 21:05:53;06-17-2017 21:14:47;8;;cristianotozzi;;;http://www.codicesconti.it
Open;New Custoner;24000067624;;2002749;40.47;EUR;40.47;4.0470;0.0000;10.00;06-11-2017 20:21:18;06-17-2017 19:53:11;8611;;cristianotozzi;;http://www.medform.it/acquistare/;http://www.medform.it
Open;Old Customer;24000067576;;1640987;46.47;EUR;46.47;0.9294;0.0000;2.00;06-17-2017 11:01:43;06-17-2017 11:05:33;3;;indiana;;http://www.codicesconto.com/go.asp?id=3753&ap=true;http://www.codicesconto.com
Open;New Custoner;24000067564;;2002400;80.96;EUR;80.96;8.0960;0.0000;10.00;06-17-2017 09:06:50;06-17-2017 09:11:29;4;;info1@pointer.it;;;http://it.bestshopping.com
Open;New Custoner;24000067504;;2001988;56.66;EUR;56.66;5.6660;0.0000;10.00;06-16-2017 16:02:32;06-16-2017 16:13:13;10;;Savoo IT;;;http://www.savoo.it
Transaction:;Pay per sale
Programme:;Vision Direct IT
From:;06-04-2017 01:00:00
Until:;07-04-2017 01:00:00
