Status,Tracking Category,Order ID,Suborder ID,Customer ID,Sale Value (Tracking Currency),Tracking Currency,Sale Value (Programme Currency),Commission (Programme Currency),Commission Fix,Commission (in %),Click Date,Transaction Date,Conversion Time (in Minutes),Edited on,Publisher,Your Comments,Click Referrer,Adspace
Open,Old Customer,24000072127,,1487995,79.74,EUR,79.74,1.5948,0,2,07/10/2017 19:26,07-17-2017 12:12:28,9646,,Advisato,,https://www.advisato.it/go/deal/41176,http://www.advisato.com
Open,Old Customer,24000072058,,219581,167.88,EUR,167.88,0,0,0,07-17-2017 09:50:07,07-17-2017 09:57:57,7,,gogmagog73,,http://www.couponlenti.it/negozi/vision-direct-it/,http://www.couponlenti.it
Open,New Custoner,24000072046,,2027098,28.47,EUR,28.47,2.2776,0,8,07-17-2017 09:21:15,07-17-2017 09:22:06,0,,indiana,,http://www.codicesconto.com/go.asp?id=11520&ap=true,http://www.codicesconto.com
Open,Old Customer,24000071998,,1492719,75.96,EUR,75.96,0,0,0,07-17-2017 06:53:34,07-17-2017 06:56:24,2,,Cuponation IT,,,http://www.cuponation.it
Open,New Custoner,24000071944,,2026616,49.46,EUR,49.46,4.946,0,10,07/08/2017 21:24,07-16-2017 16:48:10,11243,,Savoo IT,,,http://www.savoo.it
Open,Old Customer,24000071934,,2025909,24.05,EUR,24.05,0,0,0,07-15-2017 14:02:22,07-16-2017 14:52:25,1490,,GrouponFreebies,,https://www.groupon.it/buoni-sconto/negozi/getlenses.it,http://www.groupon.it
Open,Old Customer,24000071927,,1476863,79.96,EUR,79.96,0,0,0,07-16-2017 14:09:27,07-16-2017 14:13:18,3,,zanox@tikato.it,,http://www.piucodicisconto.com/new-out.html?id=2231&target=&noforce=true&re_reload=true,http://www.piucodicisconto.com
Open,New Custoner,24000071915,,2026424,26.07,EUR,26.07,2.0856,0,8,07-16-2017 12:03:37,07-16-2017 12:12:51,9,,indiana,,http://www.codicesconto.com/go.asp?id=12098&ap=true,http://www.codicesconto.com
Open,Old Customer,24000071846,,1575843,34.47,EUR,34.47,0,0,0,07-15-2017 15:32:49,07-15-2017 15:44:26,11,,GrouponFreebies,,,http://www.groupon.it
Open,Old Customer,24000071832,,1917682,124.95,EUR,124.95,0,0,0,05-26-2017 20:07:49,07-15-2017 13:31:44,71603,,partnership@topcouponlist.com,,http://www.tutticodicisconto.it/visiondirect,http://www.tutticodicisconto.it
Open,New Custoner,24000071825,,2025818,47.19,EUR,47.19,3.7752,0,8,07-15-2017 11:58:38,07-15-2017 12:07:17,8,,indiana,,http://www.codicesconto.com/go.asp?id=12098&ap=true,http://www.codicesconto.com
Open,New Custoner,24000071815,,2025769,28.47,EUR,28.47,2.847,0,10,07-15-2017 10:27:55,07-15-2017 10:37:05,9,,Cuponation IT,,,http://www.cuponation.it
Open,Old Customer,24000071789,,1395199,70.97,EUR,70.97,0,0,0,07-14-2017 19:49:45,07-14-2017 19:54:22,4,,Cuponation IT,,,http://www.cuponation.it
Open,New Custoner,24000071772,,2025394,41.84,EUR,41.84,3.3472,0,8,07-14-2017 17:12:51,07-14-2017 17:20:17,7,,indiana,,http://www.codicesconto.com/go.asp?id=11520&ap=true,http://www.codicesconto.com
Open,New Custoner,24000071756,,2025292,31.17,EUR,31.17,2.4936,0,8,07/11/2017 08:59,07-14-2017 15:16:01,4696,,indiana,,http://m.codicesconto.com/go.asp?id=11520&ap=true,http://www.codicesconto.com
Open,Old Customer,24000071699,,1611551,96.89,EUR,96.89,0,0,0,07-14-2017 09:14:45,07-14-2017 09:16:03,1,,Cuponation IT,,,http://www.cuponation.it
Open,Old Customer,24000071622,,2024472,34.72,EUR,34.72,0,0,0,07/12/2017 23:51,07-13-2017 15:46:39,954,,Cuponation IT,,,http://www.cuponation.it
Open,Old Customer,24000071579,,1354884,76.92,EUR,76.92,0,0,0,06-16-2017 10:49:02,07-13-2017 11:24:15,38915,,Cuponation IT,,,http://www.cuponation.it
Open,Old Customer,24000071577,,1540144,82.76,EUR,82.76,0,0,0,07-13-2017 10:42:09,07-13-2017 11:15:37,33,,Cuponation IT,,,http://www.cuponation.it
Open,New Custoner,24000071558,,2024233,59.37,EUR,59.37,5.937,0,10,07-13-2017 10:12:09,07-13-2017 10:16:56,4,,Cuponation IT,,,http://www.cuponation.it
Open,Old Customer,24000071502,,1893554,48.45,EUR,48.45,0,0,0,07/12/2017 18:51,07/12/2017 18:54,2,,GrouponFreebies,,https://www.groupon.it/buoni-sconto/negozi/getlenses.it,http://www.groupon.it
Open,New Custoner,24000071500,,2023710,26.07,EUR,26.07,2.0856,0,8,07/12/2017 18:09,07/12/2017 18:33,24,,Advisato,,,http://www.advisato.com
Open,New Custoner,24000071468,,2023570,44.97,EUR,44.97,4.497,0,10,07/12/2017 11:04,07/12/2017 14:58,233,,Cuponation IT,,,http://www.cuponation.it
Open,Old Customer,24000071420,,1899250,18.47,EUR,18.47,0,0,0,07/12/2017 11:18,07/12/2017 11:23,5,,info1@pointer.it,,,http://it.bestshopping.com
Open,Old Customer,24000071404,,446137,71.2,EUR,71.2,0,0,0,07/09/2017 20:44,07/12/2017 09:52,3667,,Cuponation IT,,,http://www.cuponation.it
Open,New Custoner,24000071348,,1574694,35.45,EUR,35.45,3.545,0,10,07/11/2017 20:56,07/11/2017 21:08,11,,partnership@topcouponlist.com,,http://www.tutticodicisconto.it/visiondirect,http://www.tutticodicisconto.it
Open,Old Customer,24000071161,,1576787,83.57,EUR,83.57,0,0,0,07/10/2017 21:12,07/10/2017 21:18,5,,Savoo IT,,,http://www.savoo.it
Open,New Custoner,24000071141,,2021887,16.48,EUR,16.48,1.3184,0,8,07/10/2017 19:47,07/10/2017 19:50,2,,indiana,,http://www.codicesconto.com/go.asp?id=11520&ap=true,http://www.codicesconto.com
Open,Old Customer,24000071053,,1349183,103.95,EUR,103.95,0,0,0,07/10/2017 13:51,07/10/2017 13:56,4,,Cuponation IT,,,http://www.cuponation.it
Open,Old Customer,24000071031,,1431199,36.47,EUR,36.47,0,0,0,07/10/2017 11:26,07/10/2017 12:29,62,,Cuponation IT,,,http://www.cuponation.it
Open,Old Customer,24000071024,,2020636,68.45,EUR,68.45,0,0,0,07/09/2017 13:13,07/10/2017 12:08,1375,,chiara.zanutto@gmail.com,,http://studioklab.com/ordinalentionline/biofinity-sferica-acquista-online/,http://www.studioklab.com/ordinalentionline/
Open,Old Customer,24000071013,,1458530,28.47,EUR,28.47,0,0,0,07/10/2017 11:41,07/10/2017 11:48,6,,Cuponation IT,,,http://www.cuponation.it
Open,Old Customer,24000070991,,1868055,57.65,EUR,57.65,1.153,0,2,07/08/2017 14:53,07/10/2017 11:03,2650,,indiana,,http://m.codicesconto.com/go.asp?id=11520&ap=true,http://www.codicesconto.com
Open,Old Customer,24000070979,,1510018,38.47,EUR,38.47,0,0,0,07/09/2017 18:59,07/10/2017 10:23,923,,Cuponation IT,,,http://www.cuponation.it
Open,Old Customer,24000070977,,339234,61.45,EUR,61.45,0,0,0,07/10/2017 10:15,07/10/2017 10:23,7,,Cuponation IT,,,http://www.cuponation.it
Open,New Custoner,24000070932,,2021251,53.07,EUR,53.07,4.2456,0,8,07/10/2017 09:00,07/10/2017 09:04,4,,indiana,,http://www.codicesconto.com/go.asp?id=3753&ap=true,http://www.codicesconto.com
Open,Old Customer,24000070837,,1510018,38.47,EUR,38.47,0,0,0,07/09/2017 18:59,07/09/2017 19:04,5,,Cuponation IT,,,http://www.cuponation.it
Open,New Custoner,24000070806,,2020740,46.47,EUR,46.47,4.647,0,10,07/09/2017 15:55,07/09/2017 16:09,14,,Cuponation IT,,,http://www.cuponation.it
Open,Old Customer,24000070793,,231728,66.94,EUR,66.94,0,0,0,07/09/2017 12:36,07/09/2017 12:41,4,,Savoo IT,,,http://www.savoo.it
Open,Old Customer,24000070758,,1450371,87.96,EUR,87.96,0,0,0,07/08/2017 20:14,07/08/2017 20:16,2,,Cuponation IT,,,http://www.cuponation.it
Open,Old Customer,24000070756,,1695251,77.97,EUR,77.97,1.5594,0,2,07/08/2017 19:33,07/08/2017 20:00,27,,indiana,,http://www.codicesconto.com/go.asp?id=2098,http://www.codicesconto.com
Open,Old Customer,24000070753,,1911494,80.95,EUR,80.95,0,0,0,05-17-2017 17:44:45,07/08/2017 19:30,74985,,chiara.zanutto@gmail.com,,http://studioklab.com/ordinalentionline/biofinity-toric-acquista-online/,http://www.studioklab.com/ordinalentionline/
Open,Old Customer,24000070743,,1433085,26.96,EUR,26.96,0,0,0,07/08/2017 17:17,07/08/2017 17:19,2,,orangeorange,,,http://www.cashbackdeals.it
Open,Old Customer,24000070737,,1509295,48.47,EUR,48.47,0.9694,0,2,07/08/2017 16:05,07/08/2017 16:09,3,,indiana,,http://www.codicesconto.com/go.asp?id=2098,http://www.codicesconto.com
Open,Old Customer,24000070644,,2019195,122.33,EUR,122.33,0,0,0,07/07/2017 13:08,07/07/2017 16:13,184,,Cuponation IT,,,http://www.cuponation.it
Open,New Custoner,24000070614,,2019208,27.87,EUR,27.87,2.787,0,10,07/07/2017 13:16,07/07/2017 13:19,2,,Cuponation IT,,,http://www.cuponation.it
Open,New Custoner,24000070610,,1342682,44.47,EUR,44.47,3.5576,0,8,07/07/2017 12:08,07/07/2017 12:42,34,,indiana,,http://www.codicesconto.com/go.asp?id=2098,http://www.codicesconto.com
Open,Old Customer,24000070600,,1598506,36.51,EUR,36.51,0.7302,0,2,07/07/2017 11:44,07/07/2017 11:47,2,,indiana,,http://www.codicesconto.com/go.asp?id=11520&ap=true,http://www.codicesconto.com
Open,Old Customer,24000070495,,2017481,31.17,EUR,31.17,0.6234,0,2,07/06/2017 15:42,07/06/2017 15:51,8,,indiana,,http://www.codicesconto.com/go.asp?id=11520&ap=true,http://www.codicesconto.com
Open,New Custoner,24000070488,,2018317,77.95,EUR,77.95,7.795,0,10,07/06/2017 14:20,07/06/2017 14:28,7,,info1@pointer.it,,,http://it.bestshopping.com
Open,New Custoner,24000070441,,2018143,40.45,EUR,40.45,4.045,0,10,07/06/2017 10:15,07/06/2017 10:20,5,,info1@pointer.it,,,http://it.bestshopping.com
Open,Old Customer,24000070185,,1350548,34.47,EUR,34.47,0,0,0,07/03/2017 10:35,07/06/2017 09:03,4228,,Cuponation IT,,http://sconti.corriere.it/coupon-visiondirect,http://www.cuponation.it
Open,Old Customer,24000070402,,1332546,95.94,EUR,95.94,0,0,0,07/05/2017 21:52,07/05/2017 22:07,15,,Cuponation IT,,,http://www.cuponation.it
Open,Old Customer,24000070359,,1677487,74.95,EUR,74.95,0,0,0,07/05/2017 17:35,07/05/2017 17:42,6,,Cuponation IT,,,http://www.cuponation.it
Open,Old Customer,24000070354,,1486763,87.95,EUR,87.95,0,0,0,07/05/2017 06:57,07/05/2017 17:39,642,,Cuponation IT,,,http://www.cuponation.it
Open,New Custoner,24000070338,,2017529,45.86,EUR,45.86,4.586,0,10,07/05/2017 16:20,07/05/2017 16:29,8,,Cuponation IT,,,http://www.cuponation.it
Open,New Custoner,24000070310,,2017392,72.82,EUR,72.82,7.282,0,10,07/05/2017 14:11,07/05/2017 14:22,10,,affiliazioneit@gmail.com,,,https://www.weglo.it/
Open,Old Customer,24000070300,,1657836,21.48,EUR,21.48,0,0,0,05-31-2017 17:54:00,07/05/2017 13:04,50110,,Cuponation IT,,http://sconti.corriere.it/coupon-visiondirect,http://www.cuponation.it
Open,Old Customer,24000070258,,1660973,81.96,EUR,81.96,0,0,0,07/05/2017 08:50,07/05/2017 09:11,20,,Cuponation IT,,,http://www.cuponation.it
Open,New Custoner,24000070257,,2017116,98.75,EUR,98.75,7.9,0,8,07/05/2017 08:59,07/05/2017 09:01,2,,indiana,,http://www.codicesconto.com/go.asp?id=11520&ap=true,http://www.codicesconto.com
Open,Old Customer,24000070240,,1486763,87.95,EUR,87.95,0,0,0,07/05/2017 06:57,07/05/2017 07:03,5,,Cuponation IT,,,http://www.cuponation.it
Open,New Custoner,24000070228,,2016922,60.25,EUR,60.25,6.025,0,10,07/02/2017 09:57,07/04/2017 23:17,3680,,GrouponFreebies,,https://www.groupon.it/buoni-sconto/negozi/getlenses.it?c=67930f47-842f-448d-94cb-5ca1f8842cc0,http://www.groupon.it
Open,Old Customer,24000070171,,1700766,113.94,EUR,113.94,0,0,0,07/04/2017 17:22,07/04/2017 17:26,3,,affiliazioneit@gmail.com,,,https://www.weglo.it/
Open,New Custoner,24000070146,,2016464,44.47,EUR,44.47,4.447,0,10,07/04/2017 15:41,07/04/2017 15:45,4,,zanox@tikato.it,,http://www.piucodicisconto.com/new-out.html?id=2231&target=&noforce=true&re_reload=true,http://www.piucodicisconto.com
Open,New Custoner,24000070135,,2016408,71.94,EUR,71.94,5.7552,0,8,07/04/2017 14:21,07/04/2017 14:38,17,,indiana,,http://m.codicesconto.com/go.asp?id=12098&ap=true,http://www.codicesconto.com
Open,New Custoner,24000070093,,2016218,79.41,EUR,79.41,7.941,0,10,07/04/2017 11:33,07/04/2017 11:38,4,,Cuponation IT,,,http://www.cuponation.it
Open,Old Customer,24000070033,,1563770,78.95,EUR,78.95,1.579,0,2,07/04/2017 00:07,07/04/2017 00:09,2,,indiana,,http://www.codicesconto.com/go.asp?id=12098&ap=true,http://www.codicesconto.com
Open,New Custoner,24000070013,,2015780,32.95,EUR,32.95,2.636,0,8,07/03/2017 21:07,07/03/2017 21:11,4,,indiana,,http://www.codicesconto.com/go.asp?id=11520&ap=true,http://www.codicesconto.com
Open,Old Customer,24000070008,,1374366,26.97,EUR,26.97,0.5394,0,2,07/03/2017 20:48,07/03/2017 20:52,4,,indiana,,http://www.codicesconto.com/go.asp?id=11520&ap=true,http://www.codicesconto.com
Open,New Custoner,24000070007,,2015751,38.67,EUR,38.67,3.867,0,10,07/03/2017 20:35,07/03/2017 20:52,17,,Cuponation IT,,,http://www.cuponation.it
Open,New Custoner,24000069934,,2015466,88.95,EUR,88.95,8.895,0,10,07/03/2017 15:10,07/03/2017 15:13,3,,GrouponFreebies,,https://www.groupon.it/buoni-sconto/negozi/getlenses.it,http://www.groupon.it
Open,New Custoner,24000069867,,2015235,59.35,EUR,59.35,5.935,0,10,07/03/2017 11:12,07/03/2017 11:40,27,,Cuponation IT,,http://sconti.corriere.it/coupon-visiondirect,http://www.cuponation.it
Open,New Custoner,24000069847,,2015182,31.47,EUR,31.47,3.147,0,10,07/03/2017 10:29,07/03/2017 10:36,6,,Cuponation IT,,http://sconti.corriere.it/coupon-visiondirect,http://www.cuponation.it
Open,Old Customer,24000069736,,382259,83.94,EUR,83.94,1.6788,0,2,07/02/2017 20:35,07/02/2017 20:38,2,,Advisato,,http://codicesconto.unadonna.it/go/deal/44286,http://www.advisato.com
Open,Old Customer,24000069712,,1884182,85.98,EUR,85.98,1.7196,0,2,07/02/2017 17:45,07/02/2017 18:16,30,,indiana,,http://www.codicesconto.com/go.asp?id=12098&ap=true,http://www.codicesconto.com
Open,New Custoner,24000069678,,2014420,39.46,EUR,39.46,3.946,0,10,07/02/2017 12:58,07/02/2017 13:02,4,,info1@pointer.it,,,http://it.bestshopping.com
Open,Old Customer,24000069669,,1118388,83.97,EUR,83.97,1.6794,0,2,05-31-2017 14:39:51,07/02/2017 12:03,45923,,indiana,,http://www.codicesconto.com/go.asp?id=3753&ap=true,http://www.codicesconto.com
Open,New Custoner,24000069613,,2013970,50.7,EUR,50.7,5.07,0,10,07/01/2017 17:23,07/01/2017 17:39,16,,Cuponation IT,,,http://www.cuponation.it
Open,New Custoner,24000069597,,2013889,39.18,EUR,39.18,3.1344,0,8,07/01/2017 15:51,07/01/2017 16:01,9,,indiana,,http://m.codicesconto.com/go.asp?id=11520&ap=true,http://www.codicesconto.com
Open,Old Customer,24000069589,,1661766,40.46,EUR,40.46,0.8092,0,2,07/01/2017 14:46,07/01/2017 14:54,7,,indiana,,http://www.codicesconto.com/go.asp?id=11520&ap=true,http://www.codicesconto.com
Open,Old Customer,24000069551,,1913284,17.48,EUR,17.48,0.3496,0,2,07/01/2017 10:21,07/01/2017 10:22,1,,indiana,,http://www.codicesconto.com/go.asp?id=3753&ap=true,http://www.codicesconto.com
Open,New Custoner,24000069511,,2013355,68.49,EUR,68.49,5.4792,0,8,06-30-2017 18:23:26,06-30-2017 18:58:54,35,,indiana,,http://www.codicesconto.com/go.asp?id=11520&ap=true,http://www.codicesconto.com
Open,New Custoner,24000069479,,2013196,63.85,EUR,63.85,6.385,0,10,06-30-2017 13:49:50,06-30-2017 15:26:48,96,,Cuponation IT,,,http://www.cuponation.it
Open,default,24000065576,,0,14.99,EUR,14.99,1.499,0,10,06-30-2017 10:17:38, 03/06/2017 00:06,,,Nachbuchung,,info1@pointer.it,http://it.bestshopping.com
Open,default,24000067183,,0,72.79,EUR,72.79,7.279,0,10,06-30-2017 10:17:38, 14/06/2017 00:06,,,Nachbuchung,,info1@pointer.it,http://it.bestshopping.com
Open,New Custoner,24000069386,,2012527,32.95,EUR,32.95,2.636,0,8,06-29-2017 17:54:46,06-29-2017 18:00:46,6,,indiana,,http://www.codicesconto.com/go.asp?id=11520&ap=true,http://www.codicesconto.com
Open,New Custoner,24000069344,,2012244,73.95,EUR,73.95,7.395,0,10,06-29-2017 12:41:11,06-29-2017 12:48:06,6,,Cuponation IT,,,http://www.cuponation.it
Open,New Custoner,24000069335,,2012157,47.65,EUR,47.65,4.765,0,10,06-29-2017 10:41:17,06-29-2017 10:51:13,9,,Cuponation IT,,,http://www.cuponation.it
Open,New Custoner,24000069323,,2012113,68.8,EUR,68.8,6.88,0,10,06-29-2017 09:44:32,06-29-2017 09:53:56,9,,Cuponation IT,,,http://www.cuponation.it
Open,New Custoner,24000069310,,2011901,65.64,EUR,65.64,6.564,0,10,06-28-2017 22:51:01,06-28-2017 23:02:06,11,,zanox@tikato.it,,http://www.piucodicisconto.com/new-out.html?id=2231&target=&noforce=true&re_reload=true,http://www.piucodicisconto.com
Open,New Custoner,24000069188,,2011267,30.46,EUR,30.46,3.046,0,10,06-28-2017 09:43:47,06-28-2017 10:13:19,29,,zanox@tikato.it,,http://www.piucodicisconto.com/new-out.html?id=2231&target=&fix_out=https%3a%2f%2fad.zanox.com%2fppc%2f%3f38004402C73283124%26ulp%3dhttp%3a%2f%2fwww.visiondirect.it%2faura-adm-1-day-5-pack&noforce=true&re_reload=true,http://www.piucodicisconto.com
Open,New Custoner,24000069168,,2011214,118.75,EUR,118.75,11.875,0,10,06-28-2017 08:51:14,06-28-2017 09:25:45,34,,Cuponation IT,,http://sconti.corriere.it/coupon-visiondirect,http://www.cuponation.it
Open,Old Customer,24000069153,,1603520,46.46,EUR,46.46,0.9292,0,2,06-27-2017 11:55:10,06-28-2017 00:19:52,744,,indiana,,http://m.codicesconto.com/go.asp?id=11520&ap=true,http://www.codicesconto.com
Open,New Custoner,24000069067,,2010539,66.55,EUR,66.55,6.655,0,10,06-27-2017 13:50:35,06-27-2017 13:59:33,8,,Cuponation IT,,,http://www.cuponation.it
Open,New Custoner,24000069051,,2010447,46.71,EUR,46.71,3.7368,0,8,06-27-2017 11:59:29,06-27-2017 12:21:17,21,,indiana,,http://www.codicesconto.com/go.asp?ap=true&id=12098&cfr=1,http://www.codicesconto.com
Open,Old Customer,24000068972,,1567388,95.95,EUR,95.95,1.919,0,2,06-26-2017 19:19:54,06-26-2017 19:22:49,2,,indiana,,http://www.codicesconto.com/go.asp?id=3753&ap=true,http://www.codicesconto.com
Open,New Custoner,24000068949,,2009722,33.48,EUR,33.48,3.348,0,10,06-26-2017 16:51:09,06-26-2017 16:58:44,7,,chiara.zanutto@gmail.com,,http://studioklab.com/ORDINALENTIONLINE/BIOFINITY-MULTIFOCALE-ACQUISTA-ONLINE/,http://www.studioklab.com/ordinalentionline/
Open,New Custoner,24000068932,,2009625,65.79,EUR,65.79,5.2632,0,8,06-26-2017 15:07:34,06-26-2017 15:12:38,5,,indiana,,http://www.codicesconto.com/go.asp?id=11520&ap=true,http://www.codicesconto.com
Open,New Custoner,24000068918,,2009575,46.71,EUR,46.71,3.7368,0,8,06-26-2017 14:12:37,06-26-2017 14:16:41,4,,indiana,,http://www.codicesconto.com/go.asp?id=12098&ap=true,http://www.codicesconto.com
Open,New Custoner,24000068883,,2009429,71.43,EUR,71.43,5.7144,0,8,06-26-2017 11:29:46,06-26-2017 11:46:46,16,,indiana,,http://www.codicesconto.com/go.asp?id=12098&ap=true,http://www.codicesconto.com
Open,New Custoner,24000068830,,2009316,71.95,EUR,71.95,7.195,0,10,06-26-2017 09:00:46,06-26-2017 09:24:26,23,,Cuponation IT,,http://sconti.corriere.it/coupon-visiondirect,http://www.cuponation.it
Open,New Custoner,24000068774,,2009067,108.49,EUR,108.49,8.6792,0,8,06-25-2017 21:29:41,06-25-2017 21:36:27,6,,Advisato,,http://codicesconto.unadonna.it/go/deal/42029,http://www.advisato.com
Open,Old Customer,24000068772,,1388095,16.48,EUR,16.48,0.3296,0,2,06-25-2017 21:24:59,06-25-2017 21:25:44,0,,indiana,,http://www.codicesconto.com/go.asp?id=2098,http://www.codicesconto.com
Open,New Custoner,24000068734,,2008804,118.75,EUR,118.75,11.875,0,10,06-25-2017 15:55:56,06-25-2017 15:58:01,2,,info1@pointer.it,,,http://it.bestshopping.com
Open,New Custoner,24000068729,,2008786,36.45,EUR,36.45,3.645,0,10,06-25-2017 15:05:59,06-25-2017 15:33:36,27,,cristianotozzi,,,http://www.medform.it
Open,New Custoner,24000068680,,2008402,135.92,EUR,135.92,13.592,0,10,06-23-2017 23:48:47,06-24-2017 22:06:00,1337,,cristianotozzi,,,http://www.medform.it
Open,New Custoner,24000068557,,2007621,147.79,EUR,147.79,14.779,0,10,06-23-2017 16:43:35,06-23-2017 16:57:50,14,,Cuponation IT,,http://sconti.corriere.it/coupon-visiondirect,http://www.cuponation.it
Open,Old Customer,24000068519,,1472520,96.93,EUR,96.93,1.9386,0,2,06-23-2017 12:04:24,06-23-2017 12:20:55,16,,Advisato,,,http://www.advisato.com
Open,New Custoner,24000068517,,2007383,16.93,EUR,16.93,1.3544,0,8,06-23-2017 12:07:28,06-23-2017 12:13:27,5,,indiana,,http://m.codicesconto.com/go.asp?id=11520&ap=true,http://www.codicesconto.com
Open,New Custoner,24000068426,,2006759,189.97,EUR,189.97,18.997,0,10,06-22-2017 16:28:14,06-22-2017 16:36:55,8,,Cuponation IT,,,http://www.cuponation.it
Open,Old Customer,24000068385,,1705281,79.96,EUR,79.96,1.5992,0,2,06-22-2017 10:43:05,06-22-2017 11:10:35,27,,indiana,,http://www.codicesconto.com/go.asp?id=12098&ap=true,http://www.codicesconto.com
Open,New Custoner,24000068358,,2006419,31.47,EUR,31.47,3.147,0,10,06-22-2017 08:07:05,06-22-2017 08:12:11,5,,gogmagog73,,http://www.couponlenti.it/negozi/vision-direct-it/,http://www.couponlenti.it
Open,New Custoner,24000068272,,2005912,46.47,EUR,46.47,4.647,0,10,06-21-2017 15:09:36,06-21-2017 15:33:59,24,,cristianotozzi,,,http://www.medform.it
Open,New Custoner,24000068250,,2005780,73.87,EUR,73.87,5.9096,0,8,06-21-2017 12:57:46,06-21-2017 13:11:54,14,,indiana,,http://m.codicesconto.com/go.asp?id=12098&ap=true,http://www.codicesconto.com
Open,New Custoner,24000068238,,2005718,87.95,EUR,87.95,7.036,0,8,06-21-2017 11:57:35,06-21-2017 11:59:48,2,,Advisato,,,http://www.advisato.com
Open,New Custoner,24000068234,,1901256,66.71,EUR,66.71,5.3368,0,8,06-21-2017 11:41:36,06-21-2017 11:51:57,10,,indiana,,http://www.codicesconto.com/go.asp?id=11520&ap=true,http://www.codicesconto.com
Open,New Custoner,24000068227,,2005698,26.47,EUR,26.47,2.647,0,10,06-21-2017 11:26:39,06-21-2017 11:35:29,8,,offers@bestoffersforu.com,,http://bestoffersforu.com/it/offerte-online/42,http://www.bestoffersforu.com/it
Open,New Custoner,24000068224,,2005680,16.48,EUR,16.48,1.648,0,10,06-20-2017 13:19:45,06-21-2017 11:20:46,1321,,GrouponFreebies,,https://www.groupon.it/buoni-sconto/negozi/getlenses.it?c=67930f47-842f-448d-94cb-5ca1f8842cc0,http://www.groupon.it
Open,New Custoner,24000068203,,1841088,38.47,EUR,38.47,3.847,0,10,06-21-2017 09:17:36,06-21-2017 09:37:59,20,,GrouponFreebies,,,http://www.groupon.it
Open,New Custoner,24000068174,,2005337,35.07,EUR,35.07,3.507,0,10,06-20-2017 22:02:51,06-20-2017 22:23:11,20,,GrouponFreebies,,https://www.groupon.it/buoni-sconto/negozi/getlenses.it?c=29bf8bea-8227-42fe-a647-4fbfc6b06b7d,http://www.groupon.it
Open,Old Customer,24000068051,,1264230,34.47,EUR,34.47,0.6894,0,2,06-20-2017 12:09:11,06-20-2017 12:13:18,4,,indiana,,http://www.codicesconto.com/go.asp?id=11520&ap=true,http://www.codicesconto.com
Open,Old Customer,24000067889,,1672759,34.47,EUR,34.47,0,0,0,06-19-2017 17:24:55,06-19-2017 17:30:10,5,,Savoo IT,,,http://www.savoo.it
Transaction:,Pay per sale,,,,,,,,,,,,,,,,,
Programme:,Vision Direct IT,,,,,,,,,,,,,,,,,
From:,06-17-2017 01:00:00,,,,,,,,,,,,,,,,,
Until:,07-17-2017 01:00:00,,,,,,,,,,,,,,,,,
