﻿Postcode sector,Drop date (week commencing)
YO23 7,22/05/2017
BD1 2,22/05/2017
BD1 1,22/05/2017
SR1 1,22/05/2017
S1 2,22/05/2017
NG1 7,22/05/2017
NG1 6,22/05/2017
NE66 5,22/05/2017
NE66 4,22/05/2017
NE61 4,22/05/2017
NE47 8,22/05/2017
NE44 6,22/05/2017
NE20 0,22/05/2017
NE19 2,22/05/2017
LS1 6,22/05/2017
LS1 5,22/05/2017
LS1 2,22/05/2017
LE1 4,22/05/2017
LE1 3,22/05/2017
DL11 7,22/05/2017
DL11 6,22/05/2017
DH1 3,22/05/2017
CT1 2,22/05/2017
CR3 7,22/05/2017
EC1M 5,22/05/2017
EN2 9,22/05/2017
EC4Y 7,22/05/2017
EC4V 5,22/05/2017
EC2A 3,22/05/2017
EC1M 6,22/05/2017
KT22 0,22/05/2017
KT18 6,22/05/2017
IP1 1,22/05/2017
MK15 0,22/05/2017
NW1 5,22/05/2017
SW1A 1,22/05/2017
TN12 9,22/05/2017
TN11 8,22/05/2017
SW8 5,22/05/2017
SW1Y 6,22/05/2017
W1D 3,22/05/2017
W1B 1,22/05/2017
TN8 7,22/05/2017
TN3 9,22/05/2017
TN3 8,22/05/2017
TN17 1,22/05/2017
TN15 9,22/05/2017
SG9 0,22/05/2017
SG14 1,22/05/2017
SG11 2,22/05/2017
SE1 1,22/05/2017
SE1 0,22/05/2017
W1W 6,22/05/2017
W1U 6,22/05/2017
W1U 5,22/05/2017
W1U 4,22/05/2017
W1U 3,22/05/2017
W1U 2,22/05/2017
W1U 1,22/05/2017
W1T 6,22/05/2017
W1T 5,22/05/2017
W1T 4,22/05/2017
W1T 3,22/05/2017
W1T 2,22/05/2017
W1T 1,22/05/2017
W1K 7,22/05/2017
W1K 6,22/05/2017
W1K 5,22/05/2017
W1K 4,22/05/2017
W1K 3,22/05/2017
W1K 2,22/05/2017
W1K 1,22/05/2017
W1J 7,22/05/2017
W1J 5,22/05/2017
W1H 7,22/05/2017
W1H 4,22/05/2017
W1H 2,22/05/2017
W1H 1,22/05/2017
W1G 9,22/05/2017
W1G 8,22/05/2017
W1G 6,22/05/2017
W1F 0,22/05/2017
W1D 7,22/05/2017
W1D 4,22/05/2017
BR1 1,22/05/2017
WD3 4,22/05/2017
WD25 8,22/05/2017
WC2N 4,22/05/2017
AL5 2,22/05/2017
AL1 3,22/05/2017
AL6 0,22/05/2017
AL5 4,22/05/2017
WC2H 9,22/05/2017
WC2H 8,22/05/2017
WC2E 9,22/05/2017
WC2E 7,22/05/2017
WC1X 9,22/05/2017
WC1N 2,22/05/2017
WC1B 3,22/05/2017
WC1A 2,22/05/2017
WC1A 1,22/05/2017
W1W 7,22/05/2017
BS1 3,22/05/2017
BS1 5,22/05/2017
BS1 4,22/05/2017
BA1 1,22/05/2017
SL2 3,22/05/2017
SL5 7,22/05/2017
SL4 6,22/05/2017
SP11 0,22/05/2017
SO14 7,22/05/2017
SN13 8,22/05/2017
SL9 9,22/05/2017
SL9 8,22/05/2017
SL9 0,22/05/2017
SL6 9,22/05/2017
SL5 9,22/05/2017
TR24 0,22/05/2017
SP5 4,22/05/2017
SP3 5,22/05/2017
RG9 6,22/05/2017
RG9 5,22/05/2017
RG9 4,22/05/2017
RG9 3,22/05/2017
RG8 9,22/05/2017
RG7 6,22/05/2017
RG7 2,22/05/2017
RG42 6,22/05/2017
RG27 0,22/05/2017
RG20 8,22/05/2017
RG18 9,22/05/2017
RG10 0,22/05/2017
RG1 1,22/05/2017
PO19 1,22/05/2017
PO18 9,22/05/2017
HA6 3,22/05/2017
GU51 1,22/05/2017
GU33 6,22/05/2017
GU10 2,22/05/2017
GU25 4,22/05/2017
GU10 5,22/05/2017
DY7 5,22/05/2017
DY14 0,22/05/2017
L1 3,22/05/2017
L1 1,22/05/2017
L2 0,22/05/2017
M1 4,22/05/2017
M1 1,22/05/2017
M50 2,22/05/2017
M50 1,22/05/2017
M4 6,22/05/2017
M3 2,22/05/2017
M3 1,22/05/2017
B5 6,22/05/2017
B4 6,22/05/2017
B3 2,22/05/2017
BL7 0,22/05/2017
BL1 1,22/05/2017
CH66 7,22/05/2017
CH64 7,22/05/2017
CH48 1,22/05/2017
CA3 8,22/05/2017
WA15 0,22/05/2017
WA4 4,22/05/2017
WA16 7,22/05/2017
WA6 9,22/05/2017
WA6 8,22/05/2017
WA6 6,22/05/2017
B2 5,22/05/2017
B2 4,22/05/2017
 ,
