[
  {
    "ACCOUNTSOURCE": "",
    "BILLINGADDRESS": "",
    "BILLINGCITY": "London",
    "BILLINGCOUNTRY": "United Kingdom",
    "BILLINGGEOCODEACCURACY": "",
    "BILLINGLATITUDE": "",
    "BILLINGLONGITUDE": "",
    "BILLINGPOSTALCODE": "NW1 0JH",
    "BILLINGSTATE": "",
    "BILLINGSTREET": "6 Camden High Street",
    "CREATEDBYID": "0050D000001HVopQAG",
    "CREATEDDATE": "2019-03-05T14:24:36.000Z",
    "DESCRIPTION": "",
    "FIRSTNAME": "",
    "ID": "0010D00000EIASHQA5",
    "INDUSTRY": "",
    "ISDELETED": false,
    "ISPERSONACCOUNT": false,
    "JIGSAW": "",
    "JIGSAWCOMPANYID": "",
    "LASTACTIVITYDATE": "",
    "LASTMODIFIEDBYID": "0050D000001HVopQAG",
    "LASTMODIFIEDDATE": "2019-03-05T14:24:36.000Z",
    "LASTNAME": "",
    "LASTREFERENCEDDATE": "2019-03-05T14:25:32.000Z",
    "LASTVIEWEDDATE": "2019-03-05T14:25:32.000Z",
    "MASTERRECORDID": "",
    "MIDDLENAME": "",
    "NAME": "Adrien Sala",
    "NUMBEROFEMPLOYEES": "",
    "OWNERID": "0050D000001HVopQAG",
    "PARENTID": "",
    "PERSONCONTACTID": "",
    "PERSONDEPARTMENT": "",
    "PERSONEMAIL": "",
    "PERSONEMAILBOUNCEDDATE": "",
    "PERSONEMAILBOUNCEDREASON": "",
    "PERSONLASTCUREQUESTDATE": "",
    "PERSONLASTCUUPDATEDATE": "",
    "PERSONMAILINGADDRESS": "",
    "PERSONMAILINGCITY": "",
    "PERSONMAILINGCOUNTRY": "",
    "PERSONMAILINGGEOCODEACCURACY": "",
    "PERSONMAILINGLATITUDE": "",
    "PERSONMAILINGLONGITUDE": "",
    "PERSONMAILINGPOSTALCODE": "",
    "PERSONMAILINGSTATE": "",
    "PERSONMAILINGSTREET": "",
    "PERSONMOBILEPHONE": "",
    "PERSONTITLE": "",
    "PHONE": 7399356451,
    "PHOTOURL": "/services/images/photo/0010D00000EIASHQA5",
    "RECORDTYPEID": "0121i0000008wIZAAY",
    "SALUTATION": "",
    "SHIPPINGADDRESS": "",
    "SHIPPINGCITY": "London",
    "SHIPPINGCOUNTRY": "United Kingdom",
    "SHIPPINGGEOCODEACCURACY": "",
    "SHIPPINGLATITUDE": "",
    "SHIPPINGLONGITUDE": "",
    "SHIPPINGPOSTALCODE": "NW1 0JH",
    "SHIPPINGSTATE": "",
    "SHIPPINGSTREET": "6 Camden High Street",
    "SICDESC": "",
    "SUFFIX": "",
    "SYSTEMMODSTAMP": "2019-03-05T14:24:36.000Z",
    "TYPE": "Customer",
    "WEBSITE": "visiondirect.co.uk"
  }
]