﻿variable,correlation_coefficient
all_history_product_count,0.3061
all_history_product_count__0Pt976_3Pt4,-0.3176
all_history_product_count__10Pt6_13,0.1029
all_history_product_count__13_15Pt4,0.0769
all_history_product_count__15Pt4_17Pt8,0.0747
all_history_product_count__17Pt8_20Pt2,0.0746
all_history_product_count__20Pt2_22Pt6,0.0573
all_history_product_count__22Pt6_25,0.1408
all_history_product_count__3Pt4_5Pt8,0.0793
all_history_product_count__5Pt8_8Pt2,0.1113
all_history_product_count__8Pt2_10Pt6,0.0816
all_history_product_count_LB10,0.3516
all_history_product_count_LB10__0Pt28_0Pt419,-0.0632
all_history_product_count_LB10__0Pt419_0Pt559,0.0138
all_history_product_count_LB10__0Pt559_0Pt699,0.0793
all_history_product_count_LB10__0Pt699_0Pt839,0.063
all_history_product_count_LB10__0Pt839_0Pt979,0.1069
all_history_product_count_LB10__0Pt979_1Pt12,0.1198
all_history_product_count_LB10__1Pt12_1Pt26,0.1174
all_history_product_count_LB10__1Pt26_1Pt4,0.1654
all_history_spend,0.2701
all_history_spend__100_200,0.0435
all_history_spend__200_300,0.0773
all_history_spend__300_400,0.0804
all_history_spend__400_500,0.0728
all_history_spend__500_600,0.0721
all_history_spend__600_700,0.0592
all_history_spend__700_800,0.0532
all_history_spend__800_900,0.0557
all_history_spend_LB10,0.2995
all_history_spend_LB10__0Pt3_0Pt6,-0.0081
all_history_spend_LB10__0Pt6_0Pt9,-0.0363
all_history_spend_LB10__0Pt9_1Pt2,-0.0819
all_history_spend_LB10__1Pt2_1Pt5,-0.1273
all_history_spend_LB10__1Pt5_1Pt8,-0.1283
all_history_spend_LB10__1Pt8_2Pt1,-0.0315
all_history_spend_LB10__2Pt1_2Pt4,0.0663
all_history_spend_LB10__2Pt4_2Pt7,0.1248
all_history_spend_LB10__2Pt7_3,0.2024
avg_days_to_shipping,0.0153
avg_days_to_shipping__1_2,0.0161
avg_days_to_shipping__2_3,0.0119
avg_days_to_shipping__3_4,-0.0064
avg_days_to_shipping__4_5,-0.0071
avg_order_freq_time,0.02
avg_order_freq_time__420_841,-0.0594
avg_order_freq_time_FLAG,0.3391
avg_order_freq_time_FLAG__0Pt5_1,0.3391
avg_order_qty_time,-0.0596
avg_order_qty_time__12_16,-0.0091
avg_order_qty_time__16_20,-0.021
avg_order_qty_time__20_24,-0.0256
avg_order_qty_time__24_28,-0.0003
avg_order_qty_time__28_32,-0.012
avg_order_qty_time__32_36,-0.0102
avg_order_qty_time__36_40,0.0023
avg_order_qty_time__4_8,0.0324
avg_order_qty_time__40_44,0.0058
avg_order_qty_time__44_48,-0.0045
avg_order_qty_time__8_12,-0.0928
avg_order_qty_time_LB10,-0.0234
avg_order_qty_time_LB10__0Pt21_0Pt42,-0.0165
avg_order_qty_time_LB10__0Pt42_0Pt63,0.056
avg_order_qty_time_LB10__0Pt63_0Pt841,0.0229
avg_order_qty_time_LB10__0Pt841_1Pt05,0.0135
avg_order_qty_time_LB10__1Pt05_1Pt26,-0.1082
avg_order_qty_time_LB10__1Pt26_1Pt47,-0.0215
avg_order_qty_time_LB10__1Pt47_1Pt68,-0.0131
avg_unit_price_paid_CL2W,0.0229
avg_unit_price_paid_CL2W__10Pt8_12Pt6,0.0076
avg_unit_price_paid_CL2W__12Pt6_14Pt4,-0.0039
avg_unit_price_paid_CL2W__14Pt4_16Pt2,0.0045
avg_unit_price_paid_CL2W__16Pt2_18,0.0004
avg_unit_price_paid_CL2W__1Pt8_3Pt6,-0.0149
avg_unit_price_paid_CL2W__3Pt6_5Pt4,-0.0127
avg_unit_price_paid_CL2W__5Pt4_7Pt2,-0.0142
avg_unit_price_paid_CL2W__7Pt2_9,0.0307
avg_unit_price_paid_CL2W__9_10Pt8,0.014
avg_unit_price_paid_CL2W_LB10,0.0208
avg_unit_price_paid_CL2W_LB10__0Pt399_0Pt486,-0.0323
avg_unit_price_paid_CL2W_LB10__0Pt486_0Pt571,-0.0104
avg_unit_price_paid_CL2W_LB10__0Pt571_0Pt657,-0.0028
avg_unit_price_paid_CL2W_LB10__0Pt657_0Pt742,-0.0069
avg_unit_price_paid_CL2W_LB10__0Pt742_0Pt828,0.0294
avg_unit_price_paid_CL2W_LB10__0Pt828_0Pt913,-0.0223
avg_unit_price_paid_CL2W_LB10__0Pt913_0Pt999,0.0214
avg_unit_price_paid_CL2W_LB10__0Pt999_1Pt08,0.0091
avg_unit_price_paid_CL2W_LB10__1Pt08_1Pt17,-0.0014
avg_unit_price_paid_CL2W_LB10__1Pt17_1Pt26,0.0024
avg_unit_price_paid_CLD,0.0574
avg_unit_price_paid_CLD__13Pt5_18,-0.0133
avg_unit_price_paid_CLD__18_22Pt5,0.0331
avg_unit_price_paid_CLD__22Pt5_27,0.0113
avg_unit_price_paid_CLD__27_31Pt5,0.0131
avg_unit_price_paid_CLD__31Pt5_36,-0.0013
avg_unit_price_paid_CLD__36_40Pt5,-0.008
avg_unit_price_paid_CLD__40Pt5_45,-0.0057
avg_unit_price_paid_CLD__4Pt5_9,-0.0283
avg_unit_price_paid_CLD__9_13Pt5,0.0314
avg_unit_price_paid_CLD_LB10,0.0629
avg_unit_price_paid_CLD_LB10__0Pt499_0Pt615,-0.0746
avg_unit_price_paid_CLD_LB10__0Pt615_0Pt731,-0.0416
avg_unit_price_paid_CLD_LB10__0Pt731_0Pt846,-0.021
avg_unit_price_paid_CLD_LB10__0Pt846_0Pt961,-0.0106
avg_unit_price_paid_CLD_LB10__0Pt961_1Pt08,0.027
avg_unit_price_paid_CLD_LB10__1Pt08_1Pt19,0.0333
avg_unit_price_paid_CLD_LB10__1Pt19_1Pt31,-0.0143
avg_unit_price_paid_CLD_LB10__1Pt31_1Pt42,0.0172
avg_unit_price_paid_CLD_LB10__1Pt42_1Pt54,0.0101
avg_unit_price_paid_CLD_LB10__1Pt54_1Pt65,-0.0075
avg_unit_price_paid_CLM,-0.0077
avg_unit_price_paid_CLM__11Pt2_12Pt8,-0.0144
avg_unit_price_paid_CLM__12Pt8_14Pt4,-0.008
avg_unit_price_paid_CLM__14Pt4_16,-0.02
avg_unit_price_paid_CLM__1Pt6_3Pt2,0.01
avg_unit_price_paid_CLM__3Pt2_4Pt8,0.0336
avg_unit_price_paid_CLM__4Pt8_6Pt4,-0.0177
avg_unit_price_paid_CLM__6Pt4_8,0.0067
avg_unit_price_paid_CLM__8_9Pt6,-0.0007
avg_unit_price_paid_CLM__9Pt6_11Pt2,-0.0014
avg_unit_price_paid_CLM_LB10,-0.0062
avg_unit_price_paid_CLM_LB10__0Pt0812_0Pt242,-0.0195
avg_unit_price_paid_CLM_LB10__0Pt242_0Pt402,-0.0001
avg_unit_price_paid_CLM_LB10__0Pt402_0Pt562,0.0129
avg_unit_price_paid_CLM_LB10__0Pt562_0Pt723,0.0429
avg_unit_price_paid_CLM_LB10__0Pt723_0Pt883,-0.0214
avg_unit_price_paid_CLM_LB10__0Pt883_1Pt04,-0.0044
avg_unit_price_paid_CLM_LB10__1Pt04_1Pt21,-0.0236
avg_unit_price_paid_EC,-0.0167
avg_unit_price_paid_EC__10Pt8_12Pt6,-0.0019
avg_unit_price_paid_EC__12Pt6_14Pt4,-0.0096
avg_unit_price_paid_EC__14Pt4_16Pt2,0.0052
avg_unit_price_paid_EC__16Pt2_18,-0.0081
avg_unit_price_paid_EC__1Pt8_3Pt6,-0.0435
avg_unit_price_paid_EC__3Pt6_5Pt4,0.0326
avg_unit_price_paid_EC__5Pt4_7Pt2,0.013
avg_unit_price_paid_EC__7Pt2_9,0.0052
avg_unit_price_paid_EC__9_10Pt8,0.0006
avg_unit_price_paid_EC_LB10,-0.0258
avg_unit_price_paid_EC_LB10__0Pt0852_0Pt378,0.0143
avg_unit_price_paid_EC_LB10__0Pt378_0Pt67,-0.0333
avg_unit_price_paid_EC_LB10__0Pt67_0Pt963,0.017
avg_unit_price_paid_EC_LB10__0Pt963_1Pt26,-0.0063
avg_unit_price_paid_Oth,-0.0359
avg_unit_price_paid_Oth__13Pt5_18,-0.0116
avg_unit_price_paid_Oth__18_22Pt5,-0.0045
avg_unit_price_paid_Oth__22Pt5_27,-0.0049
avg_unit_price_paid_Oth__27_31Pt5,-0.0042
avg_unit_price_paid_Oth__31Pt5_36,-0.011
avg_unit_price_paid_Oth__36_40Pt5,-0.0051
avg_unit_price_paid_Oth__40Pt5_45,-0.02
avg_unit_price_paid_Oth__4Pt5_9,0.0121
avg_unit_price_paid_Oth__9_13Pt5,-0.013
avg_unit_price_paid_Oth_LB10,-0.0337
avg_unit_price_paid_Oth_LB10__0Pt192_0Pt557,-0.0034
avg_unit_price_paid_Oth_LB10__0Pt557_0Pt923,-0.0171
avg_unit_price_paid_Oth_LB10__0Pt923_1Pt29,-0.0175
avg_unit_price_paid_Oth_LB10__1Pt29_1Pt66,-0.0226
avg_unit_price_paid_SL,0.0055
avg_unit_price_paid_SL__10Pt5_14,-0.0489
avg_unit_price_paid_SL__14_17Pt5,0.0228
avg_unit_price_paid_SL__17Pt5_21,0.0197
avg_unit_price_paid_SL__21_24Pt5,0.0249
avg_unit_price_paid_SL__24Pt5_28,0.0149
avg_unit_price_paid_SL__28_31Pt5,0.009
avg_unit_price_paid_SL__31Pt5_35,-0.0076
avg_unit_price_paid_SL__3Pt5_7,0.0136
avg_unit_price_paid_SL__7_10Pt5,0.0248
avg_unit_price_paid_SL_LB10,-0.0031
avg_unit_price_paid_SL_LB10__0Pt183_0Pt378,-0.0042
avg_unit_price_paid_SL_LB10__0Pt378_0Pt572,0.0055
avg_unit_price_paid_SL_LB10__0Pt572_0Pt766,0.0105
avg_unit_price_paid_SL_LB10__0Pt766_0Pt961,0.0172
avg_unit_price_paid_SL_LB10__0Pt961_1Pt16,-0.0421
avg_unit_price_paid_SL_LB10__1Pt16_1Pt35,0.0329
avg_unit_price_paid_SL_LB10__1Pt35_1Pt55,0.0188
consumption_index_all_orders,-0.1982
consumption_index_all_orders_CV,-0.1167
consumption_index_all_orders_N,0.1431
consumption_index_all_orders_stddev,-0.1443
consumption_index_lenses_only,-0.1917
consumption_index_lenses_only_CV,-0.1349
consumption_index_lenses_only_N,0.1248
consumption_index_lenses_only_stddev,-0.1393
consumption_index_no_lenses,-0.0364
consumption_index_no_lenses_CV,-0.0152
consumption_index_no_lenses_N,0.0055
consumption_index_no_lenses_stddev,-0.0305
country_code_ship_BE,-0.0085
country_code_ship_ES,0.0193
country_code_ship_FR,-0.0279
country_code_ship_GB,-0.0127
country_code_ship_IE,0.0461
country_code_ship_IT,0.0149
country_code_ship_NL,0.0153
country_code_ship_OTHER,-0.034
country_code_ship_US,-0.0354
create_time_mm,0.1321
create_time_mm__103_117,0.0285
create_time_mm__117_132,0.0409
create_time_mm__132_147,0.0287
create_time_mm__147_161,0.0208
create_time_mm__14Pt8_29Pt6,-0.0494
create_time_mm__161_176,0.0259
create_time_mm__176_190,0.0185
create_time_mm__190_205,0.0227
create_time_mm__29Pt6_44Pt2,-0.0926
create_time_mm__44Pt2_58Pt8,0.007
create_time_mm__58Pt8_73Pt5,0.0517
create_time_mm__73Pt5_88Pt1,0.0426
create_time_mm__88Pt1_103,0.0724
create_time_mm_LB10,0.1194
create_time_mm_LB10__1Pt17_1Pt29,-0.0085
create_time_mm_LB10__1Pt29_1Pt4,-0.0361
create_time_mm_LB10__1Pt4_1Pt52,-0.0411
create_time_mm_LB10__1Pt52_1Pt63,-0.0779
create_time_mm_LB10__1Pt63_1Pt74,-0.0188
create_time_mm_LB10__1Pt74_1Pt86,0.0573
create_time_mm_LB10__1Pt86_1Pt97,0.0557
create_time_mm_LB10__1Pt97_2Pt08,0.0789
create_time_mm_LB10__2Pt08_2Pt2,0.0421
create_time_mm_LB10__2Pt2_2Pt31,0.0414
ct_DirectEntry,0.0787
ct_DirectEntry__0Pt2_0Pt4,0.0992
ct_DirectEntry__0Pt4_0Pt6,0.0484
ct_DirectEntry__0Pt6_0Pt8,0.0395
ct_DirectEntry__0Pt8_1,-0.0334
ct_Email,0.1989
ct_Email__0Pt2_0Pt4,0.1322
ct_Email__0Pt4_0Pt6,0.0925
ct_Email__0Pt6_0Pt8,0.0899
ct_Email__0Pt8_1,0.0145
ct_HistCH,0.0442
ct_HistCH__0Pt193_0Pt386,0.0264
ct_HistCH__0Pt386_0Pt579,0.03
ct_HistCH__0Pt579_0Pt771,0.0157
ct_HistCH__0Pt771_0Pt965,-0.0032
ct_Migration__0Pt2_0Pt4,0.0689
ct_Migration__0Pt4_0Pt6,0.0393
ct_Migration__0Pt6_0Pt8,0.067
ct_Migration__0Pt8_1,-0.0989
ct_Migration_CH,-0.0552
ct_NonGA,0.0509
ct_NonGA__0Pt2_0Pt4,0.0619
ct_NonGA__0Pt4_0Pt6,0.0204
ct_NonGA__0Pt6_0Pt8,0.014
ct_NonGA__0Pt8_1,-0.0197
ct_OrganicSearch,-0.0124
ct_OrganicSearch__0Pt2_0Pt4,0.111
ct_OrganicSearch__0Pt4_0Pt6,0.0592
ct_OrganicSearch__0Pt6_0Pt8,0.0576
ct_OrganicSearch__0Pt8_1,-0.0769
ct_PaidSearch,-0.0237
ct_PaidSearch__0Pt2_0Pt4,0.1217
ct_PaidSearch__0Pt4_0Pt6,0.0592
ct_PaidSearch__0Pt6_0Pt8,0.0639
ct_PaidSearch__0Pt8_1,-0.0913
ct_Referral,-0.0734
ct_Referral__0Pt2_0Pt4,0.0561
ct_Referral__0Pt4_0Pt6,0.0048
ct_Referral__0Pt6_0Pt8,0.0163
ct_Referral__0Pt8_1,-0.1089
ct_spend_Other,0.0111
ct_spend_Other__0Pt2_0Pt4,0.0081
ct_spend_Other__0Pt4_0Pt6,0.0037
ct_spend_Other__0Pt6_0Pt8,0.0071
ct_spend_Other__0Pt8_1,-0.0032
curr_order_type,-0.0113
customer_id,-0.1289
customer_status_name_NEW,-0.3357
customer_status_name_REACTIVATED,-0.1095
customer_status_name_REGULAR,0.4007
customer_unsubscribe_name_N,-0.0327
customer_unsubscribe_name_Y,0.0327
est_nmtno_all_no_lenses,-0.0453
est_nmtno_all_orders,-0.2161
est_nmtno_lenses_only,-0.1973
length_of_relationship,0.1939
length_of_relationship__11Pt1_12Pt7,0.0266
length_of_relationship__12Pt7_14Pt2,0.0211
length_of_relationship__14Pt2_15Pt8,0.0185
length_of_relationship__1Pt58_3Pt17,0.0865
length_of_relationship__3Pt17_4Pt75,0.0721
length_of_relationship__4Pt75_6Pt33,0.0646
length_of_relationship__6Pt33_7Pt92,0.0582
length_of_relationship__7Pt92_9Pt5,0.0438
length_of_relationship__9Pt5_11Pt1,0.0265
length_of_relationship_LB10,0.0819
length_of_relationship_LB10__0Pt0602_0Pt288,0.0819
length_of_relationship_LB10__0Pt288_0Pt516,0.0693
length_of_relationship_LB10__0Pt516_0Pt744,0.082
length_of_relationship_LB10__0Pt744_0Pt972,0.0894
length_of_relationship_LB10__0Pt972_1Pt2,0.0476
main_order_qty_time,-0.0468
main_order_qty_time__12_18,-0.0249
main_order_qty_time__18_24,-0.0211
main_order_qty_time__24_30,-0.01
main_order_qty_time__30_36,-0.0113
main_order_qty_time__36_42,-0.0002
main_order_qty_time__42_48,-0.0031
main_order_qty_time__6_12,-0.0873
main_order_qty_time_LB10,-0.009
main_order_qty_time_LB10__0Pt21_0Pt42,-0.0373
main_order_qty_time_LB10__0Pt42_0Pt63,0.0673
main_order_qty_time_LB10__0Pt63_0Pt841,0.0452
main_order_qty_time_LB10__0Pt841_1Pt05,-0.0227
main_order_qty_time_LB10__1Pt05_1Pt26,-0.0886
main_order_qty_time_LB10__1Pt26_1Pt47,-0.022
main_order_qty_time_LB10__1Pt47_1Pt68,-0.0119
main_type_oh_name_Colour,-0.0821
main_type_oh_name_Glasses,-0.0877
main_type_oh_name_Other,-0.0549
main_type_oh_name_Sunglasses,-0.0511
market_name_visiondirect.be,0.0056
market_name_visiondirect.ca,-0.0278
market_name_visiondirect.es,0.0173
market_name_visiondirect.fr,-0.03
market_name_visiondirect.ie,0.0352
market_name_visiondirect.it,0.0146
market_name_visiondirect.nl,0.01
num_diff_product_type_oh,0.1192
num_diff_product_type_oh__0Pt997_1Pt75,-0.1188
num_diff_product_type_oh__1Pt75_2Pt5,0.1019
num_diff_product_type_oh__2Pt5_3Pt25,0.0529
num_diff_product_type_oh__3Pt25_4,0.0211
num_diff_product_type_oh_FLAG,0.1188
num_diff_product_type_oh_FLAG__0Pt5_1,0.1188
num_discounted_orders,0.0393
num_discounted_orders__10Pt5_12,0.0286
num_discounted_orders__12_13Pt5,0.0159
num_discounted_orders__13Pt5_15,0.0413
num_discounted_orders__1Pt5_3,0.0248
num_discounted_orders__3_4Pt5,0.0229
num_discounted_orders__4Pt5_6,0.0286
num_discounted_orders__6_7Pt5,0.0203
num_discounted_orders__7Pt5_9,0.0281
num_discounted_orders__9_10Pt5,0.023
num_dist_products,0.1676
num_dist_products__0Pt991_1Pt9,-0.1476
num_dist_products__1Pt9_2Pt8,0.0276
num_dist_products__2Pt8_3Pt7,0.0674
num_dist_products__3Pt7_4Pt6,0.059
num_dist_products__4Pt6_5Pt5,0.0634
num_dist_products__5Pt5_6Pt4,0.0544
num_dist_products__6Pt4_7Pt3,0.0416
num_dist_products__7Pt3_8Pt2,0.0379
num_dist_products__8Pt2_9Pt1,0.0258
num_dist_products__9Pt1_10,0.0358
num_dist_products_LB10,0.1713
num_dist_products_LB10__0Pt3_0Pt4,0.0276
num_dist_products_LB10__0Pt4_0Pt5,0.0674
num_dist_products_LB10__0Pt6_0Pt7,0.0871
num_dist_products_LB10__0Pt7_0Pt8,0.0544
num_dist_products_LB10__0Pt8_0Pt9,0.0416
num_dist_products_LB10__0Pt9_1,0.0582
num_reorder_orders,0.0127
num_reorder_orders__0Pt5_1,0.0127
num_tot_cancel,0.0635
num_tot_discount_orders,0.0354
num_tot_discount_orders__1_2,0.0155
num_tot_discount_orders__2_3,0.0204
num_tot_discount_orders__3_4,0.0241
num_tot_discount_orders__4_5,0.0227
num_tot_discount_orders__5_6,0.0171
num_tot_discount_orders__6_7,0.0203
num_tot_discount_orders__7_8,0.0175
num_tot_discount_orders__8_9,0.0232
num_tot_discount_orders__9_10,0.0574
num_tot_discount_orders_FLAG,-0.0588
num_tot_discount_orders_FLAG__0Pt5_1,-0.0588
num_tot_orders,0.3261
num_tot_orders__0Pt975_2Pt92,-0.3388
num_tot_orders__10Pt6_12Pt5,0.0921
num_tot_orders__12Pt5_14Pt5,0.0819
num_tot_orders__14Pt5_16Pt4,0.0779
num_tot_orders__16Pt4_18Pt3,0.0744
num_tot_orders__18Pt3_20Pt2,0.055
num_tot_orders__20Pt2_22Pt2,0.0595
num_tot_orders__22Pt2_24Pt1,0.0522
num_tot_orders__24Pt1_26,0.0999
num_tot_orders__2Pt92_4Pt85,0.0923
num_tot_orders__4Pt85_6Pt77,0.1142
num_tot_orders__6Pt77_8Pt69,0.0996
num_tot_orders__8Pt69_10Pt6,0.0946
num_tot_orders_LB10,0.3748
num_tot_orders_LB10__0Pt283_0Pt424,0.0055
num_tot_orders_LB10__0Pt424_0Pt566,0.0596
num_tot_orders_LB10__0Pt566_0Pt707,0.1053
num_tot_orders_LB10__0Pt707_0Pt849,0.1078
num_tot_orders_LB10__0Pt849_0Pt99,0.098
num_tot_orders_LB10__0Pt99_1Pt13,0.1285
num_tot_orders_LB10__1Pt13_1Pt27,0.1226
num_tot_orders_LB10__1Pt27_1Pt42,0.1402
num_tot_refund,0.0497
num_tot_refund__1_2,0.015
num_tot_refund__2_3,0.0158
num_tot_refund__3_4,-0.0003
num_tot_refund__4_5,-0.0061
num_tot_refund_FLAG,0.0497
num_tot_refund_FLAG__0Pt5_1,0.0497
order_est_consumption_time,-0.0536
orders_CLDaily,0.235
orders_CLDaily__12_15,0.0788
orders_CLDaily__15_18,0.072
orders_CLDaily__18_21,0.0629
orders_CLDaily__21_24,0.0556
orders_CLDaily__24_27,0.0449
orders_CLDaily__27_30,0.0799
orders_CLDaily__3_6,0.1065
orders_CLDaily__6_9,0.0905
orders_CLDaily__9_12,0.0845
orders_CLMonthlies,0.1656
orders_CLMonthlies__10_12Pt5,0.0515
orders_CLMonthlies__12Pt5_15,0.0545
orders_CLMonthlies__15_17Pt5,0.0372
orders_CLMonthlies__17Pt5_20,0.037
orders_CLMonthlies__20_22Pt5,0.0203
orders_CLMonthlies__22Pt5_25,0.0344
orders_CLMonthlies__2Pt5_5,0.0884
orders_CLMonthlies__5_7Pt5,0.0729
orders_CLMonthlies__7Pt5_10,0.0775
orders_CLTwoWeeklies,0.0906
orders_CLTwoWeeklies__1_2,0.02
orders_CLTwoWeeklies__2_3,0.0319
orders_CLTwoWeeklies__3_4,0.0259
orders_CLTwoWeeklies__4_5,0.0252
orders_CLTwoWeeklies__5_6,0.0321
orders_CLTwoWeeklies__6_7,0.0224
orders_CLTwoWeeklies__7_8,0.0259
orders_CLTwoWeeklies__8_9,0.0285
orders_CLTwoWeeklies__9_10,0.0742
orders_EC,0.064
orders_EC__1_2,0.0141
orders_EC__2_3,0.0232
orders_EC__3_4,0.0179
orders_EC__4_5,0.0134
orders_EC__5_6,0.0102
orders_EC__6_7,0.0209
orders_EC__7_8,0.0218
orders_EC__8_9,0.0169
orders_EC__9_10,0.0412
orders_Other,0.0543
orders_Other__10Pt5_12,0.0253
orders_Other__12_13Pt5,0.0102
orders_Other__13Pt5_15,0.0351
orders_Other__1Pt5_3,0.0168
orders_Other__3_4Pt5,0.0096
orders_Other__4Pt5_6,0.0171
orders_Other__6_7Pt5,0.0252
orders_Other__7Pt5_9,0.0279
orders_Other__9_10Pt5,0.0116
orders_pct_CLDaily,0.0284
orders_pct_CLDaily__0Pt25_0Pt5,-0.0097
orders_pct_CLDaily__0Pt5_0Pt75,0.05
orders_pct_CLDaily__0Pt75_1,0.0213
orders_pct_CLMonthlies,0.0004
orders_pct_CLMonthlies__0Pt25_0Pt5,0.0069
orders_pct_CLMonthlies__0Pt5_0Pt75,0.0649
orders_pct_CLMonthlies__0Pt75_1,-0.0199
orders_pct_CLTwoWeeklies,0.0157
orders_pct_CLTwoWeeklies__0Pt25_0Pt5,0.0102
orders_pct_CLTwoWeeklies__0Pt5_0Pt75,0.0392
orders_pct_CLTwoWeeklies__0Pt75_1,-0.0013
orders_pct_EC,-0.0062
orders_pct_EC__0Pt25_0Pt5,-0.0139
orders_pct_EC__0Pt5_0Pt75,-0.0091
orders_pct_EC__0Pt75_1,-0.0481
orders_pct_Other,-0.0496
orders_pct_Other__0Pt25_0Pt5,0.0204
orders_pct_Other__0Pt5_0Pt75,-0.0176
orders_pct_Other__0Pt75_1,-0.106
orders_pct_SL,0.0103
orders_pct_SL__0Pt25_0Pt5,0.0067
orders_pct_SL__0Pt5_0Pt75,0.019
orders_pct_SL__0Pt75_1,-0.0315
orders_SL,0.0952
orders_SL__1_2,0.0471
orders_SL__2_3,0.0386
orders_SL__3_4,0.0371
orders_SL__4_5,0.0305
orders_SL__5_6,0.0352
orders_SL__6_7,0.02
orders_SL__7_8,0.0119
orders_SL__8_9,0.0166
orders_SL__9_10,0.04
pct_DirectEntry,0.0787
pct_DirectEntry__0Pt2_0Pt4,0.0992
pct_DirectEntry__0Pt4_0Pt6,0.0484
pct_DirectEntry__0Pt6_0Pt8,0.0395
pct_DirectEntry__0Pt8_1,-0.0334
pct_Email,0.1989
pct_Email__0Pt2_0Pt4,0.1322
pct_Email__0Pt4_0Pt6,0.0925
pct_Email__0Pt6_0Pt8,0.0899
pct_Email__0Pt8_1,0.0145
pct_HistCH,0.0442
pct_HistCH__0Pt193_0Pt386,0.0264
pct_HistCH__0Pt386_0Pt579,0.03
pct_HistCH__0Pt579_0Pt771,0.0157
pct_HistCH__0Pt771_0Pt965,-0.0032
pct_MigrationCH,-0.0552
pct_MigrationCH__0Pt2_0Pt4,0.0689
pct_MigrationCH__0Pt4_0Pt6,0.0393
pct_MigrationCH__0Pt6_0Pt8,0.067
pct_MigrationCH__0Pt8_1,-0.0989
pct_NonGA,0.0509
pct_NonGA__0Pt2_0Pt4,0.0619
pct_NonGA__0Pt4_0Pt6,0.0204
pct_NonGA__0Pt6_0Pt8,0.014
pct_NonGA__0Pt8_1,-0.0197
pct_OrganicSearch,-0.0124
pct_OrganicSearch__0Pt2_0Pt4,0.111
pct_OrganicSearch__0Pt4_0Pt6,0.0592
pct_OrganicSearch__0Pt6_0Pt8,0.0576
pct_OrganicSearch__0Pt8_1,-0.0769
pct_PaidSearch,-0.0237
pct_PaidSearch__0Pt2_0Pt4,0.1217
pct_PaidSearch__0Pt4_0Pt6,0.0592
pct_PaidSearch__0Pt6_0Pt8,0.0639
pct_PaidSearch__0Pt8_1,-0.0913
pct_Referral,-0.0734
pct_Referral__0Pt2_0Pt4,0.0561
pct_Referral__0Pt4_0Pt6,0.0048
pct_Referral__0Pt6_0Pt8,0.0163
pct_Referral__0Pt8_1,-0.1089
pct_spend_Other,0.0111
pct_spend_Other__0Pt2_0Pt4,0.0081
pct_spend_Other__0Pt4_0Pt6,0.0037
pct_spend_Other__0Pt6_0Pt8,0.0071
pct_spend_Other__0Pt8_1,-0.0032
pm_pct_card_new,-0.0651
pm_pct_card_new__0Pt1_0Pt2,0.1206
pm_pct_card_new__0Pt2_0Pt3,0.1162
pm_pct_card_new__0Pt3_0Pt4,0.0914
pm_pct_card_new__0Pt4_0Pt5,0.075
pm_pct_card_new__0Pt5_0Pt6,0.0358
pm_pct_card_new__0Pt6_0Pt7,0.054
pm_pct_card_new__0Pt7_0Pt8,0.0357
pm_pct_card_new__0Pt8_0Pt9,0.0211
pm_pct_card_new__0Pt9_1,-0.1476
pm_pct_card_stored,0.2625
pm_pct_card_stored__0Pt0972_0Pt194,0.0917
pm_pct_card_stored__0Pt194_0Pt292,0.0958
pm_pct_card_stored__0Pt292_0Pt389,0.0828
pm_pct_card_stored__0Pt389_0Pt486,0.0842
pm_pct_card_stored__0Pt486_0Pt583,0.0985
pm_pct_card_stored__0Pt583_0Pt681,0.1034
pm_pct_card_stored__0Pt681_0Pt778,0.084
pm_pct_card_stored__0Pt778_0Pt875,0.079
pm_pct_card_stored__0Pt875_0Pt973,0.0422
pm_pct_other,0.0237
pm_pct_other__0Pt1_0Pt2,0.0555
pm_pct_other__0Pt2_0Pt3,0.0328
pm_pct_other__0Pt3_0Pt4,0.0209
pm_pct_other__0Pt4_0Pt5,-0.0031
pm_pct_other__0Pt5_0Pt6,0.0116
pm_pct_other__0Pt6_0Pt7,0.0067
pm_pct_other__0Pt7_0Pt8,0.0158
pm_pct_other__0Pt8_0Pt9,0.0182
pm_pct_other__0Pt9_1,0.0015
pm_pct_paypal,-0.0302
pm_pct_paypal__0Pt1_0Pt2,0.0644
pm_pct_paypal__0Pt2_0Pt3,0.0528
pm_pct_paypal__0Pt3_0Pt4,0.0358
pm_pct_paypal__0Pt4_0Pt5,0.0154
pm_pct_paypal__0Pt5_0Pt6,0.0286
pm_pct_paypal__0Pt6_0Pt7,0.0322
pm_pct_paypal__0Pt7_0Pt8,0.0227
pm_pct_paypal__0Pt8_0Pt9,0.0333
pm_pct_paypal__0Pt9_1,-0.0635
pm_pct_unknown,-0.0412
pm_pct_unknown__0Pt1_0Pt2,0.0556
pm_pct_unknown__0Pt2_0Pt3,0.0574
pm_pct_unknown__0Pt3_0Pt4,0.0394
pm_pct_unknown__0Pt4_0Pt5,0.0145
pm_pct_unknown__0Pt5_0Pt6,0.0668
pm_pct_unknown__0Pt6_0Pt7,0.0615
pm_pct_unknown__0Pt7_0Pt8,0.0493
pm_pct_unknown__0Pt8_0Pt9,0.0457
pm_pct_unknown__0Pt9_1,-0.1084
rank_avg_order_freq_time,0.1978
rank_avg_order_freq_time__0Pt989_1Pt92,-0.0741
rank_avg_order_freq_time__10Pt2_11Pt1,-0.0332
rank_avg_order_freq_time__11Pt1_12,-0.0517
rank_avg_order_freq_time__1Pt92_2Pt83,-0.3379
rank_avg_order_freq_time__2Pt83_3Pt75,0.1164
rank_avg_order_freq_time__3Pt75_4Pt67,0.1507
rank_avg_order_freq_time__4Pt67_5Pt58,0.1708
rank_avg_order_freq_time__5Pt58_6Pt5,0.1387
rank_avg_order_freq_time__6Pt5_7Pt42,0.1633
rank_avg_order_freq_time__7Pt42_8Pt33,0.0503
rank_avg_order_freq_time__8Pt33_9Pt25,0.0018
rank_avg_order_freq_time__9Pt25_10Pt2,-0.0139
rank_avg_order_qty_time,-0.0241
rank_avg_order_qty_time__0Pt989_2Pt1,-0.0297
rank_avg_order_qty_time__10Pt9_12,-0.0316
rank_avg_order_qty_time__2Pt1_3Pt2,-0.008
rank_avg_order_qty_time__3Pt2_4Pt3,-0.0165
rank_avg_order_qty_time__4Pt3_5Pt4,0.04
rank_avg_order_qty_time__5Pt4_6Pt5,0.0394
rank_avg_order_qty_time__6Pt5_7Pt6,0.0229
rank_avg_order_qty_time__7Pt6_8Pt7,0.0119
rank_avg_order_qty_time__8Pt7_9Pt8,-0.0966
rank_avg_order_qty_time__9Pt8_10Pt9,-0.0084
rank_num_tot_cancel,0.0635
rank_num_tot_cancel__0Pt993_3Pt33,-0.0343
rank_num_tot_cancel__3Pt33_5Pt67,0.0299
rank_num_tot_cancel__5Pt67_8Pt01,0.0178
rank_num_tot_orders,0.2374
rank_num_tot_orders__0Pt994_1Pt86,0.1892
rank_num_tot_orders__1Pt86_2Pt71,-0.3357
rank_num_tot_orders__2Pt71_3Pt57,0.0055
rank_num_tot_orders__3Pt57_4Pt43,0.0596
rank_num_tot_orders__4Pt43_5Pt29,0.1053
rank_num_tot_orders__5Pt29_6Pt14,0.1302
rank_num_tot_orders__6Pt14_7Pt01,0.147
rank_num_tot_refund,0.0497
rank_num_tot_refund__4Pt33_8Pt67,-0.0019
rank_num_tot_refund__4Pt33_8Pt67.1,-0.0019
rank_num_tot_refund__8Pt67_13,-0.0043
rank_num_tot_refund__8Pt67_13.1,-0.0043
rank_pct_aupp_C2W,0.0241
rank_pct_aupp_C2W__0Pt1_0Pt2,0.0014
rank_pct_aupp_C2W__0Pt2_0Pt3,0.0181
rank_pct_aupp_C2W__0Pt3_0Pt4,0.0175
rank_pct_aupp_C2W__0Pt4_0Pt5,-0.033
rank_pct_aupp_C2W__0Pt5_0Pt6,0.0213
rank_pct_aupp_C2W__0Pt6_0Pt7,0.0207
rank_pct_aupp_C2W__0Pt7_0Pt8,0.016
rank_pct_aupp_C2W__0Pt8_0Pt9,0.0186
rank_pct_aupp_C2W__0Pt9_1,0.0082
rank_pct_aupp_CLD,0.0467
rank_pct_aupp_CLD__0Pt1_0Pt2,0.0165
rank_pct_aupp_CLD__0Pt2_0Pt3,0.0182
rank_pct_aupp_CLD__0Pt3_0Pt4,0.0235
rank_pct_aupp_CLD__0Pt4_0Pt5,-0.0443
rank_pct_aupp_CLD__0Pt5_0Pt6,0.0336
rank_pct_aupp_CLD__0Pt6_0Pt7,0.0231
rank_pct_aupp_CLD__0Pt7_0Pt8,0.0274
rank_pct_aupp_CLD__0Pt8_0Pt9,0.0178
rank_pct_aupp_CLD__0Pt9_1,0.0119
rank_pct_aupp_CLM,0.0002
rank_pct_aupp_CLM__0Pt1_0Pt2,0.0148
rank_pct_aupp_CLM__0Pt2_0Pt3,0.012
rank_pct_aupp_CLM__0Pt3_0Pt4,0.0175
rank_pct_aupp_CLM__0Pt4_0Pt5,0.0289
rank_pct_aupp_CLM__0Pt5_0Pt6,-0.0301
rank_pct_aupp_CLM__0Pt6_0Pt7,0.0215
rank_pct_aupp_CLM__0Pt7_0Pt8,0.0127
rank_pct_aupp_CLM__0Pt8_0Pt9,0.0051
rank_pct_aupp_CLM__0Pt9_1,-0.0188
rank_pct_aupp_EC,-0.0059
rank_pct_aupp_EC__0Pt1_0Pt2,0.0211
rank_pct_aupp_EC__0Pt2_0Pt3,0.0153
rank_pct_aupp_EC__0Pt3_0Pt4,0.0107
rank_pct_aupp_EC__0Pt4_0Pt5,-0.042
rank_pct_aupp_EC__0Pt5_0Pt6,0.0302
rank_pct_aupp_EC__0Pt6_0Pt7,0.0094
rank_pct_aupp_EC__0Pt7_0Pt8,0.0135
rank_pct_aupp_EC__0Pt8_0Pt9,0.0063
rank_pct_aupp_EC__0Pt9_1,-0.0067
rank_pct_aupp_Oth,-0.0221
rank_pct_aupp_Oth__0Pt1_0Pt2,-0.0123
rank_pct_aupp_Oth__0Pt2_0Pt3,-0.0106
rank_pct_aupp_Oth__0Pt3_0Pt4,-0.0276
rank_pct_aupp_Oth__0Pt4_0Pt5,0.013
rank_pct_aupp_Oth__0Pt5_0Pt6,0.0139
rank_pct_aupp_Oth__0Pt6_0Pt7,0.0101
rank_pct_aupp_Oth__0Pt7_0Pt8,0.0145
rank_pct_aupp_Oth__0Pt8_0Pt9,-0.0081
rank_pct_aupp_Oth__0Pt9_1,-0.0255
rank_pct_aupp_SL,0.0129
rank_pct_aupp_SL__0Pt1_0Pt2,0.0155
rank_pct_aupp_SL__0Pt2_0Pt3,0.019
rank_pct_aupp_SL__0Pt3_0Pt4,0.016
rank_pct_aupp_SL__0Pt4_0Pt5,-0.0601
rank_pct_aupp_SL__0Pt5_0Pt6,0.0345
rank_pct_aupp_SL__0Pt6_0Pt7,0.0176
rank_pct_aupp_SL__0Pt7_0Pt8,0.0207
rank_pct_aupp_SL__0Pt8_0Pt9,0.0266
rank_pct_aupp_SL__0Pt9_1,0.0146
rank_pct_avg_val__0Pt0509_0Pt137,-0.0061
rank_pct_avg_val__0Pt137_0Pt223,0.0011
rank_pct_avg_val__0Pt223_0Pt308,0
rank_pct_avg_val__0Pt308_0Pt394,-0.0403
rank_pct_avg_val__0Pt394_0Pt479,0.0257
rank_pct_avg_val__0Pt479_0Pt565,-0.0074
rank_pct_avg_val__0Pt565_0Pt65,0.0344
rank_pct_avg_val__0Pt65_0Pt736,0.014
rank_pct_avg_val__0Pt736_0Pt821,-0.0014
rank_pct_avg_val__0Pt821_0Pt908,0.0041
rank_pct_avg_value,0.0269
rank_pct_wgt_avg_val,0.0397
rank_pct_wgt_avg_val__0Pt1_0Pt2,-0.0018
rank_pct_wgt_avg_val__0Pt2_0Pt3,0.0039
rank_pct_wgt_avg_val__0Pt3_0Pt4,0.0192
rank_pct_wgt_avg_val__0Pt4_0Pt5,0.027
rank_pct_wgt_avg_val__0Pt5_0Pt6,0.029
rank_pct_wgt_avg_val__0Pt6_0Pt7,0.0234
rank_pct_wgt_avg_val__0Pt7_0Pt8,0.0223
rank_pct_wgt_avg_val__0Pt8_0Pt9,-0.0018
rank_pct_wgt_avg_val__0Pt9_1,-0.0344
rank_stdev_order_freq_time,0.1309
rank_stdev_order_freq_time__0Pt989_2Pt1,-0.2617
rank_stdev_order_freq_time__10Pt9_12,-0.0051
rank_stdev_order_freq_time__2Pt1_3Pt2,0.1896
rank_stdev_order_freq_time__3Pt2_4Pt3,0.1422
rank_stdev_order_freq_time__4Pt3_5Pt4,0.0926
rank_stdev_order_freq_time__5Pt4_6Pt5,0.053
rank_stdev_order_freq_time__6Pt5_7Pt6,0.0391
rank_stdev_order_freq_time__7Pt6_8Pt7,0.0049
rank_stdev_order_freq_time__8Pt7_9Pt8,-0.0011
rank_stdev_order_freq_time__9Pt8_10Pt9,-0.0009
rank_stdev_order_qty_time,0.0941
rank_stdev_order_qty_time__16_24,-0.0003
rank_stdev_order_qty_time__8_16,-0.0065
shipped_ooc_NO,0.0486
shipped_ooc_YES,-0.0486
spend_CLDaily,0.2001
spend_CLDaily__300_600,0.102
spend_CLDaily__600_900,0.0806
spend_CLDaily_LB10,0.1304
spend_CLDaily_LB10__0Pt348_0Pt695,-0.007
spend_CLDaily_LB10__0Pt695_1Pt04,-0.0314
spend_CLDaily_LB10__1Pt04_1Pt39,-0.0718
spend_CLDaily_LB10__1Pt39_1Pt74,-0.0897
spend_CLDaily_LB10__1Pt74_2Pt09,-0.0094
spend_CLDaily_LB10__2Pt09_2Pt43,0.0654
spend_CLDaily_LB10__2Pt43_2Pt78,0.109
spend_CLDaily_LB10__2Pt78_3Pt13,0.1166
spend_CLDaily_LB10__3Pt13_3Pt48,0.1025
spend_CLMonthlies,0.1334
spend_CLMonthlies__100_200,0.0533
spend_CLMonthlies__200_300,0.0582
spend_CLMonthlies__300_400,0.0575
spend_CLMonthlies__400_500,0.0471
spend_CLMonthlies__500_600,0.0437
spend_CLMonthlies__600_700,0.0309
spend_CLMonthlies__700_800,0.0234
spend_CLMonthlies__800_900,0.0232
spend_CLMonthlies_LB10,0.0797
spend_CLMonthlies_LB10__0Pt6_0Pt9,-0.0166
spend_CLMonthlies_LB10__0Pt9_1Pt2,-0.0326
spend_CLMonthlies_LB10__1Pt2_1Pt5,-0.0549
spend_CLMonthlies_LB10__1Pt5_1Pt8,-0.0303
spend_CLMonthlies_LB10__1Pt8_2Pt1,0.0117
spend_CLMonthlies_LB10__2Pt1_2Pt4,0.0666
spend_CLMonthlies_LB10__2Pt4_2Pt7,0.0831
spend_CLMonthlies_LB10__2Pt7_3,0.0759
spend_CLTwoWeeklies,0.0788
spend_CLTwoWeeklies__100_200,0.0275
spend_CLTwoWeeklies__200_300,0.0294
spend_CLTwoWeeklies__300_400,0.0314
spend_CLTwoWeeklies__400_500,0.0311
spend_CLTwoWeeklies__500_600,0.0221
spend_CLTwoWeeklies__600_700,0.021
spend_CLTwoWeeklies__700_800,0.0245
spend_CLTwoWeeklies__800_900,0.0254
spend_CLTwoWeeklies_LB10,0.049
spend_CLTwoWeeklies_LB10__0Pt9_1Pt2,-0.0025
spend_CLTwoWeeklies_LB10__1Pt2_1Pt5,-0.0149
spend_CLTwoWeeklies_LB10__1Pt5_1Pt8,-0.0122
spend_CLTwoWeeklies_LB10__1Pt8_2Pt1,0.0033
spend_CLTwoWeeklies_LB10__2Pt1_2Pt4,0.0289
spend_CLTwoWeeklies_LB10__2Pt4_2Pt7,0.0498
spend_CLTwoWeeklies_LB10__2Pt7_3,0.0582
spend_EC,0.0499
spend_EC__10_20,0.0256
spend_EC__20_30,0.0281
spend_EC__30_40,0.011
spend_EC__40_50,0.0124
spend_EC__50_60,0.008
spend_EC__60_70,-0.0038
spend_EC__70_80,0.0054
spend_EC__80_90,0.0081
spend_EC__90_100,0.0098
spend_EC_LB10,0.0516
spend_EC_LB10__0Pt196_0Pt397,0.0027
spend_EC_LB10__0Pt397_0Pt597,0.0263
spend_EC_LB10__0Pt597_0Pt797,0.0144
spend_EC_LB10__0Pt797_0Pt998,0.0102
spend_EC_LB10__0Pt998_1Pt2,0.0148
spend_EC_LB10__1Pt2_1Pt4,0.0335
spend_EC_LB10__1Pt4_1Pt6,0.0183
spend_EC_LB10__1Pt6_1Pt8,0.0124
spend_EC_LB10__1Pt8_2,0.0116
spend_Other,-0.0227
spend_Other__100_120,-0.0135
spend_Other__120_140,-0.0046
spend_Other__140_160,-0.0074
spend_Other__160_180,-0.0088
spend_Other__180_200,-0.0042
spend_Other__20_40,-0.008
spend_Other__40_60,-0.0103
spend_Other__60_80,-0.0123
spend_Other__80_100,-0.0124
spend_Other_LB10,-0.0067
spend_Other_LB10__0Pt21_0Pt442,0.0126
spend_Other_LB10__0Pt442_0Pt675,0.0237
spend_Other_LB10__0Pt675_0Pt907,0.0392
spend_Other_LB10__0Pt907_1Pt14,0.0118
spend_Other_LB10__1Pt14_1Pt37,0.004
spend_Other_LB10__1Pt37_1Pt6,-0.0087
spend_Other_LB10__1Pt6_1Pt84,-0.0116
spend_Other_LB10__1Pt84_2Pt07,-0.0213
spend_Other_LB10__2Pt07_2Pt3,-0.0118
spend_pct_CLDaily,0.0321
spend_pct_CLDaily__0Pt1_0Pt2,0.0254
spend_pct_CLDaily__0Pt2_0Pt3,0.017
spend_pct_CLDaily__0Pt3_0Pt4,0.0035
spend_pct_CLDaily__0Pt4_0Pt5,0.0098
spend_pct_CLDaily__0Pt5_0Pt6,0.0165
spend_pct_CLDaily__0Pt6_0Pt7,0.0207
spend_pct_CLDaily__0Pt7_0Pt8,0.0105
spend_pct_CLDaily__0Pt8_0Pt9,0.0095
spend_pct_CLDaily__0Pt9_1,0.0209
spend_pct_CLMonthlies,0.0059
spend_pct_CLMonthlies__0Pt1_0Pt2,0.0324
spend_pct_CLMonthlies__0Pt2_0Pt3,0.0199
spend_pct_CLMonthlies__0Pt3_0Pt4,0.0196
spend_pct_CLMonthlies__0Pt4_0Pt5,0.0151
spend_pct_CLMonthlies__0Pt5_0Pt6,0.015
spend_pct_CLMonthlies__0Pt6_0Pt7,0.0165
spend_pct_CLMonthlies__0Pt7_0Pt8,0.0194
spend_pct_CLMonthlies__0Pt8_0Pt9,0.0242
spend_pct_CLMonthlies__0Pt9_1,-0.0193
spend_pct_CLTwoWeeklies,0.0173
spend_pct_CLTwoWeeklies__0Pt1_0Pt2,0.0208
spend_pct_CLTwoWeeklies__0Pt2_0Pt3,0.0217
spend_pct_CLTwoWeeklies__0Pt3_0Pt4,0.0138
spend_pct_CLTwoWeeklies__0Pt4_0Pt5,0.0083
spend_pct_CLTwoWeeklies__0Pt5_0Pt6,0.0072
spend_pct_CLTwoWeeklies__0Pt6_0Pt7,0.014
spend_pct_CLTwoWeeklies__0Pt7_0Pt8,0.0152
spend_pct_CLTwoWeeklies__0Pt8_0Pt9,0.0226
spend_pct_CLTwoWeeklies__0Pt9_1,-0.0026
spend_pct_EC,-0.0396
spend_pct_EC__0Pt1_0Pt2,-0.0219
spend_pct_EC__0Pt2_0Pt3,-0.0127
spend_pct_EC__0Pt3_0Pt4,-0.0052
spend_pct_EC__0Pt4_0Pt5,-0.0005
spend_pct_EC__0Pt5_0Pt6,-0.0063
spend_pct_EC__0Pt6_0Pt7,-0.0004
spend_pct_EC__0Pt7_0Pt8,-0.0051
spend_pct_EC__0Pt8_0Pt9,-0.0019
spend_pct_EC__0Pt9_1,-0.0484
spend_pct_Other,-0.0881
spend_pct_Other__0Pt1_0Pt2,0.0187
spend_pct_Other__0Pt2_0Pt3,0.0082
spend_pct_Other__0Pt3_0Pt4,0.0047
spend_pct_Other__0Pt4_0Pt5,-0.0028
spend_pct_Other__0Pt5_0Pt6,-0.0055
spend_pct_Other__0Pt6_0Pt7,-0.0116
spend_pct_Other__0Pt7_0Pt8,-0.0128
spend_pct_Other__0Pt8_0Pt9,-0.0062
spend_pct_Other__0Pt9_1,-0.1098
spend_pct_SL,0.0044
spend_pct_SL__0Pt1_0Pt2,0.0208
spend_pct_SL__0Pt2_0Pt3,0.0063
spend_pct_SL__0Pt3_0Pt4,0.0096
spend_pct_SL__0Pt4_0Pt5,0.0041
spend_pct_SL__0Pt5_0Pt6,0.0052
spend_pct_SL__0Pt6_0Pt7,0.003
spend_pct_SL__0Pt7_0Pt8,-0.002
spend_pct_SL__0Pt8_0Pt9,-0.0008
spend_pct_SL__0Pt9_1,-0.0337
spend_SL,0.0748
spend_SL__10_20,0.017
spend_SL__20_30,0.0192
spend_SL__30_40,0.0213
spend_SL__40_50,0.0232
spend_SL__50_60,0.0146
spend_SL__60_70,0.0175
spend_SL__70_80,0.009
spend_SL__80_90,0.0159
spend_SL__90_100,0.0521
sspend_SL_LB10,0.0705
sspend_SL_LB10__0Pt2_0Pt4,-0.0014
sspend_SL_LB10__0Pt4_0Pt6,0.0066
sspend_SL_LB10__0Pt6_0Pt8,0.0037
sspend_SL_LB10__0Pt8_1,0.0012
sspend_SL_LB10__1_1Pt2,0.0089
sspend_SL_LB10__1Pt2_1Pt4,0.0186
sspend_SL_LB10__1Pt4_1Pt6,0.0253
sspend_SL_LB10__1Pt6_1Pt8,0.03
sspend_SL_LB10__1Pt8_2,0.0574
stdev_order_freq_time,0.3121
stdev_order_freq_time__10_12,0.0566
stdev_order_freq_time__12_14,0.0595
stdev_order_freq_time__14_16,0.0575
stdev_order_freq_time__16_18,0.0582
stdev_order_freq_time__18_20,0.2729
stdev_order_freq_time__2_4,0.0492
stdev_order_freq_time__4_6,0.0456
stdev_order_freq_time__6_8,0.0553
stdev_order_freq_time__8_10,0.0479
stdev_order_freq_time_LB10,0.324
stdev_order_freq_time_LB10__0Pt41_1Pt3,0.3326
stdev_order_qty_time,0.1303
stdev_order_qty_time__105_117,-0.0043
stdev_order_qty_time__11Pt7_23Pt4,-0.0056
stdev_order_qty_time__23Pt4_35Pt1,0.0023
stdev_order_qty_time__35Pt1_46Pt8,-0.0043
stdev_order_qty_time_FLAG,0.1997
stdev_order_qty_time_FLAG__0Pt5_1,0.1997
website_country_BE,0.0056
website_country_CA,-0.0278
website_country_ES,0.0173
website_country_FR,-0.03
website_country_GB,-0.0143
website_country_IE,0.0352
website_country_IT,0.0146
website_country_NL,0.01
website_country_OTHER,-0.0358
website_create_eur.getlenses.nl,0.0084
website_create_gbp.getlenses.nl,0.0573
website_create_getlenses.co.uk,-0.0223
website_create_getlenses.ie,0.0499
website_create_lensbase.es,0.0117
website_create_lensbase.nl,0.0407
website_create_lenson.co.uk,-0.1111
website_create_lenson.nl,-0.054
website_create_lensway.co.uk,-0.0801
website_create_lensway.nl,-0.0004
website_create_OTHER,-0.0121
website_create_postoptics.co.uk,0.0372
website_create_visiondirect.be,0.0041
website_create_visiondirect.co.uk,-0.0276
website_create_visiondirect.es,0.0139
website_create_visiondirect.fr,-0.03
website_create_visiondirect.ie,0.0197
website_create_visiondirect.it,0.0129
website_create_visiondirect.nl,0.0218
website_register_visiondirect.be,0.0056
website_register_visiondirect.ca,-0.0278
website_register_visiondirect.co.uk,-0.0299
website_register_visiondirect.es,0.0173
website_register_visiondirect.fr,-0.03
website_register_visiondirect.ie,0.0352
website_register_visiondirect.it,0.0146
website_register_visiondirect.nl,0.01
