ClientID,SendID,SubscriberKey,EmailAddress,SubscriberID,ListID,EventDate,EventType,BatchID,TriggeredSendExternalKey
500008294,12341,gabrieldatigpalma25@gmail.com,gabrieldatigpalma25@gmail.com,186,16,2/24/2020 1:58:34 AM,Sent,1,
500008294,12342,gabrieldatigpalma25@gmail.com,gabrieldatigpalma25@gmail.com,186,16,2/24/2020 2:06:35 AM,Sent,1,
500008294,12343,gabrieldatigpalma25@gmail.com,gabrieldatigpalma25@gmail.com,186,16,2/24/2020 2:44:34 AM,Sent,1,
500008294,12347,gabrieldatigpalma25@gmail.com,gabrieldatigpalma25@gmail.com,186,16,2/24/2020 4:55:34 AM,Sent,1,
500008294,12377,gabrieldatigpalma25@gmail.com,gabrieldatigpalma25@gmail.com,186,16,2/24/2020 9:17:34 PM,Sent,1,
500008294,12477,gabrieldatigpalma25@gmail.com,gabrieldatigpalma25@gmail.com,186,16,2/25/2020 11:07:35 PM,Sent,1,
500008294,13776,gabrieldatigpalma25@gmail.com,gabrieldatigpalma25@gmail.com,186,16,3/18/2020 3:31:37 AM,Sent,1,
500008294,13724,gabrieldatigpalma25@gmail.com,gabrieldatigpalma25@gmail.com,186,16,3/17/2020 6:32:34 AM,Sent,1,
500008294,13725,gabrieldatigpalma25@gmail.com,gabrieldatigpalma25@gmail.com,186,16,3/17/2020 6:34:33 AM,Sent,1,
500008294,13726,gabrieldatigpalma25@gmail.com,gabrieldatigpalma25@gmail.com,186,16,3/17/2020 6:36:36 AM,Sent,1,
500008294,13728,gabrieldatigpalma25@gmail.com,gabrieldatigpalma25@gmail.com,186,16,3/17/2020 6:37:36 AM,Sent,1,
500008294,13729,gabrieldatigpalma25@gmail.com,gabrieldatigpalma25@gmail.com,186,16,3/17/2020 6:41:34 AM,Sent,1,
500008294,13730,gabrieldatigpalma25@gmail.com,gabrieldatigpalma25@gmail.com,186,16,3/17/2020 6:43:34 AM,Sent,1,
500008294,13599,gabrieldatigpalma25@gmail.com,gabrieldatigpalma25@gmail.com,186,16,3/16/2020 8:40:34 AM,Sent,1,
500008294,13600,gabrieldatigpalma25@gmail.com,gabrieldatigpalma25@gmail.com,186,16,3/16/2020 8:43:34 AM,Sent,1,
500008294,13601,gabrieldatigpalma25@gmail.com,gabrieldatigpalma25@gmail.com,186,16,3/16/2020 8:44:34 AM,Sent,1,
500008294,13602,gabrieldatigpalma25@gmail.com,gabrieldatigpalma25@gmail.com,186,16,3/16/2020 8:55:34 AM,Sent,1,
500008294,13605,gabrieldatigpalma25@gmail.com,gabrieldatigpalma25@gmail.com,186,16,3/16/2020 9:23:35 AM,Sent,1,
500008294,13606,gabrieldatigpalma25@gmail.com,gabrieldatigpalma25@gmail.com,186,16,3/16/2020 9:25:34 AM,Sent,1,
500008294,13402,gabrieldatigpalma25@gmail.com,gabrieldatigpalma25@gmail.com,186,16,3/11/2020 4:37:40 AM,Sent,1,
500008294,13590,gabrieldatigpalma25@gmail.com,gabrieldatigpalma25@gmail.com,186,16,3/16/2020 3:04:36 AM,Sent,1,
500008294,13595,gabrieldatigpalma25@gmail.com,gabrieldatigpalma25@gmail.com,186,16,3/16/2020 8:25:37 AM,Sent,1,
500008294,13596,gabrieldatigpalma25@gmail.com,gabrieldatigpalma25@gmail.com,186,16,3/16/2020 8:27:34 AM,Sent,1,
500008294,13597,gabrieldatigpalma25@gmail.com,gabrieldatigpalma25@gmail.com,186,16,3/16/2020 8:31:34 AM,Sent,1,
500008294,13598,gabrieldatigpalma25@gmail.com,gabrieldatigpalma25@gmail.com,186,16,3/16/2020 8:36:37 AM,Sent,1,
500008294,12478,gabrieldatigpalma25@gmail.com,gabrieldatigpalma25@gmail.com,186,16,2/25/2020 11:10:34 PM,Sent,1,
500008294,12608,gabrieldatigpalma25@gmail.com,gabrieldatigpalma25@gmail.com,186,16,2/27/2020 2:01:34 AM,Sent,1,
500008294,12658,gabrieldatigpalma25@gmail.com,gabrieldatigpalma25@gmail.com,186,16,2/28/2020 1:43:34 AM,Sent,1,
500008294,12661,gabrieldatigpalma25@gmail.com,gabrieldatigpalma25@gmail.com,186,16,2/28/2020 2:03:38 AM,Sent,1,
500008294,12664,gabrieldatigpalma25@gmail.com,gabrieldatigpalma25@gmail.com,186,16,2/28/2020 3:39:38 AM,Sent,1,
500008294,13399,gabrieldatigpalma25@gmail.com,gabrieldatigpalma25@gmail.com,186,16,3/11/2020 4:06:34 AM,Sent,1,
500008294,13402,maryam.breguet@visiondirect.co.uk,maryam.breguet@visiondirect.co.uk,31302,16,3/11/2020 4:37:40 AM,Sent,1,
500008294,13590,maryam.breguet@visiondirect.co.uk,maryam.breguet@visiondirect.co.uk,31302,16,3/16/2020 3:04:36 AM,Sent,1,
500008294,13595,maryam.breguet@visiondirect.co.uk,maryam.breguet@visiondirect.co.uk,31302,16,3/16/2020 8:25:37 AM,Sent,1,
500008294,13596,maryam.breguet@visiondirect.co.uk,maryam.breguet@visiondirect.co.uk,31302,16,3/16/2020 8:27:34 AM,Sent,1,
500008294,13597,maryam.breguet@visiondirect.co.uk,maryam.breguet@visiondirect.co.uk,31302,16,3/16/2020 8:31:34 AM,Sent,1,
500008294,13598,maryam.breguet@visiondirect.co.uk,maryam.breguet@visiondirect.co.uk,31302,16,3/16/2020 8:36:37 AM,Sent,1,
500008294,13776,maryam.breguet@visiondirect.co.uk,maryam.breguet@visiondirect.co.uk,31302,16,3/18/2020 3:31:37 AM,Sent,1,
500008294,13724,maryam.breguet@visiondirect.co.uk,maryam.breguet@visiondirect.co.uk,31302,16,3/17/2020 6:32:34 AM,Sent,1,
500008294,13725,maryam.breguet@visiondirect.co.uk,maryam.breguet@visiondirect.co.uk,31302,16,3/17/2020 6:34:33 AM,Sent,1,
500008294,13726,maryam.breguet@visiondirect.co.uk,maryam.breguet@visiondirect.co.uk,31302,16,3/17/2020 6:36:36 AM,Sent,1,
500008294,13728,maryam.breguet@visiondirect.co.uk,maryam.breguet@visiondirect.co.uk,31302,16,3/17/2020 6:37:36 AM,Sent,1,
500008294,13729,maryam.breguet@visiondirect.co.uk,maryam.breguet@visiondirect.co.uk,31302,16,3/17/2020 6:41:34 AM,Sent,1,
500008294,13730,maryam.breguet@visiondirect.co.uk,maryam.breguet@visiondirect.co.uk,31302,16,3/17/2020 6:43:34 AM,Sent,1,
500008294,13599,maryam.breguet@visiondirect.co.uk,maryam.breguet@visiondirect.co.uk,31302,16,3/16/2020 8:40:34 AM,Sent,1,
500008294,13600,maryam.breguet@visiondirect.co.uk,maryam.breguet@visiondirect.co.uk,31302,16,3/16/2020 8:43:34 AM,Sent,1,
500008294,13601,maryam.breguet@visiondirect.co.uk,maryam.breguet@visiondirect.co.uk,31302,16,3/16/2020 8:44:34 AM,Sent,1,
500008294,13602,maryam.breguet@visiondirect.co.uk,maryam.breguet@visiondirect.co.uk,31302,16,3/16/2020 8:55:34 AM,Sent,1,
500008294,13605,maryam.breguet@visiondirect.co.uk,maryam.breguet@visiondirect.co.uk,31302,16,3/16/2020 9:23:35 AM,Sent,1,
500008294,13606,maryam.breguet@visiondirect.co.uk,maryam.breguet@visiondirect.co.uk,31302,16,3/16/2020 9:25:34 AM,Sent,1,
500008294,12341,gabrieldatigpalma25@yahoo.com,gabrieldatigpalma25@yahoo.com,33238,16,2/24/2020 1:58:34 AM,Sent,1,
500008294,12342,gabrieldatigpalma25@yahoo.com,gabrieldatigpalma25@yahoo.com,33238,16,2/24/2020 2:06:35 AM,Sent,1,
500008294,12343,gabrieldatigpalma25@yahoo.com,gabrieldatigpalma25@yahoo.com,33238,16,2/24/2020 2:44:34 AM,Sent,1,
500008294,12347,gabrieldatigpalma25@yahoo.com,gabrieldatigpalma25@yahoo.com,33238,16,2/24/2020 4:55:34 AM,Sent,1,
500008294,12377,gabrieldatigpalma25@yahoo.com,gabrieldatigpalma25@yahoo.com,33238,16,2/24/2020 9:17:34 PM,Sent,1,
500008294,12477,gabrieldatigpalma25@yahoo.com,gabrieldatigpalma25@yahoo.com,33238,16,2/25/2020 11:07:35 PM,Sent,1,
500008294,13776,gabrieldatigpalma25@yahoo.com,gabrieldatigpalma25@yahoo.com,33238,16,3/18/2020 3:31:37 AM,Sent,1,
500008294,13724,gabrieldatigpalma25@yahoo.com,gabrieldatigpalma25@yahoo.com,33238,16,3/17/2020 6:32:34 AM,Sent,1,
500008294,13725,gabrieldatigpalma25@yahoo.com,gabrieldatigpalma25@yahoo.com,33238,16,3/17/2020 6:34:33 AM,Sent,1,
500008294,13726,gabrieldatigpalma25@yahoo.com,gabrieldatigpalma25@yahoo.com,33238,16,3/17/2020 6:36:36 AM,Sent,1,
500008294,13728,gabrieldatigpalma25@yahoo.com,gabrieldatigpalma25@yahoo.com,33238,16,3/17/2020 6:37:36 AM,Sent,1,
500008294,13729,gabrieldatigpalma25@yahoo.com,gabrieldatigpalma25@yahoo.com,33238,16,3/17/2020 6:41:34 AM,Sent,1,
500008294,13730,gabrieldatigpalma25@yahoo.com,gabrieldatigpalma25@yahoo.com,33238,16,3/17/2020 6:43:34 AM,Sent,1,
500008294,13599,gabrieldatigpalma25@yahoo.com,gabrieldatigpalma25@yahoo.com,33238,16,3/16/2020 8:40:34 AM,Sent,1,
500008294,13600,gabrieldatigpalma25@yahoo.com,gabrieldatigpalma25@yahoo.com,33238,16,3/16/2020 8:43:34 AM,Sent,1,
500008294,13601,gabrieldatigpalma25@yahoo.com,gabrieldatigpalma25@yahoo.com,33238,16,3/16/2020 8:44:34 AM,Sent,1,
500008294,13602,gabrieldatigpalma25@yahoo.com,gabrieldatigpalma25@yahoo.com,33238,16,3/16/2020 8:55:34 AM,Sent,1,
500008294,13605,gabrieldatigpalma25@yahoo.com,gabrieldatigpalma25@yahoo.com,33238,16,3/16/2020 9:23:35 AM,Sent,1,
500008294,13606,gabrieldatigpalma25@yahoo.com,gabrieldatigpalma25@yahoo.com,33238,16,3/16/2020 9:25:34 AM,Sent,1,
500008294,13402,gabrieldatigpalma25@yahoo.com,gabrieldatigpalma25@yahoo.com,33238,16,3/11/2020 4:37:40 AM,Sent,1,
500008294,13590,gabrieldatigpalma25@yahoo.com,gabrieldatigpalma25@yahoo.com,33238,16,3/16/2020 3:04:36 AM,Sent,1,
500008294,13595,gabrieldatigpalma25@yahoo.com,gabrieldatigpalma25@yahoo.com,33238,16,3/16/2020 8:25:37 AM,Sent,1,
500008294,13596,gabrieldatigpalma25@yahoo.com,gabrieldatigpalma25@yahoo.com,33238,16,3/16/2020 8:27:34 AM,Sent,1,
500008294,13597,gabrieldatigpalma25@yahoo.com,gabrieldatigpalma25@yahoo.com,33238,16,3/16/2020 8:31:34 AM,Sent,1,
500008294,13598,gabrieldatigpalma25@yahoo.com,gabrieldatigpalma25@yahoo.com,33238,16,3/16/2020 8:36:37 AM,Sent,1,
500008294,12478,gabrieldatigpalma25@yahoo.com,gabrieldatigpalma25@yahoo.com,33238,16,2/25/2020 11:10:34 PM,Sent,1,
500008294,12608,gabrieldatigpalma25@yahoo.com,gabrieldatigpalma25@yahoo.com,33238,16,2/27/2020 2:01:34 AM,Sent,1,
500008294,12658,gabrieldatigpalma25@yahoo.com,gabrieldatigpalma25@yahoo.com,33238,16,2/28/2020 1:43:34 AM,Sent,1,
500008294,12661,gabrieldatigpalma25@yahoo.com,gabrieldatigpalma25@yahoo.com,33238,16,2/28/2020 2:03:38 AM,Sent,1,
500008294,12664,gabrieldatigpalma25@yahoo.com,gabrieldatigpalma25@yahoo.com,33238,16,2/28/2020 3:39:38 AM,Sent,1,
500008294,13399,gabrieldatigpalma25@yahoo.com,gabrieldatigpalma25@yahoo.com,33238,16,3/11/2020 4:06:34 AM,Sent,1,
500008294,12656,0031l00000QHqlGAAT,riovic.101@gmail.com,35839,16,2/28/2020 1:15:34 AM,Sent,1,
500008294,12657,0031l00000QHqlGAAT,riovic.101@gmail.com,35839,16,2/28/2020 1:27:35 AM,Sent,1,
500008294,13390,0031l00000QHqlGAAT,riovic.101@gmail.com,35839,16,3/11/2020 3:08:34 AM,Sent,1,
500008294,13629,0031l00000QHqlGAAT,riovic.101@gmail.com,35839,16,3/16/2020 11:26:34 PM,Sent,1,
500008294,13762,0031l00000QHqlGAAT,riovic.101@gmail.com,35839,16,3/18/2020 2:42:34 AM,Sent,1,
500008294,14263,0031l00000QHqlGAAT,riovic.101@gmail.com,35839,16,3/24/2020 8:42:39 PM,Sent,1,
500008294,13630,iAMmctester3@gmail.com,iAMmctester3@gmail.com,35979,16,3/16/2020 11:34:34 PM,Sent,1,
500008294,13633,iAMmctester3@gmail.com,iAMmctester3@gmail.com,35979,16,3/16/2020 11:37:33 PM,Sent,1,
500008294,13634,iAMmctester3@gmail.com,iAMmctester3@gmail.com,35979,16,3/16/2020 11:40:35 PM,Sent,1,
500008294,13637,iAMmctester3@gmail.com,iAMmctester3@gmail.com,35979,16,3/16/2020 11:47:33 PM,Sent,1,
500008294,13642,iAMmctester3@gmail.com,iAMmctester3@gmail.com,35979,16,3/17/2020 12:06:34 AM,Sent,1,
500008294,13746,iAMmctester3@gmail.com,iAMmctester3@gmail.com,35979,16,3/18/2020 2:24:35 AM,Sent,1,
500008294,13630,iAMmctester3@yahoo.com,iAMmctester3@yahoo.com,35980,16,3/16/2020 11:34:34 PM,Sent,1,
500008294,13633,iAMmctester3@yahoo.com,iAMmctester3@yahoo.com,35980,16,3/16/2020 11:37:33 PM,Sent,1,
500008294,13634,iAMmctester3@yahoo.com,iAMmctester3@yahoo.com,35980,16,3/16/2020 11:40:35 PM,Sent,1,
500008294,13637,iAMmctester3@yahoo.com,iAMmctester3@yahoo.com,35980,16,3/16/2020 11:47:33 PM,Sent,1,
500008294,13642,iAMmctester3@yahoo.com,iAMmctester3@yahoo.com,35980,16,3/17/2020 12:06:34 AM,Sent,1,
500008294,13746,iAMmctester3@yahoo.com,iAMmctester3@yahoo.com,35980,16,3/18/2020 2:24:35 AM,Sent,1,
500008294,12656,0031l00000RG9sKAAT,iammctester3@gmail.com,35981,16,2/28/2020 1:15:34 AM,Sent,1,
500008294,12657,0031l00000RG9sKAAT,iammctester3@gmail.com,35981,16,2/28/2020 1:27:35 AM,Sent,1,
500008294,13390,0031l00000RG9sKAAT,iammctester3@gmail.com,35981,16,3/11/2020 3:08:34 AM,Sent,1,
500008294,13629,0031l00000RG9sKAAT,iammctester3@gmail.com,35981,16,3/16/2020 11:26:34 PM,Sent,1,
500008294,13762,0031l00000RG9sKAAT,iammctester3@gmail.com,35981,16,3/18/2020 2:42:34 AM,Sent,1,
500008294,14263,0031l00000RG9sKAAT,iammctester3@gmail.com,35981,16,3/24/2020 8:42:39 PM,Sent,1,
500008294,12656,0031l00000RG9sPAAT,iammctester3@hotmail.com,35982,16,2/28/2020 1:15:34 AM,Sent,1,
500008294,12657,0031l00000RG9sPAAT,iammctester3@hotmail.com,35982,16,2/28/2020 1:27:35 AM,Sent,1,
500008294,13762,0031l00000RG9sPAAT,iammctester3@hotmail.com,35982,16,3/18/2020 2:42:34 AM,Sent,1,
500008294,12656,0031l00000RGbecAAD,jhalex95@yahoo.com.ph,35986,16,2/28/2020 1:15:34 AM,Sent,1,
500008294,12657,0031l00000RGbecAAD,jhalex95@yahoo.com.ph,35986,16,2/28/2020 1:27:35 AM,Sent,1,
500008294,13390,0031l00000RGbecAAD,jhalex95@yahoo.com.ph,35986,16,3/11/2020 3:08:34 AM,Sent,1,
500008294,13629,0031l00000RGbecAAD,jhalex95@yahoo.com.ph,35986,16,3/16/2020 11:26:34 PM,Sent,1,
500008294,13762,0031l00000RGbecAAD,jhalex95@yahoo.com.ph,35986,16,3/18/2020 2:42:34 AM,Sent,1,
500008294,14263,0031l00000RGbecAAD,jhalex95@yahoo.com.ph,35986,16,3/24/2020 8:42:39 PM,Sent,1,
500008294,12656,0031l00000RGc5OAAT,iammctester3@yahoo.com,35987,16,2/28/2020 1:15:34 AM,Sent,1,
500008294,12657,0031l00000RGc5OAAT,iammctester3@yahoo.com,35987,16,2/28/2020 1:27:35 AM,Sent,1,
500008294,13762,0031l00000RGc5OAAT,iammctester3@yahoo.com,35987,16,3/18/2020 2:42:34 AM,Sent,1,
500008294,12678,cssreputation@etreputation.com,cssreputation@etreputation.com,37194,16,3/2/2020 12:24:34 AM,Sent,1,
500008294,13105,cssreputation@etreputation.com,cssreputation@etreputation.com,37194,16,3/9/2020 12:35:34 AM,Sent,1,
500008294,13199,cssreputation@etreputation.com,cssreputation@etreputation.com,37194,16,3/10/2020 1:00:35 AM,Sent,1,
500008294,13201,cssreputation@etreputation.com,cssreputation@etreputation.com,37194,16,3/10/2020 1:03:33 AM,Sent,1,
500008294,13203,cssreputation@etreputation.com,cssreputation@etreputation.com,37194,16,3/10/2020 1:07:34 AM,Sent,1,
500008294,13215,cssreputation@etreputation.com,cssreputation@etreputation.com,37194,16,3/10/2020 1:19:33 AM,Sent,1,
500008294,13547,cssreputation@etreputation.com,cssreputation@etreputation.com,37194,16,3/13/2020 6:39:34 AM,Sent,1,
500008294,13548,cssreputation@etreputation.com,cssreputation@etreputation.com,37194,16,3/13/2020 6:41:36 AM,Sent,1,
500008294,13541,cssreputation@etreputation.com,cssreputation@etreputation.com,37194,16,3/13/2020 6:21:37 AM,Sent,1,
500008294,13542,cssreputation@etreputation.com,cssreputation@etreputation.com,37194,16,3/13/2020 6:25:35 AM,Sent,1,
500008294,13543,cssreputation@etreputation.com,cssreputation@etreputation.com,37194,16,3/13/2020 6:28:34 AM,Sent,1,
500008294,13544,cssreputation@etreputation.com,cssreputation@etreputation.com,37194,16,3/13/2020 6:31:38 AM,Sent,1,
500008294,13545,cssreputation@etreputation.com,cssreputation@etreputation.com,37194,16,3/13/2020 6:34:34 AM,Sent,1,
500008294,13546,cssreputation@etreputation.com,cssreputation@etreputation.com,37194,16,3/13/2020 6:37:34 AM,Sent,1,
500008294,13488,cssreputation@etreputation.com,cssreputation@etreputation.com,37194,16,3/12/2020 11:37:34 AM,Sent,1,
500008294,13489,cssreputation@etreputation.com,cssreputation@etreputation.com,37194,16,3/12/2020 11:41:35 AM,Sent,1,
500008294,13490,cssreputation@etreputation.com,cssreputation@etreputation.com,37194,16,3/12/2020 11:43:36 AM,Sent,1,
500008294,13491,cssreputation@etreputation.com,cssreputation@etreputation.com,37194,16,3/12/2020 11:45:38 AM,Sent,1,
500008294,13492,cssreputation@etreputation.com,cssreputation@etreputation.com,37194,16,3/12/2020 11:47:34 AM,Sent,1,
500008294,13540,cssreputation@etreputation.com,cssreputation@etreputation.com,37194,16,3/13/2020 6:17:34 AM,Sent,1,
500008294,13253,cssreputation@etreputation.com,cssreputation@etreputation.com,37194,16,3/10/2020 6:31:37 AM,Sent,1,
500008294,13254,cssreputation@etreputation.com,cssreputation@etreputation.com,37194,16,3/10/2020 6:34:34 AM,Sent,1,
500008294,13484,cssreputation@etreputation.com,cssreputation@etreputation.com,37194,16,3/12/2020 11:26:34 AM,Sent,1,
500008294,13485,cssreputation@etreputation.com,cssreputation@etreputation.com,37194,16,3/12/2020 11:30:35 AM,Sent,1,
500008294,13486,cssreputation@etreputation.com,cssreputation@etreputation.com,37194,16,3/12/2020 11:32:36 AM,Sent,1,
500008294,13487,cssreputation@etreputation.com,cssreputation@etreputation.com,37194,16,3/12/2020 11:35:34 AM,Sent,1,
500008294,13217,cssreputation@etreputation.com,cssreputation@etreputation.com,37194,16,3/10/2020 1:23:34 AM,Sent,1,
500008294,13219,cssreputation@etreputation.com,cssreputation@etreputation.com,37194,16,3/10/2020 1:36:34 AM,Sent,1,
500008294,13220,cssreputation@etreputation.com,cssreputation@etreputation.com,37194,16,3/10/2020 1:41:34 AM,Sent,1,
500008294,13221,cssreputation@etreputation.com,cssreputation@etreputation.com,37194,16,3/10/2020 1:44:34 AM,Sent,1,
500008294,13222,cssreputation@etreputation.com,cssreputation@etreputation.com,37194,16,3/10/2020 1:48:34 AM,Sent,1,
500008294,13252,cssreputation@etreputation.com,cssreputation@etreputation.com,37194,16,3/10/2020 6:27:34 AM,Sent,1,
500008294,13549,SFTEST101,sean.trainor+101@salesforce.com,37432,16,3/13/2020 7:45:35 AM,Sent,1,
500008294,12587,1234,venkatesh.valluri1@accenture.com,37521,16,2/26/2020 9:22:34 AM,Sent,1,
500008294,12656,0031l00000UpQd1AAF,iammctester@outlook.com,41270,16,2/28/2020 1:15:34 AM,Sent,1,
500008294,13762,0031l00000UpQd1AAF,iammctester@outlook.com,41270,16,3/18/2020 2:42:34 AM,Sent,1,
500008294,12341,alexandercruzjr@gmail.com,alexandercruzjr@gmail.com,41348,16,2/24/2020 1:58:34 AM,Sent,1,
500008294,12342,alexandercruzjr@gmail.com,alexandercruzjr@gmail.com,41348,16,2/24/2020 2:06:35 AM,Sent,1,
500008294,12343,alexandercruzjr@gmail.com,alexandercruzjr@gmail.com,41348,16,2/24/2020 2:44:34 AM,Sent,1,
500008294,12347,alexandercruzjr@gmail.com,alexandercruzjr@gmail.com,41348,16,2/24/2020 4:55:34 AM,Sent,1,
500008294,12377,alexandercruzjr@gmail.com,alexandercruzjr@gmail.com,41348,16,2/24/2020 9:17:34 PM,Sent,1,
500008294,12477,alexandercruzjr@gmail.com,alexandercruzjr@gmail.com,41348,16,2/25/2020 11:07:35 PM,Sent,1,
500008294,13776,alexandercruzjr@gmail.com,alexandercruzjr@gmail.com,41348,16,3/18/2020 3:31:37 AM,Sent,1,
500008294,13724,alexandercruzjr@gmail.com,alexandercruzjr@gmail.com,41348,16,3/17/2020 6:32:34 AM,Sent,1,
500008294,13725,alexandercruzjr@gmail.com,alexandercruzjr@gmail.com,41348,16,3/17/2020 6:34:33 AM,Sent,1,
500008294,13726,alexandercruzjr@gmail.com,alexandercruzjr@gmail.com,41348,16,3/17/2020 6:36:36 AM,Sent,1,
500008294,13728,alexandercruzjr@gmail.com,alexandercruzjr@gmail.com,41348,16,3/17/2020 6:37:36 AM,Sent,1,
500008294,13729,alexandercruzjr@gmail.com,alexandercruzjr@gmail.com,41348,16,3/17/2020 6:41:34 AM,Sent,1,
500008294,13730,alexandercruzjr@gmail.com,alexandercruzjr@gmail.com,41348,16,3/17/2020 6:43:34 AM,Sent,1,
500008294,13599,alexandercruzjr@gmail.com,alexandercruzjr@gmail.com,41348,16,3/16/2020 8:40:34 AM,Sent,1,
500008294,13600,alexandercruzjr@gmail.com,alexandercruzjr@gmail.com,41348,16,3/16/2020 8:43:34 AM,Sent,1,
500008294,13601,alexandercruzjr@gmail.com,alexandercruzjr@gmail.com,41348,16,3/16/2020 8:44:34 AM,Sent,1,
500008294,13602,alexandercruzjr@gmail.com,alexandercruzjr@gmail.com,41348,16,3/16/2020 8:55:34 AM,Sent,1,
500008294,13605,alexandercruzjr@gmail.com,alexandercruzjr@gmail.com,41348,16,3/16/2020 9:23:35 AM,Sent,1,
500008294,13606,alexandercruzjr@gmail.com,alexandercruzjr@gmail.com,41348,16,3/16/2020 9:25:34 AM,Sent,1,
500008294,13402,alexandercruzjr@gmail.com,alexandercruzjr@gmail.com,41348,16,3/11/2020 4:37:40 AM,Sent,1,
500008294,13590,alexandercruzjr@gmail.com,alexandercruzjr@gmail.com,41348,16,3/16/2020 3:04:36 AM,Sent,1,
500008294,13595,alexandercruzjr@gmail.com,alexandercruzjr@gmail.com,41348,16,3/16/2020 8:25:37 AM,Sent,1,
500008294,13596,alexandercruzjr@gmail.com,alexandercruzjr@gmail.com,41348,16,3/16/2020 8:27:34 AM,Sent,1,
500008294,13597,alexandercruzjr@gmail.com,alexandercruzjr@gmail.com,41348,16,3/16/2020 8:31:34 AM,Sent,1,
500008294,13598,alexandercruzjr@gmail.com,alexandercruzjr@gmail.com,41348,16,3/16/2020 8:36:37 AM,Sent,1,
500008294,12478,alexandercruzjr@gmail.com,alexandercruzjr@gmail.com,41348,16,2/25/2020 11:10:34 PM,Sent,1,
500008294,12608,alexandercruzjr@gmail.com,alexandercruzjr@gmail.com,41348,16,2/27/2020 2:01:34 AM,Sent,1,
500008294,12658,alexandercruzjr@gmail.com,alexandercruzjr@gmail.com,41348,16,2/28/2020 1:43:34 AM,Sent,1,
500008294,12661,alexandercruzjr@gmail.com,alexandercruzjr@gmail.com,41348,16,2/28/2020 2:03:38 AM,Sent,1,
500008294,12664,alexandercruzjr@gmail.com,alexandercruzjr@gmail.com,41348,16,2/28/2020 3:39:38 AM,Sent,1,
500008294,13399,alexandercruzjr@gmail.com,alexandercruzjr@gmail.com,41348,16,3/11/2020 4:06:34 AM,Sent,1,
500008294,12343,alexcruz_accenture@yahoo.com,alexcruz_accenture@yahoo.com,41449,16,2/24/2020 2:44:34 AM,Sent,1,
500008294,12347,alexcruz_accenture@yahoo.com,alexcruz_accenture@yahoo.com,41449,16,2/24/2020 4:55:34 AM,Sent,1,
500008294,12377,alexcruz_accenture@yahoo.com,alexcruz_accenture@yahoo.com,41449,16,2/24/2020 9:17:34 PM,Sent,1,
500008294,12477,alexcruz_accenture@yahoo.com,alexcruz_accenture@yahoo.com,41449,16,2/25/2020 11:07:35 PM,Sent,1,
500008294,12478,alexcruz_accenture@yahoo.com,alexcruz_accenture@yahoo.com,41449,16,2/25/2020 11:10:34 PM,Sent,1,
500008294,12608,alexcruz_accenture@yahoo.com,alexcruz_accenture@yahoo.com,41449,16,2/27/2020 2:01:34 AM,Sent,1,
500008294,13726,alexcruz_accenture@yahoo.com,alexcruz_accenture@yahoo.com,41449,16,3/17/2020 6:36:36 AM,Sent,1,
500008294,13728,alexcruz_accenture@yahoo.com,alexcruz_accenture@yahoo.com,41449,16,3/17/2020 6:37:36 AM,Sent,1,
500008294,13729,alexcruz_accenture@yahoo.com,alexcruz_accenture@yahoo.com,41449,16,3/17/2020 6:41:34 AM,Sent,1,
500008294,13730,alexcruz_accenture@yahoo.com,alexcruz_accenture@yahoo.com,41449,16,3/17/2020 6:43:34 AM,Sent,1,
500008294,13776,alexcruz_accenture@yahoo.com,alexcruz_accenture@yahoo.com,41449,16,3/18/2020 3:31:37 AM,Sent,1,
500008294,13601,alexcruz_accenture@yahoo.com,alexcruz_accenture@yahoo.com,41449,16,3/16/2020 8:44:34 AM,Sent,1,
500008294,13602,alexcruz_accenture@yahoo.com,alexcruz_accenture@yahoo.com,41449,16,3/16/2020 8:55:34 AM,Sent,1,
500008294,13605,alexcruz_accenture@yahoo.com,alexcruz_accenture@yahoo.com,41449,16,3/16/2020 9:23:35 AM,Sent,1,
500008294,13606,alexcruz_accenture@yahoo.com,alexcruz_accenture@yahoo.com,41449,16,3/16/2020 9:25:34 AM,Sent,1,
500008294,13724,alexcruz_accenture@yahoo.com,alexcruz_accenture@yahoo.com,41449,16,3/17/2020 6:32:34 AM,Sent,1,
500008294,13725,alexcruz_accenture@yahoo.com,alexcruz_accenture@yahoo.com,41449,16,3/17/2020 6:34:33 AM,Sent,1,
500008294,13595,alexcruz_accenture@yahoo.com,alexcruz_accenture@yahoo.com,41449,16,3/16/2020 8:25:37 AM,Sent,1,
500008294,13596,alexcruz_accenture@yahoo.com,alexcruz_accenture@yahoo.com,41449,16,3/16/2020 8:27:34 AM,Sent,1,
500008294,13597,alexcruz_accenture@yahoo.com,alexcruz_accenture@yahoo.com,41449,16,3/16/2020 8:31:34 AM,Sent,1,
500008294,13598,alexcruz_accenture@yahoo.com,alexcruz_accenture@yahoo.com,41449,16,3/16/2020 8:36:37 AM,Sent,1,
500008294,13599,alexcruz_accenture@yahoo.com,alexcruz_accenture@yahoo.com,41449,16,3/16/2020 8:40:34 AM,Sent,1,
500008294,13600,alexcruz_accenture@yahoo.com,alexcruz_accenture@yahoo.com,41449,16,3/16/2020 8:43:34 AM,Sent,1,
500008294,12658,alexcruz_accenture@yahoo.com,alexcruz_accenture@yahoo.com,41449,16,2/28/2020 1:43:34 AM,Sent,1,
500008294,12661,alexcruz_accenture@yahoo.com,alexcruz_accenture@yahoo.com,41449,16,2/28/2020 2:03:38 AM,Sent,1,
500008294,12664,alexcruz_accenture@yahoo.com,alexcruz_accenture@yahoo.com,41449,16,2/28/2020 3:39:38 AM,Sent,1,
500008294,13399,alexcruz_accenture@yahoo.com,alexcruz_accenture@yahoo.com,41449,16,3/11/2020 4:06:34 AM,Sent,1,
500008294,13402,alexcruz_accenture@yahoo.com,alexcruz_accenture@yahoo.com,41449,16,3/11/2020 4:37:40 AM,Sent,1,
500008294,13590,alexcruz_accenture@yahoo.com,alexcruz_accenture@yahoo.com,41449,16,3/16/2020 3:04:36 AM,Sent,1,
500008294,12342,alexknooows@gmail.com,alexknooows@gmail.com,41507,16,2/24/2020 2:06:35 AM,Sent,1,
500008294,12343,alexknooows@gmail.com,alexknooows@gmail.com,41507,16,2/24/2020 2:44:34 AM,Sent,1,
500008294,12347,alexknooows@gmail.com,alexknooows@gmail.com,41507,16,2/24/2020 4:55:34 AM,Sent,1,
500008294,12377,alexknooows@gmail.com,alexknooows@gmail.com,41507,16,2/24/2020 9:17:34 PM,Sent,1,
500008294,12477,alexknooows@gmail.com,alexknooows@gmail.com,41507,16,2/25/2020 11:07:35 PM,Sent,1,
500008294,12478,alexknooows@gmail.com,alexknooows@gmail.com,41507,16,2/25/2020 11:10:34 PM,Sent,1,
500008294,13725,alexknooows@gmail.com,alexknooows@gmail.com,41507,16,3/17/2020 6:34:33 AM,Sent,1,
500008294,13726,alexknooows@gmail.com,alexknooows@gmail.com,41507,16,3/17/2020 6:36:36 AM,Sent,1,
500008294,13728,alexknooows@gmail.com,alexknooows@gmail.com,41507,16,3/17/2020 6:37:36 AM,Sent,1,
500008294,13729,alexknooows@gmail.com,alexknooows@gmail.com,41507,16,3/17/2020 6:41:34 AM,Sent,1,
500008294,13730,alexknooows@gmail.com,alexknooows@gmail.com,41507,16,3/17/2020 6:43:34 AM,Sent,1,
500008294,13776,alexknooows@gmail.com,alexknooows@gmail.com,41507,16,3/18/2020 3:31:37 AM,Sent,1,
500008294,13600,alexknooows@gmail.com,alexknooows@gmail.com,41507,16,3/16/2020 8:43:34 AM,Sent,1,
500008294,13601,alexknooows@gmail.com,alexknooows@gmail.com,41507,16,3/16/2020 8:44:34 AM,Sent,1,
500008294,13602,alexknooows@gmail.com,alexknooows@gmail.com,41507,16,3/16/2020 8:55:34 AM,Sent,1,
500008294,13605,alexknooows@gmail.com,alexknooows@gmail.com,41507,16,3/16/2020 9:23:35 AM,Sent,1,
500008294,13606,alexknooows@gmail.com,alexknooows@gmail.com,41507,16,3/16/2020 9:25:34 AM,Sent,1,
500008294,13724,alexknooows@gmail.com,alexknooows@gmail.com,41507,16,3/17/2020 6:32:34 AM,Sent,1,
500008294,13590,alexknooows@gmail.com,alexknooows@gmail.com,41507,16,3/16/2020 3:04:36 AM,Sent,1,
500008294,13595,alexknooows@gmail.com,alexknooows@gmail.com,41507,16,3/16/2020 8:25:37 AM,Sent,1,
500008294,13596,alexknooows@gmail.com,alexknooows@gmail.com,41507,16,3/16/2020 8:27:34 AM,Sent,1,
500008294,13597,alexknooows@gmail.com,alexknooows@gmail.com,41507,16,3/16/2020 8:31:34 AM,Sent,1,
500008294,13598,alexknooows@gmail.com,alexknooows@gmail.com,41507,16,3/16/2020 8:36:37 AM,Sent,1,
500008294,13599,alexknooows@gmail.com,alexknooows@gmail.com,41507,16,3/16/2020 8:40:34 AM,Sent,1,
500008294,12608,alexknooows@gmail.com,alexknooows@gmail.com,41507,16,2/27/2020 2:01:34 AM,Sent,1,
500008294,12658,alexknooows@gmail.com,alexknooows@gmail.com,41507,16,2/28/2020 1:43:34 AM,Sent,1,
500008294,12661,alexknooows@gmail.com,alexknooows@gmail.com,41507,16,2/28/2020 2:03:38 AM,Sent,1,
500008294,12664,alexknooows@gmail.com,alexknooows@gmail.com,41507,16,2/28/2020 3:39:38 AM,Sent,1,
500008294,13399,alexknooows@gmail.com,alexknooows@gmail.com,41507,16,3/11/2020 4:06:34 AM,Sent,1,
500008294,13402,alexknooows@gmail.com,alexknooows@gmail.com,41507,16,3/11/2020 4:37:40 AM,Sent,1,
500008294,12656,0031l00000YHViGAAX,jhalex95@gmail.com,41719,16,2/28/2020 1:15:34 AM,Sent,1,
500008294,12657,0031l00000YHViGAAX,jhalex95@gmail.com,41719,16,2/28/2020 1:27:35 AM,Sent,1,
500008294,13390,0031l00000YHViGAAX,jhalex95@gmail.com,41719,16,3/11/2020 3:08:34 AM,Sent,1,
500008294,13629,0031l00000YHViGAAX,jhalex95@gmail.com,41719,16,3/16/2020 11:26:34 PM,Sent,1,
500008294,13762,0031l00000YHViGAAX,jhalex95@gmail.com,41719,16,3/18/2020 2:42:34 AM,Sent,1,
500008294,14263,0031l00000YHViGAAX,jhalex95@gmail.com,41719,16,3/24/2020 8:42:39 PM,Sent,1,
500008294,12341,mcrrtest@yahoo.com,mcrrtest@yahoo.com,41755,16,2/24/2020 1:58:34 AM,Sent,1,
500008294,12342,mcrrtest@yahoo.com,mcrrtest@yahoo.com,41755,16,2/24/2020 2:06:35 AM,Sent,1,
500008294,12343,mcrrtest@yahoo.com,mcrrtest@yahoo.com,41755,16,2/24/2020 2:44:34 AM,Sent,1,
500008294,12347,mcrrtest@yahoo.com,mcrrtest@yahoo.com,41755,16,2/24/2020 4:55:34 AM,Sent,1,
500008294,12377,mcrrtest@yahoo.com,mcrrtest@yahoo.com,41755,16,2/24/2020 9:17:34 PM,Sent,1,
500008294,12477,mcrrtest@yahoo.com,mcrrtest@yahoo.com,41755,16,2/25/2020 11:07:35 PM,Sent,1,
500008294,12478,mcrrtest@yahoo.com,mcrrtest@yahoo.com,41755,16,2/25/2020 11:10:34 PM,Sent,1,
500008294,12608,mcrrtest@yahoo.com,mcrrtest@yahoo.com,41755,16,2/27/2020 2:01:34 AM,Sent,1,
500008294,12658,mcrrtest@yahoo.com,mcrrtest@yahoo.com,41755,16,2/28/2020 1:43:34 AM,Sent,1,
500008294,12661,mcrrtest@yahoo.com,mcrrtest@yahoo.com,41755,16,2/28/2020 2:03:38 AM,Sent,1,
500008294,12664,mcrrtest@yahoo.com,mcrrtest@yahoo.com,41755,16,2/28/2020 3:39:38 AM,Sent,1,
500008294,13399,mcrrtest@yahoo.com,mcrrtest@yahoo.com,41755,16,3/11/2020 4:06:34 AM,Sent,1,
500008294,12341,mcrrtest@gmail.com,mcrrtest@gmail.com,42992,16,2/24/2020 1:58:34 AM,Sent,1,
500008294,12342,mcrrtest@gmail.com,mcrrtest@gmail.com,42992,16,2/24/2020 2:06:35 AM,Sent,1,
500008294,12343,mcrrtest@gmail.com,mcrrtest@gmail.com,42992,16,2/24/2020 2:44:34 AM,Sent,1,
500008294,12347,mcrrtest@gmail.com,mcrrtest@gmail.com,42992,16,2/24/2020 4:55:34 AM,Sent,1,
500008294,12377,mcrrtest@gmail.com,mcrrtest@gmail.com,42992,16,2/24/2020 9:17:34 PM,Sent,1,
500008294,12477,mcrrtest@gmail.com,mcrrtest@gmail.com,42992,16,2/25/2020 11:07:35 PM,Sent,1,
500008294,12478,mcrrtest@gmail.com,mcrrtest@gmail.com,42992,16,2/25/2020 11:10:34 PM,Sent,1,
500008294,12608,mcrrtest@gmail.com,mcrrtest@gmail.com,42992,16,2/27/2020 2:01:34 AM,Sent,1,
500008294,12658,mcrrtest@gmail.com,mcrrtest@gmail.com,42992,16,2/28/2020 1:43:34 AM,Sent,1,
500008294,12661,mcrrtest@gmail.com,mcrrtest@gmail.com,42992,16,2/28/2020 2:03:38 AM,Sent,1,
500008294,12664,mcrrtest@gmail.com,mcrrtest@gmail.com,42992,16,2/28/2020 3:39:38 AM,Sent,1,
500008294,13399,mcrrtest@gmail.com,mcrrtest@gmail.com,42992,16,3/11/2020 4:06:34 AM,Sent,1,
500008294,12498,Test_VD_Profile1,gabrieldatigpalma25@gmail.com,43789,16,2/25/2020 11:54:36 PM,Sent,1,
500008294,12501,Test_VD_Profile1,gabrieldatigpalma25@gmail.com,43789,16,2/25/2020 11:58:33 PM,Sent,1,
500008294,12503,Test_VD_Profile1,gabrieldatigpalma25@gmail.com,43789,16,2/26/2020 12:02:33 AM,Sent,1,
500008294,12507,Test_VD_Profile1,gabrieldatigpalma25@gmail.com,43789,16,2/26/2020 12:04:42 AM,Sent,1,
500008294,12533,Test_VD_Profile1,gabrieldatigpalma25@gmail.com,43789,16,2/26/2020 1:21:34 AM,Sent,1,
500008294,12498,Test_VD_Profile2,gabriel.d.palma@accenture.com,43790,16,2/25/2020 11:54:36 PM,Sent,1,
500008294,12501,Test_VD_Profile2,gabriel.d.palma@accenture.com,43790,16,2/25/2020 11:58:33 PM,Sent,1,
500008294,12503,Test_VD_Profile2,gabriel.d.palma@accenture.com,43790,16,2/26/2020 12:02:33 AM,Sent,1,
500008294,12507,Test_VD_Profile2,gabriel.d.palma@accenture.com,43790,16,2/26/2020 12:04:42 AM,Sent,1,
500008294,12533,Test_VD_Profile2,gabriel.d.palma@accenture.com,43790,16,2/26/2020 1:21:34 AM,Sent,1,
500008294,12582,9779,tom.fletcher@visiondirect.co.uk,43869,16,2/26/2020 8:50:34 AM,Sent,1,
500008294,12583,9779,tom.fletcher@visiondirect.co.uk,43869,16,2/26/2020 8:57:34 AM,Sent,1,
500008294,12584,9779,tom.fletcher@visiondirect.co.uk,43869,16,2/26/2020 8:59:34 AM,Sent,1,
500008294,12585,9779,tom.fletcher@visiondirect.co.uk,43869,16,2/26/2020 9:06:39 AM,Sent,1,
500008294,12586,9779,tom.fletcher@visiondirect.co.uk,43869,16,2/26/2020 9:22:34 AM,Sent,1,
500008294,12896,9779,tom.fletcher@visiondirect.co.uk,43869,16,3/3/2020 3:05:34 AM,Sent,1,
500008294,14245,9779,tom.fletcher@visiondirect.co.uk,43869,16,3/23/2020 9:15:34 AM,Sent,1,
500008294,14246,9779,tom.fletcher@visiondirect.co.uk,43869,185,3/23/2020 9:18:36 AM,Sent,2,
500008294,14247,9779,tom.fletcher@visiondirect.co.uk,43869,16,3/23/2020 9:21:39 AM,Sent,1,
500008294,12897,9779,tom.fletcher@visiondirect.co.uk,43869,16,3/3/2020 3:08:36 AM,Sent,1,
500008294,12898,9779,tom.fletcher@visiondirect.co.uk,43869,16,3/3/2020 3:25:34 AM,Sent,1,
500008294,12902,9779,tom.fletcher@visiondirect.co.uk,43869,16,3/3/2020 3:50:35 AM,Sent,1,
500008294,12904,9779,tom.fletcher@visiondirect.co.uk,43869,16,3/3/2020 4:05:37 AM,Sent,1,
500008294,12907,9779,tom.fletcher@visiondirect.co.uk,43869,186,3/3/2020 4:48:37 AM,Sent,12,
500008294,13262,9779,tom.fletcher@visiondirect.co.uk,43869,16,3/10/2020 8:52:37 AM,Sent,1,
500008294,12583,777,tom.w.fletcher@hotmail.co.uk,43870,16,2/26/2020 8:57:34 AM,Sent,1,
500008294,12584,777,tom.w.fletcher@hotmail.co.uk,43870,16,2/26/2020 8:59:34 AM,Sent,1,
500008294,12585,777,tom.w.fletcher@hotmail.co.uk,43870,16,2/26/2020 9:06:39 AM,Sent,1,
500008294,12586,777,tom.w.fletcher@hotmail.co.uk,43870,16,2/26/2020 9:22:34 AM,Sent,1,
500008294,12896,777,tom.w.fletcher@hotmail.co.uk,43870,16,3/3/2020 3:05:34 AM,Sent,1,
500008294,12897,777,tom.w.fletcher@hotmail.co.uk,43870,16,3/3/2020 3:08:36 AM,Sent,1,
500008294,14245,777,tom.w.fletcher@hotmail.co.uk,43870,16,3/23/2020 9:15:34 AM,Sent,1,
500008294,14246,777,tom.w.fletcher@hotmail.co.uk,43870,185,3/23/2020 9:18:36 AM,Sent,2,
500008294,14247,777,tom.w.fletcher@hotmail.co.uk,43870,16,3/23/2020 9:21:39 AM,Sent,1,
500008294,13264,777,tom.w.fletcher@hotmail.co.uk,43870,16,3/10/2020 9:01:34 AM,Sent,1,
500008294,13454,777,tom.w.fletcher@hotmail.co.uk,43870,16,3/12/2020 2:57:34 AM,Sent,1,
500008294,13455,777,tom.w.fletcher@hotmail.co.uk,43870,16,3/12/2020 3:01:37 AM,Sent,1,
500008294,13483,777,tom.w.fletcher@hotmail.co.uk,43870,16,3/12/2020 10:41:34 AM,Sent,1,
500008294,13555,777,tom.w.fletcher@hotmail.co.uk,43870,16,3/13/2020 10:03:35 AM,Sent,1,
500008294,13777,777,tom.w.fletcher@hotmail.co.uk,43870,16,3/18/2020 3:59:36 AM,Sent,1,
500008294,13258,777,tom.w.fletcher@hotmail.co.uk,43870,16,3/10/2020 8:35:35 AM,Sent,1,
500008294,13259,777,tom.w.fletcher@hotmail.co.uk,43870,16,3/10/2020 8:42:35 AM,Sent,1,
500008294,13260,777,tom.w.fletcher@hotmail.co.uk,43870,16,3/10/2020 8:45:34 AM,Sent,1,
500008294,13261,777,tom.w.fletcher@hotmail.co.uk,43870,16,3/10/2020 8:50:35 AM,Sent,1,
500008294,13262,777,tom.w.fletcher@hotmail.co.uk,43870,16,3/10/2020 8:52:37 AM,Sent,1,
500008294,13263,777,tom.w.fletcher@hotmail.co.uk,43870,16,3/10/2020 8:55:34 AM,Sent,1,
500008294,12998,777,tom.w.fletcher@hotmail.co.uk,43870,16,3/5/2020 5:53:34 AM,Sent,1,
500008294,12999,777,tom.w.fletcher@hotmail.co.uk,43870,16,3/5/2020 6:24:35 AM,Sent,1,
500008294,13176,777,tom.w.fletcher@hotmail.co.uk,43870,185,3/9/2020 8:49:35 AM,Sent,2,
500008294,13255,777,tom.w.fletcher@hotmail.co.uk,43870,16,3/10/2020 8:13:35 AM,Sent,1,
500008294,13256,777,tom.w.fletcher@hotmail.co.uk,43870,16,3/10/2020 8:22:34 AM,Sent,1,
500008294,13257,777,tom.w.fletcher@hotmail.co.uk,43870,16,3/10/2020 8:27:34 AM,Sent,1,
500008294,12898,777,tom.w.fletcher@hotmail.co.uk,43870,16,3/3/2020 3:25:34 AM,Sent,1,
500008294,12902,777,tom.w.fletcher@hotmail.co.uk,43870,16,3/3/2020 3:50:35 AM,Sent,1,
500008294,12904,777,tom.w.fletcher@hotmail.co.uk,43870,16,3/3/2020 4:05:37 AM,Sent,1,
500008294,12907,777,tom.w.fletcher@hotmail.co.uk,43870,186,3/3/2020 4:48:37 AM,Sent,12,
500008294,12945,777,tom.w.fletcher@hotmail.co.uk,43870,16,3/4/2020 4:07:35 AM,Sent,1,
500008294,12997,777,tom.w.fletcher@hotmail.co.uk,43870,16,3/5/2020 5:25:36 AM,Sent,1,
500008294,12585,666,tfletcher45@gmail.com,43872,16,2/26/2020 9:06:39 AM,Sent,1,
500008294,12586,666,tfletcher45@gmail.com,43872,16,2/26/2020 9:22:34 AM,Sent,1,
500008294,12896,666,tfletcher45@gmail.com,43872,16,3/3/2020 3:05:34 AM,Sent,1,
500008294,12897,666,tfletcher45@gmail.com,43872,16,3/3/2020 3:08:36 AM,Sent,1,
500008294,12898,666,tfletcher45@gmail.com,43872,16,3/3/2020 3:25:34 AM,Sent,1,
500008294,12902,666,tfletcher45@gmail.com,43872,16,3/3/2020 3:50:35 AM,Sent,1,
500008294,13483,666,tfletcher45@gmail.com,43872,16,3/12/2020 10:41:34 AM,Sent,1,
500008294,13555,666,tfletcher45@gmail.com,43872,16,3/13/2020 10:03:35 AM,Sent,1,
500008294,13777,666,tfletcher45@gmail.com,43872,16,3/18/2020 3:59:36 AM,Sent,1,
500008294,14245,666,tfletcher45@gmail.com,43872,16,3/23/2020 9:15:34 AM,Sent,1,
500008294,14246,666,tfletcher45@gmail.com,43872,185,3/23/2020 9:18:36 AM,Sent,2,
500008294,14247,666,tfletcher45@gmail.com,43872,16,3/23/2020 9:21:39 AM,Sent,1,
500008294,13261,666,tfletcher45@gmail.com,43872,16,3/10/2020 8:50:35 AM,Sent,1,
500008294,13262,666,tfletcher45@gmail.com,43872,16,3/10/2020 8:52:37 AM,Sent,1,
500008294,13263,666,tfletcher45@gmail.com,43872,16,3/10/2020 8:55:34 AM,Sent,1,
500008294,13264,666,tfletcher45@gmail.com,43872,16,3/10/2020 9:01:34 AM,Sent,1,
500008294,13454,666,tfletcher45@gmail.com,43872,16,3/12/2020 2:57:34 AM,Sent,1,
500008294,13455,666,tfletcher45@gmail.com,43872,16,3/12/2020 3:01:37 AM,Sent,1,
500008294,13255,666,tfletcher45@gmail.com,43872,16,3/10/2020 8:13:35 AM,Sent,1,
500008294,13256,666,tfletcher45@gmail.com,43872,16,3/10/2020 8:22:34 AM,Sent,1,
500008294,13257,666,tfletcher45@gmail.com,43872,16,3/10/2020 8:27:34 AM,Sent,1,
500008294,13258,666,tfletcher45@gmail.com,43872,16,3/10/2020 8:35:35 AM,Sent,1,
500008294,13259,666,tfletcher45@gmail.com,43872,16,3/10/2020 8:42:35 AM,Sent,1,
500008294,13260,666,tfletcher45@gmail.com,43872,16,3/10/2020 8:45:34 AM,Sent,1,
500008294,12904,666,tfletcher45@gmail.com,43872,16,3/3/2020 4:05:37 AM,Sent,1,
500008294,12907,666,tfletcher45@gmail.com,43872,186,3/3/2020 4:48:37 AM,Sent,12,
500008294,12945,666,tfletcher45@gmail.com,43872,16,3/4/2020 4:07:35 AM,Sent,1,
500008294,12997,666,tfletcher45@gmail.com,43872,16,3/5/2020 5:25:36 AM,Sent,1,
500008294,12998,666,tfletcher45@gmail.com,43872,16,3/5/2020 5:53:34 AM,Sent,1,
500008294,12999,666,tfletcher45@gmail.com,43872,16,3/5/2020 6:24:35 AM,Sent,1,
500008294,12587,2234,christian.appiah@visiondirect.co.uk,43875,16,2/26/2020 9:22:34 AM,Sent,1,
500008294,12588,6789,christianappiah@live.co.uk,43881,16,2/26/2020 9:42:34 AM,Sent,1,
500008294,12643,6789,christianappiah@live.co.uk,43881,16,2/27/2020 9:26:38 AM,Sent,1,
500008294,13409,6789,christianappiah@live.co.uk,43881,16,3/11/2020 8:52:34 AM,Sent,1,
500008294,14246,6789,christianappiah@live.co.uk,43881,186,3/23/2020 9:18:36 AM,Sent,3,
500008294,14247,6789,christianappiah@live.co.uk,43881,186,3/23/2020 9:21:40 AM,Sent,3,
500008294,12588,7789,jnr89@live.co.uk,43882,16,2/26/2020 9:42:34 AM,Sent,1,
500008294,12643,7789,jnr89@live.co.uk,43882,16,2/27/2020 9:26:38 AM,Sent,1,
500008294,12873,7789,jnr89@live.co.uk,43882,16,3/2/2020 9:00:36 AM,Sent,1,
500008294,12907,7789,jnr89@live.co.uk,43882,16,3/3/2020 4:48:37 AM,Sent,1,
500008294,12946,7789,jnr89@live.co.uk,43882,16,3/4/2020 4:18:34 AM,Sent,1,
500008294,12956,7789,jnr89@live.co.uk,43882,16,3/4/2020 9:35:34 AM,Sent,1,
500008294,14247,7789,jnr89@live.co.uk,43882,186,3/23/2020 9:21:40 AM,Sent,3,
500008294,14257,7789,jnr89@live.co.uk,43882,16,3/24/2020 6:17:34 AM,Sent,1,
500008294,14258,7789,jnr89@live.co.uk,43882,16,3/24/2020 6:25:37 AM,Sent,1,
500008294,13176,7789,jnr89@live.co.uk,43882,16,3/9/2020 8:49:35 AM,Sent,1,
500008294,13409,7789,jnr89@live.co.uk,43882,16,3/11/2020 8:52:34 AM,Sent,1,
500008294,13777,7789,jnr89@live.co.uk,43882,186,3/18/2020 3:59:37 AM,Sent,3,
500008294,14190,7789,jnr89@live.co.uk,43882,16,3/20/2020 7:43:34 AM,Sent,1,
500008294,14191,7789,jnr89@live.co.uk,43882,16,3/20/2020 7:49:34 AM,Sent,1,
500008294,14246,7789,jnr89@live.co.uk,43882,186,3/23/2020 9:18:36 AM,Sent,3,
500008294,12588,8889,christian.appiah@visiondirect.co.uk,43883,16,2/26/2020 9:42:34 AM,Sent,1,
500008294,12643,8889,christian.appiah@visiondirect.co.uk,43883,16,2/27/2020 9:26:38 AM,Sent,1,
500008294,12873,8889,christian.appiah@visiondirect.co.uk,43883,16,3/2/2020 9:00:36 AM,Sent,1,
500008294,12907,8889,christian.appiah@visiondirect.co.uk,43883,16,3/3/2020 4:48:37 AM,Sent,1,
500008294,12946,8889,christian.appiah@visiondirect.co.uk,43883,16,3/4/2020 4:18:34 AM,Sent,1,
500008294,12956,8889,christian.appiah@visiondirect.co.uk,43883,16,3/4/2020 9:35:34 AM,Sent,1,
500008294,14247,8889,christian.appiah@visiondirect.co.uk,43883,186,3/23/2020 9:21:40 AM,Sent,3,
500008294,14257,8889,christian.appiah@visiondirect.co.uk,43883,16,3/24/2020 6:17:34 AM,Sent,1,
500008294,14258,8889,christian.appiah@visiondirect.co.uk,43883,16,3/24/2020 6:25:37 AM,Sent,1,
500008294,13176,8889,christian.appiah@visiondirect.co.uk,43883,16,3/9/2020 8:49:35 AM,Sent,1,
500008294,13409,8889,christian.appiah@visiondirect.co.uk,43883,16,3/11/2020 8:52:34 AM,Sent,1,
500008294,13777,8889,christian.appiah@visiondirect.co.uk,43883,186,3/18/2020 3:59:37 AM,Sent,3,
500008294,14190,8889,christian.appiah@visiondirect.co.uk,43883,16,3/20/2020 7:43:34 AM,Sent,1,
500008294,14191,8889,christian.appiah@visiondirect.co.uk,43883,16,3/20/2020 7:49:34 AM,Sent,1,
500008294,14246,8889,christian.appiah@visiondirect.co.uk,43883,186,3/23/2020 9:18:36 AM,Sent,3,
500008294,12611,4499,emma-haskell@outlook.com,44044,16,2/27/2020 3:59:36 AM,Sent,1,
500008294,12613,4499,emma-haskell@outlook.com,44044,16,2/27/2020 4:21:34 AM,Sent,1,
500008294,12626,4499,emma-haskell@outlook.com,44044,16,2/27/2020 5:32:34 AM,Sent,1,
500008294,12627,4499,emma-haskell@outlook.com,44044,16,2/27/2020 5:42:35 AM,Sent,1,
500008294,12628,4499,emma-haskell@outlook.com,44044,16,2/27/2020 5:46:36 AM,Sent,1,
500008294,12630,4499,emma-haskell@outlook.com,44044,16,2/27/2020 5:49:34 AM,Sent,1,
500008294,14261,4499,emma-haskell@outlook.com,44044,16,3/24/2020 8:18:37 AM,Sent,1,
500008294,13782,4499,emma-haskell@outlook.com,44044,16,3/18/2020 8:20:34 AM,Sent,1,
500008294,13783,4499,emma-haskell@outlook.com,44044,16,3/18/2020 8:23:34 AM,Sent,1,
500008294,14244,4499,emma-haskell@outlook.com,44044,16,3/23/2020 8:30:35 AM,Sent,1,
500008294,14246,4499,emma-haskell@outlook.com,44044,16,3/23/2020 9:18:36 AM,Sent,1,
500008294,14247,4499,emma-haskell@outlook.com,44044,185,3/23/2020 9:21:39 AM,Sent,2,
500008294,14260,4499,emma-haskell@outlook.com,44044,16,3/24/2020 7:55:36 AM,Sent,1,
500008294,13742,4499,emma-haskell@outlook.com,44044,16,3/17/2020 9:51:35 AM,Sent,1,
500008294,13743,4499,emma-haskell@outlook.com,44044,16,3/17/2020 11:34:37 AM,Sent,1,
500008294,13777,4499,emma-haskell@outlook.com,44044,185,3/18/2020 3:59:36 AM,Sent,2,
500008294,13779,4499,emma-haskell@outlook.com,44044,16,3/18/2020 7:57:34 AM,Sent,1,
500008294,13780,4499,emma-haskell@outlook.com,44044,16,3/18/2020 7:57:34 AM,Sent,1,
500008294,13781,4499,emma-haskell@outlook.com,44044,16,3/18/2020 8:03:37 AM,Sent,1,
500008294,13731,4499,emma-haskell@outlook.com,44044,16,3/17/2020 7:49:34 AM,Sent,1,
500008294,13734,4499,emma-haskell@outlook.com,44044,16,3/17/2020 7:58:39 AM,Sent,1,
500008294,13735,4499,emma-haskell@outlook.com,44044,16,3/17/2020 8:05:35 AM,Sent,1,
500008294,13739,4499,emma-haskell@outlook.com,44044,16,3/17/2020 8:25:34 AM,Sent,1,
500008294,13740,4499,emma-haskell@outlook.com,44044,16,3/17/2020 8:45:34 AM,Sent,1,
500008294,13741,4499,emma-haskell@outlook.com,44044,16,3/17/2020 9:25:38 AM,Sent,1,
500008294,13413,4499,emma-haskell@outlook.com,44044,16,3/11/2020 9:44:35 AM,Sent,1,
500008294,13417,4499,emma-haskell@outlook.com,44044,16,3/11/2020 9:58:34 AM,Sent,1,
500008294,13482,4499,emma-haskell@outlook.com,44044,16,3/12/2020 5:45:35 AM,Sent,1,
500008294,13594,4499,emma-haskell@outlook.com,44044,16,3/16/2020 6:08:34 AM,Sent,1,
500008294,13604,4499,emma-haskell@outlook.com,44044,16,3/16/2020 9:06:34 AM,Sent,1,
500008294,13611,4499,emma-haskell@outlook.com,44044,16,3/16/2020 10:54:34 AM,Sent,1,
500008294,13404,4499,emma-haskell@outlook.com,44044,16,3/11/2020 7:56:34 AM,Sent,1,
500008294,13405,4499,emma-haskell@outlook.com,44044,16,3/11/2020 8:06:38 AM,Sent,1,
500008294,13406,4499,emma-haskell@outlook.com,44044,16,3/11/2020 8:16:37 AM,Sent,1,
500008294,13410,4499,emma-haskell@outlook.com,44044,16,3/11/2020 8:55:34 AM,Sent,1,
500008294,13411,4499,emma-haskell@outlook.com,44044,16,3/11/2020 9:04:35 AM,Sent,1,
500008294,13412,4499,emma-haskell@outlook.com,44044,16,3/11/2020 9:12:37 AM,Sent,1,
500008294,13070,4499,emma-haskell@outlook.com,44044,16,3/6/2020 7:55:38 AM,Sent,1,
500008294,13071,4499,emma-haskell@outlook.com,44044,16,3/6/2020 8:09:34 AM,Sent,1,
500008294,13072,4499,emma-haskell@outlook.com,44044,16,3/6/2020 8:35:34 AM,Sent,1,
500008294,13073,4499,emma-haskell@outlook.com,44044,16,3/6/2020 9:10:37 AM,Sent,1,
500008294,13265,4499,emma-haskell@outlook.com,44044,16,3/10/2020 11:26:34 AM,Sent,1,
500008294,13403,4499,emma-haskell@outlook.com,44044,16,3/11/2020 7:51:35 AM,Sent,1,
500008294,12907,4499,emma-haskell@outlook.com,44044,185,3/3/2020 4:48:37 AM,Sent,6,
500008294,12913,4499,emma-haskell@outlook.com,44044,16,3/3/2020 9:27:40 AM,Sent,1,
500008294,12914,4499,emma-haskell@outlook.com,44044,16,3/3/2020 9:33:34 AM,Sent,1,
500008294,12915,4499,emma-haskell@outlook.com,44044,16,3/3/2020 9:49:39 AM,Sent,1,
500008294,12916,4499,emma-haskell@outlook.com,44044,16,3/3/2020 10:00:39 AM,Sent,1,
500008294,12917,4499,emma-haskell@outlook.com,44044,16,3/3/2020 10:09:37 AM,Sent,1,
500008294,12640,4499,emma-haskell@outlook.com,44044,16,2/27/2020 6:45:35 AM,Sent,1,
500008294,12641,4499,emma-haskell@outlook.com,44044,16,2/27/2020 6:54:37 AM,Sent,1,
500008294,12642,4499,emma-haskell@outlook.com,44044,16,2/27/2020 6:55:34 AM,Sent,1,
500008294,12868,4499,emma-haskell@outlook.com,44044,16,3/2/2020 5:01:36 AM,Sent,1,
500008294,12871,4499,emma-haskell@outlook.com,44044,16,3/2/2020 6:47:35 AM,Sent,1,
500008294,12872,4499,emma-haskell@outlook.com,44044,16,3/2/2020 8:51:35 AM,Sent,1,
500008294,12631,4499,emma-haskell@outlook.com,44044,16,2/27/2020 5:52:34 AM,Sent,1,
500008294,12632,4499,emma-haskell@outlook.com,44044,16,2/27/2020 5:55:34 AM,Sent,1,
500008294,12634,4499,emma-haskell@outlook.com,44044,16,2/27/2020 5:58:36 AM,Sent,1,
500008294,12636,4499,emma-haskell@outlook.com,44044,16,2/27/2020 6:01:34 AM,Sent,1,
500008294,12637,4499,emma-haskell@outlook.com,44044,16,2/27/2020 6:03:35 AM,Sent,1,
500008294,12638,4499,emma-haskell@outlook.com,44044,16,2/27/2020 6:34:34 AM,Sent,1,
500008294,12611,5675,emma.deangelis@visiondirect.co.uk,44045,16,2/27/2020 3:59:36 AM,Sent,1,
500008294,12613,5675,emma.deangelis@visiondirect.co.uk,44045,16,2/27/2020 4:21:34 AM,Sent,1,
500008294,12626,5675,emma.deangelis@visiondirect.co.uk,44045,16,2/27/2020 5:32:34 AM,Sent,1,
500008294,12627,5675,emma.deangelis@visiondirect.co.uk,44045,16,2/27/2020 5:42:35 AM,Sent,1,
500008294,12628,5675,emma.deangelis@visiondirect.co.uk,44045,16,2/27/2020 5:46:36 AM,Sent,1,
500008294,12630,5675,emma.deangelis@visiondirect.co.uk,44045,16,2/27/2020 5:49:34 AM,Sent,1,
500008294,13783,5675,emma.deangelis@visiondirect.co.uk,44045,16,3/18/2020 8:23:34 AM,Sent,1,
500008294,14244,5675,emma.deangelis@visiondirect.co.uk,44045,16,3/23/2020 8:30:35 AM,Sent,1,
500008294,14246,5675,emma.deangelis@visiondirect.co.uk,44045,16,3/23/2020 9:18:36 AM,Sent,1,
500008294,14247,5675,emma.deangelis@visiondirect.co.uk,44045,185,3/23/2020 9:21:39 AM,Sent,2,
500008294,14260,5675,emma.deangelis@visiondirect.co.uk,44045,16,3/24/2020 7:55:36 AM,Sent,1,
500008294,14261,5675,emma.deangelis@visiondirect.co.uk,44045,16,3/24/2020 8:18:37 AM,Sent,1,
500008294,13743,5675,emma.deangelis@visiondirect.co.uk,44045,16,3/17/2020 11:34:37 AM,Sent,1,
500008294,13777,5675,emma.deangelis@visiondirect.co.uk,44045,185,3/18/2020 3:59:36 AM,Sent,2,
500008294,13779,5675,emma.deangelis@visiondirect.co.uk,44045,16,3/18/2020 7:57:34 AM,Sent,1,
500008294,13780,5675,emma.deangelis@visiondirect.co.uk,44045,16,3/18/2020 7:57:34 AM,Sent,1,
500008294,13781,5675,emma.deangelis@visiondirect.co.uk,44045,16,3/18/2020 8:03:37 AM,Sent,1,
500008294,13782,5675,emma.deangelis@visiondirect.co.uk,44045,16,3/18/2020 8:20:34 AM,Sent,1,
500008294,13734,5675,emma.deangelis@visiondirect.co.uk,44045,16,3/17/2020 7:58:39 AM,Sent,1,
500008294,13735,5675,emma.deangelis@visiondirect.co.uk,44045,16,3/17/2020 8:05:35 AM,Sent,1,
500008294,13739,5675,emma.deangelis@visiondirect.co.uk,44045,16,3/17/2020 8:25:34 AM,Sent,1,
500008294,13740,5675,emma.deangelis@visiondirect.co.uk,44045,16,3/17/2020 8:45:34 AM,Sent,1,
500008294,13741,5675,emma.deangelis@visiondirect.co.uk,44045,16,3/17/2020 9:25:38 AM,Sent,1,
500008294,13742,5675,emma.deangelis@visiondirect.co.uk,44045,16,3/17/2020 9:51:35 AM,Sent,1,
500008294,13417,5675,emma.deangelis@visiondirect.co.uk,44045,16,3/11/2020 9:58:34 AM,Sent,1,
500008294,13482,5675,emma.deangelis@visiondirect.co.uk,44045,16,3/12/2020 5:45:35 AM,Sent,1,
500008294,13594,5675,emma.deangelis@visiondirect.co.uk,44045,16,3/16/2020 6:08:34 AM,Sent,1,
500008294,13604,5675,emma.deangelis@visiondirect.co.uk,44045,16,3/16/2020 9:06:34 AM,Sent,1,
500008294,13611,5675,emma.deangelis@visiondirect.co.uk,44045,16,3/16/2020 10:54:34 AM,Sent,1,
500008294,13731,5675,emma.deangelis@visiondirect.co.uk,44045,16,3/17/2020 7:49:34 AM,Sent,1,
500008294,13405,5675,emma.deangelis@visiondirect.co.uk,44045,16,3/11/2020 8:06:38 AM,Sent,1,
500008294,13406,5675,emma.deangelis@visiondirect.co.uk,44045,16,3/11/2020 8:16:37 AM,Sent,1,
500008294,13410,5675,emma.deangelis@visiondirect.co.uk,44045,16,3/11/2020 8:55:34 AM,Sent,1,
500008294,13411,5675,emma.deangelis@visiondirect.co.uk,44045,16,3/11/2020 9:04:35 AM,Sent,1,
500008294,13412,5675,emma.deangelis@visiondirect.co.uk,44045,16,3/11/2020 9:12:37 AM,Sent,1,
500008294,13413,5675,emma.deangelis@visiondirect.co.uk,44045,16,3/11/2020 9:44:35 AM,Sent,1,
500008294,13071,5675,emma.deangelis@visiondirect.co.uk,44045,16,3/6/2020 8:09:34 AM,Sent,1,
500008294,13072,5675,emma.deangelis@visiondirect.co.uk,44045,16,3/6/2020 8:35:34 AM,Sent,1,
500008294,13073,5675,emma.deangelis@visiondirect.co.uk,44045,16,3/6/2020 9:10:37 AM,Sent,1,
500008294,13265,5675,emma.deangelis@visiondirect.co.uk,44045,16,3/10/2020 11:26:34 AM,Sent,1,
500008294,13403,5675,emma.deangelis@visiondirect.co.uk,44045,16,3/11/2020 7:51:35 AM,Sent,1,
500008294,13404,5675,emma.deangelis@visiondirect.co.uk,44045,16,3/11/2020 7:56:34 AM,Sent,1,
500008294,12913,5675,emma.deangelis@visiondirect.co.uk,44045,16,3/3/2020 9:27:40 AM,Sent,1,
500008294,12914,5675,emma.deangelis@visiondirect.co.uk,44045,16,3/3/2020 9:33:34 AM,Sent,1,
500008294,12915,5675,emma.deangelis@visiondirect.co.uk,44045,16,3/3/2020 9:49:39 AM,Sent,1,
500008294,12916,5675,emma.deangelis@visiondirect.co.uk,44045,16,3/3/2020 10:00:39 AM,Sent,1,
500008294,12917,5675,emma.deangelis@visiondirect.co.uk,44045,16,3/3/2020 10:09:37 AM,Sent,1,
500008294,13070,5675,emma.deangelis@visiondirect.co.uk,44045,16,3/6/2020 7:55:38 AM,Sent,1,
500008294,12640,5675,emma.deangelis@visiondirect.co.uk,44045,16,2/27/2020 6:45:35 AM,Sent,1,
500008294,12641,5675,emma.deangelis@visiondirect.co.uk,44045,16,2/27/2020 6:54:37 AM,Sent,1,
500008294,12642,5675,emma.deangelis@visiondirect.co.uk,44045,16,2/27/2020 6:55:34 AM,Sent,1,
500008294,12868,5675,emma.deangelis@visiondirect.co.uk,44045,16,3/2/2020 5:01:36 AM,Sent,1,
500008294,12871,5675,emma.deangelis@visiondirect.co.uk,44045,16,3/2/2020 6:47:35 AM,Sent,1,
500008294,12872,5675,emma.deangelis@visiondirect.co.uk,44045,16,3/2/2020 8:51:35 AM,Sent,1,
500008294,12631,5675,emma.deangelis@visiondirect.co.uk,44045,16,2/27/2020 5:52:34 AM,Sent,1,
500008294,12632,5675,emma.deangelis@visiondirect.co.uk,44045,16,2/27/2020 5:55:34 AM,Sent,1,
500008294,12634,5675,emma.deangelis@visiondirect.co.uk,44045,16,2/27/2020 5:58:36 AM,Sent,1,
500008294,12636,5675,emma.deangelis@visiondirect.co.uk,44045,16,2/27/2020 6:01:34 AM,Sent,1,
500008294,12637,5675,emma.deangelis@visiondirect.co.uk,44045,16,2/27/2020 6:03:35 AM,Sent,1,
500008294,12638,5675,emma.deangelis@visiondirect.co.uk,44045,16,2/27/2020 6:34:34 AM,Sent,1,
500008294,12611,7812,emmahaskell87@yahoo.com,44046,16,2/27/2020 3:59:36 AM,Sent,1,
500008294,12613,7812,emmahaskell87@yahoo.com,44046,16,2/27/2020 4:21:34 AM,Sent,1,
500008294,12626,7812,emmahaskell87@yahoo.com,44046,16,2/27/2020 5:32:34 AM,Sent,1,
500008294,12627,7812,emmahaskell87@yahoo.com,44046,16,2/27/2020 5:42:35 AM,Sent,1,
500008294,12628,7812,emmahaskell87@yahoo.com,44046,16,2/27/2020 5:46:36 AM,Sent,1,
500008294,12630,7812,emmahaskell87@yahoo.com,44046,16,2/27/2020 5:49:34 AM,Sent,1,
500008294,14261,7812,emmahaskell87@yahoo.com,44046,16,3/24/2020 8:18:37 AM,Sent,1,
500008294,13782,7812,emmahaskell87@yahoo.com,44046,16,3/18/2020 8:20:34 AM,Sent,1,
500008294,13783,7812,emmahaskell87@yahoo.com,44046,16,3/18/2020 8:23:34 AM,Sent,1,
500008294,14244,7812,emmahaskell87@yahoo.com,44046,16,3/23/2020 8:30:35 AM,Sent,1,
500008294,14246,7812,emmahaskell87@yahoo.com,44046,16,3/23/2020 9:18:36 AM,Sent,1,
500008294,14247,7812,emmahaskell87@yahoo.com,44046,185,3/23/2020 9:21:39 AM,Sent,2,
500008294,14260,7812,emmahaskell87@yahoo.com,44046,16,3/24/2020 7:55:36 AM,Sent,1,
500008294,13742,7812,emmahaskell87@yahoo.com,44046,16,3/17/2020 9:51:35 AM,Sent,1,
500008294,13743,7812,emmahaskell87@yahoo.com,44046,16,3/17/2020 11:34:37 AM,Sent,1,
500008294,13777,7812,emmahaskell87@yahoo.com,44046,185,3/18/2020 3:59:36 AM,Sent,2,
500008294,13779,7812,emmahaskell87@yahoo.com,44046,16,3/18/2020 7:57:34 AM,Sent,1,
500008294,13780,7812,emmahaskell87@yahoo.com,44046,16,3/18/2020 7:57:34 AM,Sent,1,
500008294,13781,7812,emmahaskell87@yahoo.com,44046,16,3/18/2020 8:03:37 AM,Sent,1,
500008294,13731,7812,emmahaskell87@yahoo.com,44046,16,3/17/2020 7:49:34 AM,Sent,1,
500008294,13734,7812,emmahaskell87@yahoo.com,44046,16,3/17/2020 7:58:39 AM,Sent,1,
500008294,13735,7812,emmahaskell87@yahoo.com,44046,16,3/17/2020 8:05:35 AM,Sent,1,
500008294,13739,7812,emmahaskell87@yahoo.com,44046,16,3/17/2020 8:25:34 AM,Sent,1,
500008294,13740,7812,emmahaskell87@yahoo.com,44046,16,3/17/2020 8:45:34 AM,Sent,1,
500008294,13741,7812,emmahaskell87@yahoo.com,44046,16,3/17/2020 9:25:38 AM,Sent,1,
500008294,13413,7812,emmahaskell87@yahoo.com,44046,16,3/11/2020 9:44:35 AM,Sent,1,
500008294,13417,7812,emmahaskell87@yahoo.com,44046,16,3/11/2020 9:58:34 AM,Sent,1,
500008294,13482,7812,emmahaskell87@yahoo.com,44046,16,3/12/2020 5:45:35 AM,Sent,1,
500008294,13594,7812,emmahaskell87@yahoo.com,44046,16,3/16/2020 6:08:34 AM,Sent,1,
500008294,13604,7812,emmahaskell87@yahoo.com,44046,16,3/16/2020 9:06:34 AM,Sent,1,
500008294,13611,7812,emmahaskell87@yahoo.com,44046,16,3/16/2020 10:54:34 AM,Sent,1,
500008294,13404,7812,emmahaskell87@yahoo.com,44046,16,3/11/2020 7:56:34 AM,Sent,1,
500008294,13405,7812,emmahaskell87@yahoo.com,44046,16,3/11/2020 8:06:38 AM,Sent,1,
500008294,13406,7812,emmahaskell87@yahoo.com,44046,16,3/11/2020 8:16:37 AM,Sent,1,
500008294,13410,7812,emmahaskell87@yahoo.com,44046,16,3/11/2020 8:55:34 AM,Sent,1,
500008294,13411,7812,emmahaskell87@yahoo.com,44046,16,3/11/2020 9:04:35 AM,Sent,1,
500008294,13412,7812,emmahaskell87@yahoo.com,44046,16,3/11/2020 9:12:37 AM,Sent,1,
500008294,13070,7812,emmahaskell87@yahoo.com,44046,16,3/6/2020 7:55:38 AM,Sent,1,
500008294,13071,7812,emmahaskell87@yahoo.com,44046,16,3/6/2020 8:09:34 AM,Sent,1,
500008294,13072,7812,emmahaskell87@yahoo.com,44046,16,3/6/2020 8:35:34 AM,Sent,1,
500008294,13073,7812,emmahaskell87@yahoo.com,44046,16,3/6/2020 9:10:37 AM,Sent,1,
500008294,13265,7812,emmahaskell87@yahoo.com,44046,16,3/10/2020 11:26:34 AM,Sent,1,
500008294,13403,7812,emmahaskell87@yahoo.com,44046,16,3/11/2020 7:51:35 AM,Sent,1,
500008294,12907,7812,emmahaskell87@yahoo.com,44046,185,3/3/2020 4:48:37 AM,Sent,6,
500008294,12913,7812,emmahaskell87@yahoo.com,44046,16,3/3/2020 9:27:40 AM,Sent,1,
500008294,12914,7812,emmahaskell87@yahoo.com,44046,16,3/3/2020 9:33:34 AM,Sent,1,
500008294,12915,7812,emmahaskell87@yahoo.com,44046,16,3/3/2020 9:49:39 AM,Sent,1,
500008294,12916,7812,emmahaskell87@yahoo.com,44046,16,3/3/2020 10:00:39 AM,Sent,1,
500008294,12917,7812,emmahaskell87@yahoo.com,44046,16,3/3/2020 10:09:37 AM,Sent,1,
500008294,12640,7812,emmahaskell87@yahoo.com,44046,16,2/27/2020 6:45:35 AM,Sent,1,
500008294,12641,7812,emmahaskell87@yahoo.com,44046,16,2/27/2020 6:54:37 AM,Sent,1,
500008294,12642,7812,emmahaskell87@yahoo.com,44046,16,2/27/2020 6:55:34 AM,Sent,1,
500008294,12868,7812,emmahaskell87@yahoo.com,44046,16,3/2/2020 5:01:36 AM,Sent,1,
500008294,12871,7812,emmahaskell87@yahoo.com,44046,16,3/2/2020 6:47:35 AM,Sent,1,
500008294,12872,7812,emmahaskell87@yahoo.com,44046,16,3/2/2020 8:51:35 AM,Sent,1,
500008294,12631,7812,emmahaskell87@yahoo.com,44046,16,2/27/2020 5:52:34 AM,Sent,1,
500008294,12632,7812,emmahaskell87@yahoo.com,44046,16,2/27/2020 5:55:34 AM,Sent,1,
500008294,12634,7812,emmahaskell87@yahoo.com,44046,16,2/27/2020 5:58:36 AM,Sent,1,
500008294,12636,7812,emmahaskell87@yahoo.com,44046,16,2/27/2020 6:01:34 AM,Sent,1,
500008294,12637,7812,emmahaskell87@yahoo.com,44046,16,2/27/2020 6:03:35 AM,Sent,1,
500008294,12638,7812,emmahaskell87@yahoo.com,44046,16,2/27/2020 6:34:34 AM,Sent,1,
500008294,12611,7896,emma-deangelis@outlook.com,44047,16,2/27/2020 3:59:36 AM,Sent,1,
500008294,12613,7896,emma-deangelis@outlook.com,44047,16,2/27/2020 4:21:34 AM,Sent,1,
500008294,12626,7896,emma-deangelis@outlook.com,44047,16,2/27/2020 5:32:34 AM,Sent,1,
500008294,12627,7896,emma-deangelis@outlook.com,44047,16,2/27/2020 5:42:35 AM,Sent,1,
500008294,12628,7896,emma-deangelis@outlook.com,44047,16,2/27/2020 5:46:36 AM,Sent,1,
500008294,12630,7896,emma-deangelis@outlook.com,44047,16,2/27/2020 5:49:34 AM,Sent,1,
500008294,14261,7896,emma-deangelis@outlook.com,44047,16,3/24/2020 8:18:37 AM,Sent,1,
500008294,13782,7896,emma-deangelis@outlook.com,44047,16,3/18/2020 8:20:34 AM,Sent,1,
500008294,13783,7896,emma-deangelis@outlook.com,44047,16,3/18/2020 8:23:34 AM,Sent,1,
500008294,14244,7896,emma-deangelis@outlook.com,44047,16,3/23/2020 8:30:35 AM,Sent,1,
500008294,14246,7896,emma-deangelis@outlook.com,44047,16,3/23/2020 9:18:36 AM,Sent,1,
500008294,14247,7896,emma-deangelis@outlook.com,44047,185,3/23/2020 9:21:39 AM,Sent,2,
500008294,14260,7896,emma-deangelis@outlook.com,44047,16,3/24/2020 7:55:36 AM,Sent,1,
500008294,13742,7896,emma-deangelis@outlook.com,44047,16,3/17/2020 9:51:35 AM,Sent,1,
500008294,13743,7896,emma-deangelis@outlook.com,44047,16,3/17/2020 11:34:37 AM,Sent,1,
500008294,13777,7896,emma-deangelis@outlook.com,44047,185,3/18/2020 3:59:36 AM,Sent,2,
500008294,13779,7896,emma-deangelis@outlook.com,44047,16,3/18/2020 7:57:34 AM,Sent,1,
500008294,13780,7896,emma-deangelis@outlook.com,44047,16,3/18/2020 7:57:34 AM,Sent,1,
500008294,13781,7896,emma-deangelis@outlook.com,44047,16,3/18/2020 8:03:37 AM,Sent,1,
500008294,13731,7896,emma-deangelis@outlook.com,44047,16,3/17/2020 7:49:34 AM,Sent,1,
500008294,13734,7896,emma-deangelis@outlook.com,44047,16,3/17/2020 7:58:39 AM,Sent,1,
500008294,13735,7896,emma-deangelis@outlook.com,44047,16,3/17/2020 8:05:35 AM,Sent,1,
500008294,13739,7896,emma-deangelis@outlook.com,44047,16,3/17/2020 8:25:34 AM,Sent,1,
500008294,13740,7896,emma-deangelis@outlook.com,44047,16,3/17/2020 8:45:34 AM,Sent,1,
500008294,13741,7896,emma-deangelis@outlook.com,44047,16,3/17/2020 9:25:38 AM,Sent,1,
500008294,13413,7896,emma-deangelis@outlook.com,44047,16,3/11/2020 9:44:35 AM,Sent,1,
500008294,13417,7896,emma-deangelis@outlook.com,44047,16,3/11/2020 9:58:34 AM,Sent,1,
500008294,13482,7896,emma-deangelis@outlook.com,44047,16,3/12/2020 5:45:35 AM,Sent,1,
500008294,13594,7896,emma-deangelis@outlook.com,44047,16,3/16/2020 6:08:34 AM,Sent,1,
500008294,13604,7896,emma-deangelis@outlook.com,44047,16,3/16/2020 9:06:34 AM,Sent,1,
500008294,13611,7896,emma-deangelis@outlook.com,44047,16,3/16/2020 10:54:34 AM,Sent,1,
500008294,13404,7896,emma-deangelis@outlook.com,44047,16,3/11/2020 7:56:34 AM,Sent,1,
500008294,13405,7896,emma-deangelis@outlook.com,44047,16,3/11/2020 8:06:38 AM,Sent,1,
500008294,13406,7896,emma-deangelis@outlook.com,44047,16,3/11/2020 8:16:37 AM,Sent,1,
500008294,13410,7896,emma-deangelis@outlook.com,44047,16,3/11/2020 8:55:34 AM,Sent,1,
500008294,13411,7896,emma-deangelis@outlook.com,44047,16,3/11/2020 9:04:35 AM,Sent,1,
500008294,13412,7896,emma-deangelis@outlook.com,44047,16,3/11/2020 9:12:37 AM,Sent,1,
500008294,13070,7896,emma-deangelis@outlook.com,44047,16,3/6/2020 7:55:38 AM,Sent,1,
500008294,13071,7896,emma-deangelis@outlook.com,44047,16,3/6/2020 8:09:34 AM,Sent,1,
500008294,13072,7896,emma-deangelis@outlook.com,44047,16,3/6/2020 8:35:34 AM,Sent,1,
500008294,13073,7896,emma-deangelis@outlook.com,44047,16,3/6/2020 9:10:37 AM,Sent,1,
500008294,13265,7896,emma-deangelis@outlook.com,44047,16,3/10/2020 11:26:34 AM,Sent,1,
500008294,13403,7896,emma-deangelis@outlook.com,44047,16,3/11/2020 7:51:35 AM,Sent,1,
500008294,12907,7896,emma-deangelis@outlook.com,44047,185,3/3/2020 4:48:37 AM,Sent,6,
500008294,12913,7896,emma-deangelis@outlook.com,44047,16,3/3/2020 9:27:40 AM,Sent,1,
500008294,12914,7896,emma-deangelis@outlook.com,44047,16,3/3/2020 9:33:34 AM,Sent,1,
500008294,12915,7896,emma-deangelis@outlook.com,44047,16,3/3/2020 9:49:39 AM,Sent,1,
500008294,12916,7896,emma-deangelis@outlook.com,44047,16,3/3/2020 10:00:39 AM,Sent,1,
500008294,12917,7896,emma-deangelis@outlook.com,44047,16,3/3/2020 10:09:37 AM,Sent,1,
500008294,12640,7896,emma-deangelis@outlook.com,44047,16,2/27/2020 6:45:35 AM,Sent,1,
500008294,12641,7896,emma-deangelis@outlook.com,44047,16,2/27/2020 6:54:37 AM,Sent,1,
500008294,12642,7896,emma-deangelis@outlook.com,44047,16,2/27/2020 6:55:34 AM,Sent,1,
500008294,12868,7896,emma-deangelis@outlook.com,44047,16,3/2/2020 5:01:36 AM,Sent,1,
500008294,12871,7896,emma-deangelis@outlook.com,44047,16,3/2/2020 6:47:35 AM,Sent,1,
500008294,12872,7896,emma-deangelis@outlook.com,44047,16,3/2/2020 8:51:35 AM,Sent,1,
500008294,12631,7896,emma-deangelis@outlook.com,44047,16,2/27/2020 5:52:34 AM,Sent,1,
500008294,12632,7896,emma-deangelis@outlook.com,44047,16,2/27/2020 5:55:34 AM,Sent,1,
500008294,12634,7896,emma-deangelis@outlook.com,44047,16,2/27/2020 5:58:36 AM,Sent,1,
500008294,12636,7896,emma-deangelis@outlook.com,44047,16,2/27/2020 6:01:34 AM,Sent,1,
500008294,12637,7896,emma-deangelis@outlook.com,44047,16,2/27/2020 6:03:35 AM,Sent,1,
500008294,12638,7896,emma-deangelis@outlook.com,44047,16,2/27/2020 6:34:34 AM,Sent,1,
500008294,12611,9872,criticalflicks@gmail.com,44048,16,2/27/2020 3:59:36 AM,Sent,1,
500008294,12613,9872,criticalflicks@gmail.com,44048,16,2/27/2020 4:21:34 AM,Sent,1,
500008294,12626,9872,criticalflicks@gmail.com,44048,16,2/27/2020 5:32:34 AM,Sent,1,
500008294,12627,9872,criticalflicks@gmail.com,44048,16,2/27/2020 5:42:35 AM,Sent,1,
500008294,12628,9872,criticalflicks@gmail.com,44048,16,2/27/2020 5:46:36 AM,Sent,1,
500008294,12630,9872,criticalflicks@gmail.com,44048,16,2/27/2020 5:49:34 AM,Sent,1,
500008294,14246,9872,criticalflicks@gmail.com,44048,16,3/23/2020 9:18:36 AM,Sent,1,
500008294,14247,9872,criticalflicks@gmail.com,44048,185,3/23/2020 9:21:39 AM,Sent,2,
500008294,13413,9872,criticalflicks@gmail.com,44048,16,3/11/2020 9:44:35 AM,Sent,1,
500008294,13417,9872,criticalflicks@gmail.com,44048,16,3/11/2020 9:58:34 AM,Sent,1,
500008294,13780,9872,criticalflicks@gmail.com,44048,16,3/18/2020 7:57:34 AM,Sent,1,
500008294,13781,9872,criticalflicks@gmail.com,44048,16,3/18/2020 8:03:37 AM,Sent,1,
500008294,13782,9872,criticalflicks@gmail.com,44048,16,3/18/2020 8:20:34 AM,Sent,1,
500008294,13783,9872,criticalflicks@gmail.com,44048,16,3/18/2020 8:23:34 AM,Sent,1,
500008294,13404,9872,criticalflicks@gmail.com,44048,16,3/11/2020 7:56:34 AM,Sent,1,
500008294,13405,9872,criticalflicks@gmail.com,44048,16,3/11/2020 8:06:38 AM,Sent,1,
500008294,13406,9872,criticalflicks@gmail.com,44048,16,3/11/2020 8:16:37 AM,Sent,1,
500008294,13410,9872,criticalflicks@gmail.com,44048,16,3/11/2020 8:55:34 AM,Sent,1,
500008294,13411,9872,criticalflicks@gmail.com,44048,16,3/11/2020 9:04:35 AM,Sent,1,
500008294,13412,9872,criticalflicks@gmail.com,44048,16,3/11/2020 9:12:37 AM,Sent,1,
500008294,13070,9872,criticalflicks@gmail.com,44048,16,3/6/2020 7:55:38 AM,Sent,1,
500008294,13071,9872,criticalflicks@gmail.com,44048,16,3/6/2020 8:09:34 AM,Sent,1,
500008294,13072,9872,criticalflicks@gmail.com,44048,16,3/6/2020 8:35:34 AM,Sent,1,
500008294,13073,9872,criticalflicks@gmail.com,44048,16,3/6/2020 9:10:37 AM,Sent,1,
500008294,13265,9872,criticalflicks@gmail.com,44048,16,3/10/2020 11:26:34 AM,Sent,1,
500008294,13403,9872,criticalflicks@gmail.com,44048,16,3/11/2020 7:51:35 AM,Sent,1,
500008294,12907,9872,criticalflicks@gmail.com,44048,185,3/3/2020 4:48:37 AM,Sent,6,
500008294,12913,9872,criticalflicks@gmail.com,44048,16,3/3/2020 9:27:40 AM,Sent,1,
500008294,12914,9872,criticalflicks@gmail.com,44048,16,3/3/2020 9:33:34 AM,Sent,1,
500008294,12915,9872,criticalflicks@gmail.com,44048,16,3/3/2020 9:49:39 AM,Sent,1,
500008294,12916,9872,criticalflicks@gmail.com,44048,16,3/3/2020 10:00:39 AM,Sent,1,
500008294,12917,9872,criticalflicks@gmail.com,44048,16,3/3/2020 10:09:37 AM,Sent,1,
500008294,12640,9872,criticalflicks@gmail.com,44048,16,2/27/2020 6:45:35 AM,Sent,1,
500008294,12641,9872,criticalflicks@gmail.com,44048,16,2/27/2020 6:54:37 AM,Sent,1,
500008294,12642,9872,criticalflicks@gmail.com,44048,16,2/27/2020 6:55:34 AM,Sent,1,
500008294,12868,9872,criticalflicks@gmail.com,44048,16,3/2/2020 5:01:36 AM,Sent,1,
500008294,12871,9872,criticalflicks@gmail.com,44048,16,3/2/2020 6:47:35 AM,Sent,1,
500008294,12872,9872,criticalflicks@gmail.com,44048,16,3/2/2020 8:51:35 AM,Sent,1,
500008294,12631,9872,criticalflicks@gmail.com,44048,16,2/27/2020 5:52:34 AM,Sent,1,
500008294,12632,9872,criticalflicks@gmail.com,44048,16,2/27/2020 5:55:34 AM,Sent,1,
500008294,12634,9872,criticalflicks@gmail.com,44048,16,2/27/2020 5:58:36 AM,Sent,1,
500008294,12636,9872,criticalflicks@gmail.com,44048,16,2/27/2020 6:01:34 AM,Sent,1,
500008294,12637,9872,criticalflicks@gmail.com,44048,16,2/27/2020 6:03:35 AM,Sent,1,
500008294,12638,9872,criticalflicks@gmail.com,44048,16,2/27/2020 6:34:34 AM,Sent,1,
500008294,12613,8743,emmahaskell87@gmail.com,44050,16,2/27/2020 4:21:34 AM,Sent,1,
500008294,12626,8743,emmahaskell87@gmail.com,44050,16,2/27/2020 5:32:34 AM,Sent,1,
500008294,12627,8743,emmahaskell87@gmail.com,44050,16,2/27/2020 5:42:35 AM,Sent,1,
500008294,12628,8743,emmahaskell87@gmail.com,44050,16,2/27/2020 5:46:36 AM,Sent,1,
500008294,12630,8743,emmahaskell87@gmail.com,44050,16,2/27/2020 5:49:34 AM,Sent,1,
500008294,12631,8743,emmahaskell87@gmail.com,44050,16,2/27/2020 5:52:34 AM,Sent,1,
500008294,13783,8743,emmahaskell87@gmail.com,44050,16,3/18/2020 8:23:34 AM,Sent,1,
500008294,14244,8743,emmahaskell87@gmail.com,44050,16,3/23/2020 8:30:35 AM,Sent,1,
500008294,14246,8743,emmahaskell87@gmail.com,44050,16,3/23/2020 9:18:36 AM,Sent,1,
500008294,14247,8743,emmahaskell87@gmail.com,44050,185,3/23/2020 9:21:39 AM,Sent,2,
500008294,14260,8743,emmahaskell87@gmail.com,44050,16,3/24/2020 7:55:36 AM,Sent,1,
500008294,14261,8743,emmahaskell87@gmail.com,44050,16,3/24/2020 8:18:37 AM,Sent,1,
500008294,13743,8743,emmahaskell87@gmail.com,44050,16,3/17/2020 11:34:37 AM,Sent,1,
500008294,13777,8743,emmahaskell87@gmail.com,44050,185,3/18/2020 3:59:36 AM,Sent,2,
500008294,13779,8743,emmahaskell87@gmail.com,44050,16,3/18/2020 7:57:34 AM,Sent,1,
500008294,13780,8743,emmahaskell87@gmail.com,44050,16,3/18/2020 7:57:34 AM,Sent,1,
500008294,13781,8743,emmahaskell87@gmail.com,44050,16,3/18/2020 8:03:37 AM,Sent,1,
500008294,13782,8743,emmahaskell87@gmail.com,44050,16,3/18/2020 8:20:34 AM,Sent,1,
500008294,13734,8743,emmahaskell87@gmail.com,44050,16,3/17/2020 7:58:39 AM,Sent,1,
500008294,13735,8743,emmahaskell87@gmail.com,44050,16,3/17/2020 8:05:35 AM,Sent,1,
500008294,13739,8743,emmahaskell87@gmail.com,44050,16,3/17/2020 8:25:34 AM,Sent,1,
500008294,13740,8743,emmahaskell87@gmail.com,44050,16,3/17/2020 8:45:34 AM,Sent,1,
500008294,13741,8743,emmahaskell87@gmail.com,44050,16,3/17/2020 9:25:38 AM,Sent,1,
500008294,13742,8743,emmahaskell87@gmail.com,44050,16,3/17/2020 9:51:35 AM,Sent,1,
500008294,13417,8743,emmahaskell87@gmail.com,44050,16,3/11/2020 9:58:34 AM,Sent,1,
500008294,13482,8743,emmahaskell87@gmail.com,44050,16,3/12/2020 5:45:35 AM,Sent,1,
500008294,13594,8743,emmahaskell87@gmail.com,44050,16,3/16/2020 6:08:34 AM,Sent,1,
500008294,13604,8743,emmahaskell87@gmail.com,44050,16,3/16/2020 9:06:34 AM,Sent,1,
500008294,13611,8743,emmahaskell87@gmail.com,44050,16,3/16/2020 10:54:34 AM,Sent,1,
500008294,13731,8743,emmahaskell87@gmail.com,44050,16,3/17/2020 7:49:34 AM,Sent,1,
500008294,13405,8743,emmahaskell87@gmail.com,44050,16,3/11/2020 8:06:38 AM,Sent,1,
500008294,13406,8743,emmahaskell87@gmail.com,44050,16,3/11/2020 8:16:37 AM,Sent,1,
500008294,13410,8743,emmahaskell87@gmail.com,44050,16,3/11/2020 8:55:34 AM,Sent,1,
500008294,13411,8743,emmahaskell87@gmail.com,44050,16,3/11/2020 9:04:35 AM,Sent,1,
500008294,13412,8743,emmahaskell87@gmail.com,44050,16,3/11/2020 9:12:37 AM,Sent,1,
500008294,13413,8743,emmahaskell87@gmail.com,44050,16,3/11/2020 9:44:35 AM,Sent,1,
500008294,13071,8743,emmahaskell87@gmail.com,44050,16,3/6/2020 8:09:34 AM,Sent,1,
500008294,13072,8743,emmahaskell87@gmail.com,44050,16,3/6/2020 8:35:34 AM,Sent,1,
500008294,13073,8743,emmahaskell87@gmail.com,44050,16,3/6/2020 9:10:37 AM,Sent,1,
500008294,13265,8743,emmahaskell87@gmail.com,44050,16,3/10/2020 11:26:34 AM,Sent,1,
500008294,13403,8743,emmahaskell87@gmail.com,44050,16,3/11/2020 7:51:35 AM,Sent,1,
500008294,13404,8743,emmahaskell87@gmail.com,44050,16,3/11/2020 7:56:34 AM,Sent,1,
500008294,12913,8743,emmahaskell87@gmail.com,44050,16,3/3/2020 9:27:40 AM,Sent,1,
500008294,12914,8743,emmahaskell87@gmail.com,44050,16,3/3/2020 9:33:34 AM,Sent,1,
500008294,12915,8743,emmahaskell87@gmail.com,44050,16,3/3/2020 9:49:39 AM,Sent,1,
500008294,12916,8743,emmahaskell87@gmail.com,44050,16,3/3/2020 10:00:39 AM,Sent,1,
500008294,12917,8743,emmahaskell87@gmail.com,44050,16,3/3/2020 10:09:37 AM,Sent,1,
500008294,13070,8743,emmahaskell87@gmail.com,44050,16,3/6/2020 7:55:38 AM,Sent,1,
500008294,12641,8743,emmahaskell87@gmail.com,44050,16,2/27/2020 6:54:37 AM,Sent,1,
500008294,12642,8743,emmahaskell87@gmail.com,44050,16,2/27/2020 6:55:34 AM,Sent,1,
500008294,12868,8743,emmahaskell87@gmail.com,44050,16,3/2/2020 5:01:36 AM,Sent,1,
500008294,12871,8743,emmahaskell87@gmail.com,44050,16,3/2/2020 6:47:35 AM,Sent,1,
500008294,12872,8743,emmahaskell87@gmail.com,44050,16,3/2/2020 8:51:35 AM,Sent,1,
500008294,12907,8743,emmahaskell87@gmail.com,44050,185,3/3/2020 4:48:37 AM,Sent,6,
500008294,12632,8743,emmahaskell87@gmail.com,44050,16,2/27/2020 5:55:34 AM,Sent,1,
500008294,12634,8743,emmahaskell87@gmail.com,44050,16,2/27/2020 5:58:36 AM,Sent,1,
500008294,12636,8743,emmahaskell87@gmail.com,44050,16,2/27/2020 6:01:34 AM,Sent,1,
500008294,12637,8743,emmahaskell87@gmail.com,44050,16,2/27/2020 6:03:35 AM,Sent,1,
500008294,12638,8743,emmahaskell87@gmail.com,44050,16,2/27/2020 6:34:34 AM,Sent,1,
500008294,12640,8743,emmahaskell87@gmail.com,44050,16,2/27/2020 6:45:35 AM,Sent,1,
500008294,12643,3344,emma.deangelis@visiondirect.co.uk,44062,16,2/27/2020 9:26:38 AM,Sent,1,
500008294,12873,3344,emma.deangelis@visiondirect.co.uk,44062,16,3/2/2020 9:00:36 AM,Sent,1,
500008294,12907,3344,emma.deangelis@visiondirect.co.uk,44062,16,3/3/2020 4:48:37 AM,Sent,1,
500008294,12946,3344,emma.deangelis@visiondirect.co.uk,44062,16,3/4/2020 4:18:34 AM,Sent,1,
500008294,12956,3344,emma.deangelis@visiondirect.co.uk,44062,16,3/4/2020 9:35:34 AM,Sent,1,
500008294,13176,3344,emma.deangelis@visiondirect.co.uk,44062,16,3/9/2020 8:49:35 AM,Sent,1,
500008294,13409,3344,emma.deangelis@visiondirect.co.uk,44062,16,3/11/2020 8:52:34 AM,Sent,1,
500008294,14190,3344,emma.deangelis@visiondirect.co.uk,44062,16,3/20/2020 7:43:34 AM,Sent,1,
500008294,14191,3344,emma.deangelis@visiondirect.co.uk,44062,16,3/20/2020 7:49:34 AM,Sent,1,
500008294,14257,3344,emma.deangelis@visiondirect.co.uk,44062,16,3/24/2020 6:17:34 AM,Sent,1,
500008294,14258,3344,emma.deangelis@visiondirect.co.uk,44062,16,3/24/2020 6:25:37 AM,Sent,1,
500008294,12912,0031l00000Yx8AcAAJ,emma-haskell@outlook.com,44172,16,3/3/2020 8:18:34 AM,Sent,1,
500008294,12912,0031l00000Yx8ArAAJ,christianappiah@live.co.uk,44173,16,3/3/2020 8:18:34 AM,Sent,1,
500008294,12946,0031l00000Yx8AwAAJ,tom.fletcher@visiondirect.co.uk,44174,16,3/4/2020 4:18:34 AM,Sent,1,
500008294,13176,0031l00000Yx8AwAAJ,tom.fletcher@visiondirect.co.uk,44174,16,3/9/2020 8:49:35 AM,Sent,1,
500008294,13409,0031l00000Yx8AwAAJ,tom.fletcher@visiondirect.co.uk,44174,16,3/11/2020 8:52:34 AM,Sent,1,
500008294,13777,0031l00000Yx8AwAAJ,tom.fletcher@visiondirect.co.uk,44174,186,3/18/2020 3:59:37 AM,Sent,3,
500008294,14190,0031l00000Yx8AwAAJ,tom.fletcher@visiondirect.co.uk,44174,16,3/20/2020 7:43:34 AM,Sent,1,
500008294,14191,0031l00000Yx8AwAAJ,tom.fletcher@visiondirect.co.uk,44174,16,3/20/2020 7:49:34 AM,Sent,1,
500008294,14257,0031l00000Yx8AwAAJ,tom.fletcher@visiondirect.co.uk,44174,16,3/24/2020 6:17:34 AM,Sent,1,
500008294,14258,0031l00000Yx8AwAAJ,tom.fletcher@visiondirect.co.uk,44174,16,3/24/2020 6:25:37 AM,Sent,1,
500008294,12677,1234mwrightet56789@gmail.com,1234mwrightet56789@gmail.com,44251,16,3/2/2020 12:08:35 AM,Sent,1,
500008294,12677,operations@etreputation.com,operations@etreputation.com,44252,16,3/2/2020 12:08:35 AM,Sent,1,
500008294,12678,operations@etreputation.com,operations@etreputation.com,44252,16,3/2/2020 12:24:34 AM,Sent,1,
500008294,13105,operations@etreputation.com,operations@etreputation.com,44252,16,3/9/2020 12:35:34 AM,Sent,1,
500008294,13199,operations@etreputation.com,operations@etreputation.com,44252,16,3/10/2020 1:00:35 AM,Sent,1,
500008294,13201,operations@etreputation.com,operations@etreputation.com,44252,16,3/10/2020 1:03:33 AM,Sent,1,
500008294,13203,operations@etreputation.com,operations@etreputation.com,44252,16,3/10/2020 1:07:34 AM,Sent,1,
500008294,13546,operations@etreputation.com,operations@etreputation.com,44252,16,3/13/2020 6:37:34 AM,Sent,1,
500008294,13547,operations@etreputation.com,operations@etreputation.com,44252,16,3/13/2020 6:39:34 AM,Sent,1,
500008294,13548,operations@etreputation.com,operations@etreputation.com,44252,16,3/13/2020 6:41:36 AM,Sent,1,
500008294,13540,operations@etreputation.com,operations@etreputation.com,44252,16,3/13/2020 6:17:34 AM,Sent,1,
500008294,13541,operations@etreputation.com,operations@etreputation.com,44252,16,3/13/2020 6:21:37 AM,Sent,1,
500008294,13542,operations@etreputation.com,operations@etreputation.com,44252,16,3/13/2020 6:25:35 AM,Sent,1,
500008294,13543,operations@etreputation.com,operations@etreputation.com,44252,16,3/13/2020 6:28:34 AM,Sent,1,
500008294,13544,operations@etreputation.com,operations@etreputation.com,44252,16,3/13/2020 6:31:38 AM,Sent,1,
500008294,13545,operations@etreputation.com,operations@etreputation.com,44252,16,3/13/2020 6:34:34 AM,Sent,1,
500008294,13487,operations@etreputation.com,operations@etreputation.com,44252,16,3/12/2020 11:35:34 AM,Sent,1,
500008294,13488,operations@etreputation.com,operations@etreputation.com,44252,16,3/12/2020 11:37:34 AM,Sent,1,
500008294,13489,operations@etreputation.com,operations@etreputation.com,44252,16,3/12/2020 11:41:35 AM,Sent,1,
500008294,13490,operations@etreputation.com,operations@etreputation.com,44252,16,3/12/2020 11:43:36 AM,Sent,1,
500008294,13491,operations@etreputation.com,operations@etreputation.com,44252,16,3/12/2020 11:45:38 AM,Sent,1,
500008294,13492,operations@etreputation.com,operations@etreputation.com,44252,16,3/12/2020 11:47:34 AM,Sent,1,
500008294,13252,operations@etreputation.com,operations@etreputation.com,44252,16,3/10/2020 6:27:34 AM,Sent,1,
500008294,13253,operations@etreputation.com,operations@etreputation.com,44252,16,3/10/2020 6:31:37 AM,Sent,1,
500008294,13254,operations@etreputation.com,operations@etreputation.com,44252,16,3/10/2020 6:34:34 AM,Sent,1,
500008294,13484,operations@etreputation.com,operations@etreputation.com,44252,16,3/12/2020 11:26:34 AM,Sent,1,
500008294,13485,operations@etreputation.com,operations@etreputation.com,44252,16,3/12/2020 11:30:35 AM,Sent,1,
500008294,13486,operations@etreputation.com,operations@etreputation.com,44252,16,3/12/2020 11:32:36 AM,Sent,1,
500008294,13215,operations@etreputation.com,operations@etreputation.com,44252,16,3/10/2020 1:19:33 AM,Sent,1,
500008294,13217,operations@etreputation.com,operations@etreputation.com,44252,16,3/10/2020 1:23:34 AM,Sent,1,
500008294,13219,operations@etreputation.com,operations@etreputation.com,44252,16,3/10/2020 1:36:34 AM,Sent,1,
500008294,13220,operations@etreputation.com,operations@etreputation.com,44252,16,3/10/2020 1:41:34 AM,Sent,1,
500008294,13221,operations@etreputation.com,operations@etreputation.com,44252,16,3/10/2020 1:44:34 AM,Sent,1,
500008294,13222,operations@etreputation.com,operations@etreputation.com,44252,16,3/10/2020 1:48:34 AM,Sent,1,
500008294,12946,8574,tfletcher45@gmail.com,44363,16,3/4/2020 4:18:34 AM,Sent,1,
500008294,12956,8574,tfletcher45@gmail.com,44363,16,3/4/2020 9:35:34 AM,Sent,1,
500008294,13176,8574,tfletcher45@gmail.com,44363,16,3/9/2020 8:49:35 AM,Sent,1,
500008294,13409,8574,tfletcher45@gmail.com,44363,16,3/11/2020 8:52:34 AM,Sent,1,
500008294,14190,8574,tfletcher45@gmail.com,44363,16,3/20/2020 7:43:34 AM,Sent,1,
500008294,14191,8574,tfletcher45@gmail.com,44363,16,3/20/2020 7:49:34 AM,Sent,1,
500008294,14257,8574,tfletcher45@gmail.com,44363,16,3/24/2020 6:17:34 AM,Sent,1,
500008294,14258,8574,tfletcher45@gmail.com,44363,16,3/24/2020 6:25:37 AM,Sent,1,
500008294,12946,9889,christian.appiah@icloud.com,44364,16,3/4/2020 4:18:34 AM,Sent,1,
500008294,12956,9889,christian.appiah@icloud.com,44364,16,3/4/2020 9:35:34 AM,Sent,1,
500008294,13176,9889,christian.appiah@icloud.com,44364,16,3/9/2020 8:49:35 AM,Sent,1,
500008294,13409,9889,christian.appiah@icloud.com,44364,16,3/11/2020 8:52:34 AM,Sent,1,
500008294,13777,9889,christian.appiah@icloud.com,44364,186,3/18/2020 3:59:37 AM,Sent,3,
500008294,14190,9889,christian.appiah@icloud.com,44364,16,3/20/2020 7:43:34 AM,Sent,1,
500008294,14191,9889,christian.appiah@icloud.com,44364,16,3/20/2020 7:49:34 AM,Sent,1,
500008294,14246,9889,christian.appiah@icloud.com,44364,186,3/23/2020 9:18:36 AM,Sent,3,
500008294,14247,9889,christian.appiah@icloud.com,44364,186,3/23/2020 9:21:40 AM,Sent,3,
500008294,14257,9889,christian.appiah@icloud.com,44364,16,3/24/2020 6:17:34 AM,Sent,1,
500008294,14258,9889,christian.appiah@icloud.com,44364,16,3/24/2020 6:25:37 AM,Sent,1,
500008294,12946,9989,emmahaskell87@yahoo.com,44365,16,3/4/2020 4:18:34 AM,Sent,1,
500008294,12956,9989,emmahaskell87@yahoo.com,44365,16,3/4/2020 9:35:34 AM,Sent,1,
500008294,13176,9989,emmahaskell87@yahoo.com,44365,16,3/9/2020 8:49:35 AM,Sent,1,
500008294,13409,9989,emmahaskell87@yahoo.com,44365,16,3/11/2020 8:52:34 AM,Sent,1,
500008294,14190,9989,emmahaskell87@yahoo.com,44365,16,3/20/2020 7:43:34 AM,Sent,1,
500008294,14191,9989,emmahaskell87@yahoo.com,44365,16,3/20/2020 7:49:34 AM,Sent,1,
500008294,14257,9989,emmahaskell87@yahoo.com,44365,16,3/24/2020 6:17:34 AM,Sent,1,
500008294,14258,9989,emmahaskell87@yahoo.com,44365,16,3/24/2020 6:25:37 AM,Sent,1,
500008294,13105,cscinfo@etreputation.com,cscinfo@etreputation.com,44493,16,3/9/2020 12:35:34 AM,Sent,1,
500008294,13199,cscinfo@etreputation.com,cscinfo@etreputation.com,44493,16,3/10/2020 1:00:35 AM,Sent,1,
500008294,13201,cscinfo@etreputation.com,cscinfo@etreputation.com,44493,16,3/10/2020 1:03:33 AM,Sent,1,
500008294,13203,cscinfo@etreputation.com,cscinfo@etreputation.com,44493,16,3/10/2020 1:07:34 AM,Sent,1,
500008294,13215,cscinfo@etreputation.com,cscinfo@etreputation.com,44493,16,3/10/2020 1:19:33 AM,Sent,1,
500008294,13217,cscinfo@etreputation.com,cscinfo@etreputation.com,44493,16,3/10/2020 1:23:34 AM,Sent,1,
500008294,13548,cscinfo@etreputation.com,cscinfo@etreputation.com,44493,16,3/13/2020 6:41:36 AM,Sent,1,
500008294,13542,cscinfo@etreputation.com,cscinfo@etreputation.com,44493,16,3/13/2020 6:25:35 AM,Sent,1,
500008294,13543,cscinfo@etreputation.com,cscinfo@etreputation.com,44493,16,3/13/2020 6:28:34 AM,Sent,1,
500008294,13544,cscinfo@etreputation.com,cscinfo@etreputation.com,44493,16,3/13/2020 6:31:38 AM,Sent,1,
500008294,13545,cscinfo@etreputation.com,cscinfo@etreputation.com,44493,16,3/13/2020 6:34:34 AM,Sent,1,
500008294,13546,cscinfo@etreputation.com,cscinfo@etreputation.com,44493,16,3/13/2020 6:37:34 AM,Sent,1,
500008294,13547,cscinfo@etreputation.com,cscinfo@etreputation.com,44493,16,3/13/2020 6:39:34 AM,Sent,1,
500008294,13489,cscinfo@etreputation.com,cscinfo@etreputation.com,44493,16,3/12/2020 11:41:35 AM,Sent,1,
500008294,13490,cscinfo@etreputation.com,cscinfo@etreputation.com,44493,16,3/12/2020 11:43:36 AM,Sent,1,
500008294,13491,cscinfo@etreputation.com,cscinfo@etreputation.com,44493,16,3/12/2020 11:45:38 AM,Sent,1,
500008294,13492,cscinfo@etreputation.com,cscinfo@etreputation.com,44493,16,3/12/2020 11:47:34 AM,Sent,1,
500008294,13540,cscinfo@etreputation.com,cscinfo@etreputation.com,44493,16,3/13/2020 6:17:34 AM,Sent,1,
500008294,13541,cscinfo@etreputation.com,cscinfo@etreputation.com,44493,16,3/13/2020 6:21:37 AM,Sent,1,
500008294,13254,cscinfo@etreputation.com,cscinfo@etreputation.com,44493,16,3/10/2020 6:34:34 AM,Sent,1,
500008294,13484,cscinfo@etreputation.com,cscinfo@etreputation.com,44493,16,3/12/2020 11:26:34 AM,Sent,1,
500008294,13485,cscinfo@etreputation.com,cscinfo@etreputation.com,44493,16,3/12/2020 11:30:35 AM,Sent,1,
500008294,13486,cscinfo@etreputation.com,cscinfo@etreputation.com,44493,16,3/12/2020 11:32:36 AM,Sent,1,
500008294,13487,cscinfo@etreputation.com,cscinfo@etreputation.com,44493,16,3/12/2020 11:35:34 AM,Sent,1,
500008294,13488,cscinfo@etreputation.com,cscinfo@etreputation.com,44493,16,3/12/2020 11:37:34 AM,Sent,1,
500008294,13219,cscinfo@etreputation.com,cscinfo@etreputation.com,44493,16,3/10/2020 1:36:34 AM,Sent,1,
500008294,13220,cscinfo@etreputation.com,cscinfo@etreputation.com,44493,16,3/10/2020 1:41:34 AM,Sent,1,
500008294,13221,cscinfo@etreputation.com,cscinfo@etreputation.com,44493,16,3/10/2020 1:44:34 AM,Sent,1,
500008294,13222,cscinfo@etreputation.com,cscinfo@etreputation.com,44493,16,3/10/2020 1:48:34 AM,Sent,1,
500008294,13252,cscinfo@etreputation.com,cscinfo@etreputation.com,44493,16,3/10/2020 6:27:34 AM,Sent,1,
500008294,13253,cscinfo@etreputation.com,cscinfo@etreputation.com,44493,16,3/10/2020 6:31:37 AM,Sent,1,
500008294,13550,123mar,maryambreguet@gmail.com,44619,248,3/13/2020 7:53:34 AM,Sent,0,
500008294,13551,123mar,maryambreguet@gmail.com,44619,248,3/13/2020 7:58:36 AM,Sent,0,
500008294,13552,123mar,maryambreguet@gmail.com,44619,248,3/13/2020 8:05:34 AM,Sent,0,
500008294,13553,123mar,maryambreguet@gmail.com,44619,248,3/13/2020 8:09:36 AM,Sent,0,
500008294,13778,123mar,maryambreguet@gmail.com,44619,248,3/18/2020 4:12:38 AM,Sent,0,
500008294,13550,1234mar,maryam.breguet@accenture.com,44620,248,3/13/2020 7:53:34 AM,Sent,0,
500008294,13551,1234mar,maryam.breguet@accenture.com,44620,248,3/13/2020 7:58:36 AM,Sent,0,
500008294,13552,1234mar,maryam.breguet@accenture.com,44620,248,3/13/2020 8:05:34 AM,Sent,0,
500008294,13553,1234mar,maryam.breguet@accenture.com,44620,248,3/13/2020 8:09:36 AM,Sent,0,
500008294,13778,1234mar,maryam.breguet@accenture.com,44620,248,3/18/2020 4:12:38 AM,Sent,0,
500008294,13724,el.angala@yahoo.com,el.angala@yahoo.com,44801,16,3/17/2020 6:32:34 AM,Sent,1,
500008294,13725,el.angala@yahoo.com,el.angala@yahoo.com,44801,16,3/17/2020 6:34:33 AM,Sent,1,
500008294,13776,alexanderramoscruzjr@outlook.com,alexanderramoscruzjr@outlook.com,44826,16,3/18/2020 3:31:37 AM,Sent,1,
500008294,14261,9012,michael.kraftman@visiondirect.co.uk,44979,16,3/24/2020 8:18:37 AM,Sent,1,
